Gene Set	p-value
hsa00980	0.0
hsa04310	0.02
hsa00650	0.03
hsa00750	0.04
hsa04964	0.04
hsa03008	0.04
hsa05100	0.04
hsa00910	0.04
hsa00330	0.04
hsa04610	0.05
hsa00340	0.06
hsa00860	0.07
hsa04910	0.07
hsa05020	0.08
hsa00270	0.08
hsa03060	0.09
hsa04660	0.09
hsa04664	0.09
hsa00730	0.1
hsa04144	0.1
hsa04380	0.11
hsa04270	0.11
hsa04060	0.11
hsa04130	0.12
hsa04920	0.12
hsa04975	0.13
hsa00350	0.13
hsa04150	0.14
hsa05010	0.14
hsa04012	0.15
hsa05322	0.16
hsa04630	0.17
hsa04971	0.18
hsa00010	0.19
hsa00565	0.19
hsa04070	0.2
hsa04350	0.2
hsa04370	0.2
hsa04340	0.2
hsa05217	0.21
hsa04972	0.21
hsa05220	0.21
hsa05222	0.21
hsa04020	0.22
hsa00590	0.23
hsa00760	0.23
hsa04080	0.24
hsa05131	0.24
hsa05416	0.24
hsa00071	0.24
hsa04010	0.24
hsa04974	0.25
hsa00250	0.25
hsa05014	0.26
hsa04621	0.26
hsa04970	0.27
hsa05414	0.28
hsa00533	0.31
hsa00450	0.31
hsa04330	0.32
hsa00360	0.33
hsa00600	0.33
hsa01100	0.33
hsa00030	0.36
hsa04122	0.36
hsa00520	0.37
hsa00400	0.37
hsa02010	0.37
hsa04744	0.37
hsa04512	0.37
hsa05160	0.39
hsa00524	0.39
hsa04062	0.39
hsa05412	0.4
hsa04810	0.4
hsa00471	0.4
hsa00430	0.4
hsa00290	0.41
hsa00260	0.41
hsa00592	0.41
hsa04960	0.42
hsa05150	0.42
hsa04973	0.42
hsa04142	0.42
hsa05216	0.42
hsa00740	0.43
hsa03420	0.44
hsa04120	0.44
hsa05214	0.45
hsa04670	0.45
hsa00562	0.46
hsa00100	0.46
hsa05210	0.46
hsa05142	0.47
hsa05110	0.48
hsa05145	0.48
hsa00564	0.5
hsa00072	0.51
hsa05221	0.51
hsa00920	0.54
hsa00510	0.54
hsa05130	0.54
hsa04976	0.54
hsa04520	0.55
hsa04912	0.56
hsa04540	0.56
hsa00380	0.56
hsa04916	0.56
hsa04514	0.57
hsa05144	0.58
hsa00982	0.58
hsa03320	0.58
hsa05211	0.58
hsa05200	0.59
hsa04210	0.59
hsa05323	0.6
hsa04614	0.6
hsa04666	0.61
hsa05410	0.61
hsa00480	0.61
hsa05213	0.62
hsa05330	0.62
hsa05120	0.62
hsa00780	0.64
hsa04940	0.64
hsa04530	0.64
hsa05140	0.64
hsa04962	0.65
hsa04650	0.65
hsa00983	0.67
hsa00460	0.67
hsa00561	0.67
hsa00052	0.67
hsa05016	0.68
hsa04623	0.69
hsa05012	0.69
hsa00534	0.69
hsa00604	0.7
hsa04320	0.7
hsa00630	0.7
hsa04115	0.7
hsa00591	0.7
hsa04620	0.7
hsa04662	0.71
hsa05143	0.71
hsa00051	0.71
hsa04930	0.71
hsa00500	0.72
hsa00514	0.72
hsa04720	0.73
hsa04710	0.73
hsa05212	0.73
hsa00410	0.73
hsa03010	0.73
hsa05219	0.74
hsa04722	0.76
hsa00790	0.76
hsa00531	0.76
hsa03015	0.77
hsa05218	0.78
hsa00512	0.78
hsa00670	0.78
hsa00240	0.79
hsa04640	0.79
hsa04622	0.79
hsa05340	0.8
hsa00310	0.8
hsa04360	0.8
hsa00620	0.8
hsa05223	0.8
hsa00061	0.81
hsa00020	0.82
hsa04145	0.82
hsa00062	0.84
hsa03410	0.85
hsa04260	0.85
hsa03018	0.87
hsa00140	0.87
hsa04510	0.87
hsa03013	0.88
hsa04977	0.88
hsa00563	0.88
hsa03430	0.88
hsa04950	0.89
hsa00472	0.9
hsa04146	0.9
hsa03020	0.9
hsa00300	0.9
hsa00532	0.9
hsa04914	0.9
hsa04966	0.91
hsa00280	0.91
hsa03440	0.91
hsa05215	0.92
hsa05332	0.92
hsa05146	0.92
hsa00785	0.94
hsa01040	0.95
hsa00190	0.95
hsa04110	0.95
hsa00120	0.96
hsa04730	0.96
hsa00640	0.96
hsa00900	0.96
hsa04612	0.97
hsa00603	0.97
hsa00053	0.97
hsa03450	0.97
hsa04114	0.97
hsa03040	0.98
hsa03022	0.98
hsa00230	0.98
hsa04740	0.98
hsa00232	0.98
hsa04141	0.99
hsa00130	0.99
hsa00601	1.0
hsa05320	1.0
hsa05310	1.0
hsa00511	1.0
hsa04140	1.0
hsa04742	1.0
hsa04672	1.0
hsa00970	1.0
hsa00830	1.0
hsa03030	1.0
hsa03050	1.0
hsa00040	1.0
hsa00770	1.0
