Gene Set	AUC
hsa04514	0.95555556
hsa00524	0.94444444
hsa04115	0.94222222
hsa04960	0.94
hsa05144	0.93555556
hsa05140	0.93555556
hsa04512	0.92888889
hsa00010	0.92444444
hsa04710	0.91777778
hsa05412	0.91333333
hsa04720	0.91111111
hsa05410	0.90888889
hsa04920	0.90888889
hsa04973	0.90666667
hsa04530	0.90666667
hsa00500	0.90222222
hsa00600	0.9
hsa00100	0.9
hsa04910	0.9
hsa04520	0.89777778
hsa05322	0.89777778
hsa00601	0.89555556
hsa04640	0.89555556
hsa04360	0.89555556
hsa00330	0.89555556
hsa00982	0.89333333
hsa04310	0.89333333
hsa00052	0.89333333
hsa05214	0.89111111
hsa04260	0.89111111
hsa04977	0.88888889
hsa04350	0.88888889
hsa00900	0.88888889
hsa03320	0.88666667
hsa04114	0.88444444
hsa05211	0.88444444
hsa00520	0.88222222
hsa00512	0.88222222
hsa00051	0.88222222
hsa04144	0.88222222
hsa04916	0.88222222
hsa04930	0.88222222
hsa00650	0.88
hsa05160	0.87777778
hsa04974	0.87777778
hsa04914	0.87777778
hsa05220	0.87777778
hsa05414	0.87555556
hsa00630	0.87555556
hsa05216	0.87555556
hsa03410	0.87333333
hsa00510	0.87333333
hsa04972	0.87111111
hsa00980	0.87111111
hsa00860	0.86888889
hsa05212	0.86888889
hsa04330	0.86666667
hsa04270	0.86666667
hsa05146	0.86666667
hsa04510	0.86666667
hsa04540	0.86444444
hsa00640	0.86444444
hsa00590	0.86222222
hsa05100	0.86222222
hsa04610	0.86
hsa05221	0.86
hsa04142	0.85777778
hsa04060	0.85777778
hsa00471	0.85777778
hsa04070	0.85555556
hsa05110	0.85555556
hsa05200	0.85555556
hsa00480	0.85555556
hsa04120	0.85555556
hsa04110	0.85333333
hsa05416	0.85111111
hsa00380	0.85111111
hsa00620	0.85111111
hsa00565	0.85111111
hsa03450	0.84888889
hsa05142	0.84666667
hsa04976	0.84666667
hsa04621	0.84666667
hsa00270	0.84444444
hsa04122	0.84444444
hsa00061	0.84222222
hsa00561	0.84222222
hsa00340	0.84222222
hsa04210	0.84222222
hsa05217	0.84
hsa04150	0.84
hsa05223	0.84
hsa00533	0.83777778
hsa05215	0.83777778
hsa05120	0.83777778
hsa00072	0.83555556
hsa00250	0.83555556
hsa04340	0.83555556
hsa03018	0.83333333
hsa04962	0.83333333
hsa00360	0.83111111
hsa04630	0.83111111
hsa04650	0.83111111
hsa04620	0.83111111
hsa00760	0.82666667
hsa00983	0.82666667
hsa05213	0.82666667
hsa04662	0.82666667
hsa01100	0.82666667
hsa00970	0.82444444
hsa00830	0.82222222
hsa05020	0.82
hsa00564	0.82
hsa04660	0.81777778
hsa04146	0.81777778
hsa01040	0.81777778
hsa00071	0.81777778
hsa04145	0.81777778
hsa04010	0.81555556
hsa00670	0.81555556
hsa05131	0.81333333
hsa00260	0.81333333
hsa05332	0.81333333
hsa00230	0.81333333
hsa04940	0.81333333
hsa04012	0.81111111
hsa00562	0.81111111
hsa05218	0.81111111
hsa05210	0.81111111
hsa00140	0.80888889
hsa04020	0.80888889
hsa04612	0.80666667
hsa00790	0.80666667
hsa05222	0.80666667
hsa04130	0.80444444
hsa04380	0.80222222
hsa03030	0.80222222
hsa04140	0.79777778
hsa00310	0.79777778
hsa05323	0.79555556
hsa00603	0.79555556
hsa05219	0.79555556
hsa04666	0.79333333
hsa05010	0.79111111
hsa00030	0.79111111
hsa03040	0.78888889
hsa04370	0.78888889
hsa04080	0.78444444
hsa05130	0.78222222
hsa05320	0.78
hsa05150	0.78
hsa04670	0.77777778
hsa04950	0.77555556
hsa00531	0.77555556
hsa00290	0.77333333
hsa04971	0.77333333
hsa04614	0.77333333
hsa05143	0.77333333
hsa04320	0.77111111
hsa04964	0.77111111
hsa05330	0.77111111
hsa00920	0.76666667
hsa04062	0.76666667
hsa05145	0.76444444
hsa00280	0.76444444
hsa04970	0.76222222
hsa04810	0.76
hsa00910	0.76
hsa00740	0.76
hsa04912	0.75777778
hsa04966	0.75555556
hsa00350	0.75555556
hsa04141	0.74888889
hsa03008	0.74666667
hsa04975	0.74666667
hsa00532	0.74666667
hsa04722	0.74444444
hsa04730	0.74444444
hsa00770	0.74444444
hsa03420	0.74222222
hsa00430	0.74222222
hsa03440	0.74222222
hsa00591	0.74222222
hsa03013	0.73777778
hsa00750	0.73777778
hsa03020	0.73111111
hsa00534	0.73111111
hsa03022	0.72888889
hsa00240	0.72888889
hsa03060	0.72888889
hsa00410	0.72444444
hsa03010	0.72444444
hsa05340	0.71777778
hsa00020	0.71555556
hsa00190	0.71555556
hsa03015	0.71333333
hsa04740	0.71333333
hsa00232	0.71333333
hsa05012	0.71333333
hsa00514	0.70888889
hsa05310	0.70444444
hsa02010	0.70444444
hsa00062	0.70222222
hsa04622	0.7
hsa00563	0.69555556
hsa03050	0.69333333
hsa04623	0.69111111
hsa04664	0.69111111
hsa00120	0.68666667
hsa04672	0.68666667
hsa03430	0.68222222
hsa00400	0.68
hsa00130	0.68
hsa05016	0.67555556
hsa00460	0.67111111
hsa04742	0.67111111
hsa05014	0.66888889
hsa00511	0.66
hsa00785	0.65555556
hsa00592	0.64
hsa00780	0.59777778
hsa00604	0.58444444
hsa00730	0.58222222
hsa04744	0.56888889
hsa00450	0.56666667
hsa00040	0.55777778
hsa00053	0.55111111
hsa00300	0.54666667
hsa00472	0.51777778
