Gene Set	p-value
hsa04960	0.0
hsa05140	0.0
hsa00524	0.0
hsa04115	0.0
hsa04514	0.0
hsa05144	0.01
hsa04512	0.01
hsa04720	0.02
hsa05412	0.02
hsa04710	0.02
hsa00010	0.02
hsa00471	0.02
hsa04920	0.02
hsa04530	0.04
hsa04520	0.05
hsa00330	0.05
hsa05410	0.06
hsa00982	0.06
hsa05214	0.06
hsa04260	0.06
hsa00100	0.06
hsa04910	0.06
hsa00500	0.07
hsa04973	0.07
hsa00600	0.08
hsa04977	0.09
hsa03320	0.09
hsa04360	0.09
hsa05322	0.09
hsa00900	0.09
hsa05211	0.09
hsa00601	0.1
hsa04310	0.1
hsa04640	0.1
hsa00052	0.11
hsa00061	0.13
hsa00072	0.13
hsa00630	0.13
hsa04974	0.13
hsa05220	0.13
hsa04122	0.13
hsa04350	0.14
hsa00520	0.16
hsa00512	0.16
hsa00051	0.16
hsa04114	0.16
hsa00980	0.16
hsa04930	0.16
hsa00650	0.17
hsa04144	0.17
hsa04916	0.17
hsa04914	0.18
hsa05212	0.18
hsa05414	0.19
hsa05216	0.19
hsa03410	0.2
hsa00510	0.2
hsa05160	0.2
hsa04330	0.21
hsa04610	0.21
hsa00590	0.21
hsa05221	0.21
hsa05100	0.21
hsa00640	0.21
hsa00860	0.21
hsa04972	0.22
hsa04510	0.23
hsa03450	0.24
hsa05110	0.25
hsa00480	0.25
hsa04540	0.26
hsa05416	0.27
hsa00380	0.27
hsa00620	0.27
hsa00565	0.27
hsa04270	0.28
hsa05146	0.28
hsa04976	0.29
hsa04621	0.29
hsa04070	0.3
hsa00533	0.31
hsa00270	0.32
hsa04142	0.32
hsa00750	0.33
hsa00561	0.34
hsa00340	0.34
hsa04150	0.35
hsa04110	0.36
hsa04060	0.36
hsa00360	0.37
hsa05217	0.37
hsa05223	0.37
hsa00760	0.38
hsa05120	0.38
hsa00250	0.38
hsa05142	0.39
hsa04340	0.39
hsa03018	0.4
hsa01040	0.4
hsa04962	0.4
hsa00670	0.4
hsa04120	0.4
hsa00983	0.42
hsa04210	0.42
hsa00970	0.43
hsa05200	0.43
hsa05213	0.44
hsa05020	0.44
hsa04662	0.44
hsa00830	0.44
hsa00071	0.44
hsa00260	0.45
hsa05332	0.45
hsa04940	0.45
hsa04650	0.45
hsa05215	0.47
hsa00790	0.47
hsa00564	0.47
hsa00140	0.48
hsa00603	0.51
hsa04130	0.51
hsa04660	0.52
hsa04630	0.53
hsa03030	0.53
hsa04612	0.54
hsa00562	0.54
hsa05218	0.54
hsa05131	0.54
hsa05210	0.54
hsa04140	0.55
hsa00310	0.55
hsa00400	0.55
hsa00430	0.55
hsa04620	0.55
hsa05219	0.56
hsa00030	0.6
hsa04380	0.61
hsa00290	0.62
hsa04320	0.62
hsa04950	0.62
hsa00230	0.62
hsa04964	0.62
hsa04614	0.62
hsa00531	0.62
hsa00785	0.63
hsa00920	0.64
hsa04146	0.64
hsa00910	0.64
hsa00740	0.64
hsa04020	0.65
hsa05320	0.66
hsa05150	0.66
hsa04012	0.67
hsa00472	0.68
hsa05330	0.68
hsa05143	0.68
hsa00232	0.69
hsa04370	0.69
hsa03040	0.71
hsa00062	0.71
hsa04010	0.71
hsa04145	0.71
hsa00532	0.72
hsa00280	0.72
hsa01100	0.73
hsa05130	0.73
hsa00770	0.73
hsa00591	0.73
hsa05222	0.74
hsa05010	0.75
hsa04971	0.76
hsa04966	0.77
hsa00350	0.77
hsa05323	0.78
hsa04666	0.78
hsa00780	0.78
hsa00130	0.78
hsa03060	0.79
hsa04670	0.79
hsa04975	0.81
hsa00730	0.82
hsa00410	0.82
hsa03420	0.83
hsa03440	0.83
hsa00460	0.84
hsa03020	0.84
hsa00534	0.84
hsa03022	0.85
hsa04080	0.85
hsa00300	0.87
hsa04062	0.87
hsa00020	0.88
hsa05340	0.88
hsa05145	0.89
hsa00120	0.9
hsa00514	0.9
hsa03008	0.9
hsa00563	0.9
hsa03430	0.9
hsa05310	0.91
hsa04730	0.91
hsa02010	0.91
hsa04970	0.92
hsa00511	0.92
hsa04722	0.93
hsa04912	0.93
hsa04141	0.94
hsa03013	0.95
hsa04672	0.95
hsa04740	0.95
hsa04810	0.95
hsa00190	0.95
hsa03050	0.95
hsa05012	0.95
hsa03010	0.95
hsa04742	0.96
hsa00592	0.96
hsa00240	0.97
hsa00604	0.98
hsa00450	0.98
hsa03015	0.98
hsa04623	0.99
hsa00053	0.99
hsa05016	0.99
hsa05014	0.99
hsa00040	0.99
hsa04622	0.99
hsa04664	0.99
hsa04744	1.0
