Gene Set	AUC
hsa00980	0.98874513
hsa00650	0.98431407
hsa04310	0.98351648
hsa05100	0.98298476
hsa00330	0.98298476
hsa03008	0.98289614
hsa00340	0.98289614
hsa04610	0.98245303
hsa04660	0.98236441
hsa00860	0.98218717
hsa00270	0.98183268
hsa04664	0.98174406
hsa04144	0.9814782
hsa04380	0.98138958
hsa04270	0.98138958
hsa05020	0.98121234
hsa04910	0.98076923
hsa05010	0.98032613
hsa04060	0.98006026
hsa04920	0.98006026
hsa04630	0.97943991
hsa04012	0.97935129
hsa04130	0.97935129
hsa04964	0.97917405
hsa00910	0.97908543
hsa04975	0.97890819
hsa00350	0.97890819
hsa04150	0.97864233
hsa04971	0.97864233
hsa05322	0.9785537
hsa00010	0.97846508
hsa04370	0.97837646
hsa04020	0.97828784
hsa04340	0.97828784
hsa05220	0.97819922
hsa01100	0.97793336
hsa04010	0.97793336
hsa04080	0.97784474
hsa04350	0.97757887
hsa05217	0.97740163
hsa04070	0.97740163
hsa00565	0.97722439
hsa04972	0.97713577
hsa05222	0.97713577
hsa03060	0.97695853
hsa00590	0.9768699
hsa05131	0.97669266
hsa05416	0.97651542
hsa04810	0.97651542
hsa04970	0.97633818
hsa04974	0.97633818
hsa00071	0.97624956
hsa04621	0.97616094
hsa05414	0.97607231
hsa05014	0.97607231
hsa00250	0.97607231
hsa05160	0.97571783
hsa04330	0.97527473
hsa04062	0.97500886
hsa05412	0.974743
hsa04512	0.974743
hsa00600	0.97465438
hsa04120	0.97465438
hsa04142	0.97447714
hsa05200	0.97438851
hsa04670	0.97421127
hsa05142	0.97412265
hsa05214	0.97403403
hsa00030	0.97403403
hsa04744	0.97385679
hsa05210	0.97376817
hsa00562	0.97367955
hsa05145	0.97367955
hsa00520	0.97359093
hsa05110	0.97359093
hsa02010	0.97359093
hsa00260	0.97297058
hsa00564	0.97297058
hsa05150	0.97288196
hsa04514	0.97288196
hsa05221	0.97279334
hsa04912	0.97261609
hsa04540	0.97261609
hsa04973	0.97261609
hsa00760	0.97252747
hsa04916	0.97252747
hsa04960	0.97243885
hsa05216	0.97243885
hsa05130	0.97243885
hsa04976	0.97243885
hsa04520	0.97235023
hsa04210	0.97235023
hsa03420	0.97226161
hsa05323	0.97208437
hsa05211	0.97190713
hsa04666	0.97155264
hsa05410	0.97155264
hsa00982	0.97155264
hsa03320	0.97146402
hsa05016	0.97146402
hsa04530	0.9713754
hsa04650	0.97110954
hsa00510	0.97102091
hsa00533	0.97084367
hsa00380	0.97075505
hsa05144	0.97066643
hsa00450	0.97066643
hsa05120	0.97048919
hsa05213	0.97040057
hsa05012	0.97040057
hsa00360	0.97022333
hsa05140	0.97022333
hsa00480	0.9701347
hsa04722	0.96995746
hsa04620	0.96995746
hsa05330	0.96986884
hsa04940	0.96960298
hsa04360	0.96960298
hsa04962	0.96942574
hsa00983	0.96924849
hsa00052	0.96924849
hsa03015	0.96915987
hsa00561	0.96915987
hsa04623	0.96907125
hsa04145	0.96907125
hsa00592	0.96871677
hsa04115	0.96871677
hsa00290	0.96862815
hsa04640	0.96853952
hsa00534	0.96853952
hsa00240	0.9684509
hsa05143	0.96836228
hsa00051	0.96827366
hsa04930	0.96827366
hsa03013	0.96818504
hsa04662	0.96809642
hsa00750	0.9680078
hsa00740	0.96791918
hsa04720	0.96774194
hsa03010	0.96774194
hsa04510	0.96765331
hsa00500	0.96747607
hsa00514	0.96738745
hsa05212	0.96729883
hsa05219	0.96712159
hsa00100	0.9667671
hsa05218	0.96658986
hsa00512	0.96641262
hsa05146	0.96614676
hsa00310	0.96596951
hsa00620	0.96543779
hsa04622	0.96543779
hsa05223	0.96526055
hsa04146	0.96517192
hsa04914	0.9650833
hsa05340	0.96481744
hsa00920	0.96472882
hsa04260	0.96446296
hsa00020	0.96437434
hsa05215	0.96428571
hsa04110	0.96384261
hsa03410	0.96366537
hsa00140	0.96313364
hsa03018	0.96286778
hsa04614	0.96286778
hsa00190	0.96286778
hsa03020	0.96207019
hsa03440	0.96180432
hsa04966	0.96144984
hsa00280	0.9612726
hsa05332	0.96082949
hsa04320	0.96074087
hsa00230	0.96038639
hsa04730	0.96012052
hsa00591	0.95985466
hsa00630	0.95976604
hsa04114	0.95976604
hsa04141	0.95950018
hsa00604	0.95950018
hsa04122	0.95923431
hsa04612	0.95905707
hsa00640	0.95896845
hsa03040	0.95879121
hsa03022	0.95808224
hsa00410	0.95728465
hsa00430	0.95684155
hsa04740	0.95675292
hsa04710	0.9566643
hsa00531	0.95480326
hsa00790	0.95471464
hsa04742	0.95418291
hsa03050	0.95373981
hsa00670	0.9532967
hsa04672	0.95267636
hsa00730	0.95258773
hsa00563	0.95019497
hsa03430	0.9499291
hsa04977	0.94975186
hsa00072	0.94975186
hsa04140	0.94939738
hsa00970	0.94833392
hsa03030	0.94629564
hsa04950	0.9461184
hsa05320	0.94461184
hsa00532	0.94408011
hsa00830	0.94345977
hsa01040	0.93929458
hsa00120	0.93752216
hsa00601	0.93654732
hsa00900	0.93592698
hsa00053	0.93424318
hsa03450	0.93397731
hsa00603	0.93388869
hsa00460	0.93238213
hsa05310	0.92449486
hsa00400	0.92396313
hsa00524	0.92077278
hsa00061	0.91953208
hsa00062	0.91838001
hsa00471	0.91483516
hsa00511	0.90925204
hsa00040	0.90490961
hsa00770	0.90242822
hsa00780	0.87141085
hsa00232	0.82213754
hsa00130	0.79484225
hsa00300	0.76249557
hsa00785	0.72483162
hsa00472	0.50097483
