Gene Set	p-value
hsa00400	0.02
hsa00430	0.02
hsa00290	0.03
hsa04974	0.03
hsa04744	0.03
hsa04623	0.04
hsa04710	0.05
hsa00062	0.05
hsa04062	0.05
hsa00982	0.06
hsa04976	0.06
hsa04630	0.09
hsa04520	0.09
hsa00300	0.1
hsa04964	0.11
hsa00650	0.11
hsa04920	0.12
hsa04912	0.13
hsa00561	0.13
hsa03020	0.13
hsa05218	0.14
hsa00920	0.14
hsa04971	0.14
hsa00053	0.15
hsa00450	0.15
hsa00514	0.16
hsa00380	0.16
hsa04120	0.17
hsa00760	0.2
hsa00512	0.2
hsa04510	0.21
hsa00510	0.22
hsa04142	0.22
hsa04722	0.23
hsa00360	0.23
hsa04972	0.23
hsa00630	0.23
hsa04210	0.23
hsa04620	0.23
hsa03320	0.24
hsa00620	0.24
hsa00040	0.25
hsa00471	0.25
hsa03030	0.27
hsa04260	0.27
hsa00860	0.29
hsa04720	0.31
hsa04115	0.31
hsa00410	0.31
hsa04666	0.35
hsa00140	0.35
hsa00250	0.35
hsa00780	0.36
hsa04512	0.36
hsa00190	0.37
hsa04122	0.37
hsa05016	0.38
hsa00270	0.38
hsa04340	0.38
hsa04012	0.39
hsa00790	0.39
hsa04144	0.39
hsa05130	0.39
hsa00670	0.39
hsa03013	0.4
hsa05160	0.4
hsa04960	0.41
hsa03410	0.41
hsa00350	0.41
hsa00740	0.41
hsa00052	0.42
hsa00601	0.43
hsa00472	0.43
hsa00970	0.43
hsa00240	0.44
hsa04966	0.45
hsa05146	0.45
hsa00340	0.45
hsa00030	0.45
hsa00562	0.47
hsa04672	0.47
hsa04640	0.47
hsa01040	0.47
hsa00531	0.47
hsa00071	0.47
hsa04950	0.48
hsa04610	0.49
hsa04270	0.49
hsa05211	0.49
hsa00020	0.5
hsa00520	0.5
hsa04975	0.5
hsa00910	0.5
hsa03040	0.52
hsa04380	0.52
hsa04530	0.52
hsa04350	0.53
hsa05414	0.53
hsa01100	0.53
hsa00130	0.54
hsa04010	0.54
hsa04742	0.55
hsa00830	0.55
hsa04130	0.55
hsa04110	0.55
hsa00565	0.55
hsa00750	0.56
hsa04310	0.56
hsa00590	0.57
hsa00983	0.57
hsa04140	0.57
hsa00100	0.57
hsa04360	0.58
hsa04970	0.61
hsa00072	0.61
hsa05012	0.61
hsa04810	0.62
hsa04060	0.62
hsa00010	0.62
hsa00564	0.62
hsa03060	0.64
hsa05145	0.64
hsa04940	0.65
hsa00310	0.65
hsa00640	0.65
hsa00592	0.66
hsa04670	0.67
hsa00500	0.68
hsa04962	0.68
hsa05210	0.68
hsa05212	0.68
hsa00980	0.68
hsa03010	0.68
hsa04141	0.69
hsa00603	0.69
hsa04614	0.69
hsa04080	0.7
hsa05410	0.7
hsa04150	0.71
hsa05216	0.71
hsa03022	0.72
hsa04730	0.72
hsa02010	0.72
hsa03440	0.72
hsa00534	0.73
hsa00524	0.75
hsa04540	0.76
hsa05010	0.76
hsa05322	0.76
hsa00511	0.77
hsa00785	0.77
hsa00770	0.77
hsa00061	0.78
hsa05200	0.78
hsa03450	0.79
hsa04145	0.79
hsa04660	0.8
hsa03050	0.8
hsa00280	0.8
hsa05416	0.81
hsa03015	0.81
hsa00230	0.82
hsa00900	0.82
hsa04910	0.82
hsa05310	0.83
hsa05110	0.83
hsa05014	0.83
hsa00051	0.83
hsa04370	0.83
hsa05217	0.85
hsa05150	0.85
hsa04930	0.85
hsa04977	0.86
hsa04514	0.86
hsa04612	0.87
hsa04070	0.87
hsa00260	0.87
hsa04662	0.87
hsa04146	0.87
hsa04973	0.87
hsa03430	0.87
hsa00232	0.87
hsa04622	0.87
hsa05223	0.87
hsa05320	0.88
hsa00330	0.88
hsa05412	0.89
hsa05120	0.89
hsa04664	0.89
hsa04114	0.9
hsa00591	0.9
hsa00460	0.91
hsa05330	0.91
hsa00600	0.91
hsa05144	0.92
hsa05213	0.92
hsa04740	0.92
hsa05142	0.92
hsa05220	0.92
hsa04916	0.92
hsa00604	0.93
hsa05323	0.93
hsa00533	0.93
hsa05214	0.93
hsa05221	0.93
hsa04914	0.93
hsa00480	0.93
hsa03018	0.94
hsa04320	0.94
hsa05020	0.94
hsa05143	0.94
hsa00120	0.95
hsa00563	0.95
hsa05140	0.95
hsa05215	0.96
hsa03008	0.96
hsa04020	0.96
hsa03420	0.98
hsa05340	0.98
hsa00730	0.98
hsa05100	0.98
hsa04650	0.98
hsa05131	0.99
hsa05222	0.99
hsa04621	0.99
hsa04330	1.0
hsa05219	1.0
hsa05332	1.0
hsa00532	1.0
