Gene Set	p-value
hsa00730	0.13
hsa00524	0.13
hsa00472	0.18
hsa00460	0.22
hsa00130	0.22
hsa00300	0.29
hsa00072	0.44
hsa00400	0.46
hsa00430	0.51
hsa00290	0.52
hsa00760	0.52
hsa00120	0.52
hsa03060	0.52
hsa04964	0.52
hsa00910	0.52
hsa00100	0.52
hsa00471	0.52
hsa00770	0.52
hsa00670	0.52
hsa00750	0.62
hsa00062	0.62
hsa04960	0.65
hsa04320	0.65
hsa03420	0.65
hsa05219	0.65
hsa00983	0.65
hsa04966	0.65
hsa00520	0.65
hsa04710	0.65
hsa04150	0.65
hsa05332	0.65
hsa00500	0.65
hsa04140	0.65
hsa03450	0.65
hsa00514	0.65
hsa04940	0.65
hsa04672	0.65
hsa04975	0.65
hsa00270	0.65
hsa00310	0.65
hsa03020	0.65
hsa00600	0.65
hsa03030	0.65
hsa04973	0.65
hsa00860	0.65
hsa04130	0.65
hsa02010	0.65
hsa04962	0.65
hsa00040	0.65
hsa00051	0.65
hsa05216	0.65
hsa00350	0.65
hsa00030	0.65
hsa00565	0.65
hsa00534	0.65
hsa04930	0.65
hsa00052	0.65
hsa04610	0.69
hsa00590	0.69
hsa03018	0.69
hsa04612	0.69
hsa04720	0.69
hsa00562	0.69
hsa05218	0.69
hsa05213	0.69
hsa00982	0.69
hsa05131	0.69
hsa03320	0.69
hsa04662	0.69
hsa05214	0.69
hsa05110	0.69
hsa05221	0.69
hsa03008	0.69
hsa05416	0.69
hsa04730	0.69
hsa05100	0.69
hsa05014	0.69
hsa04520	0.69
hsa04974	0.69
hsa05140	0.69
hsa04622	0.69
hsa05223	0.69
hsa05130	0.69
hsa04115	0.69
hsa04920	0.69
hsa05120	0.69
hsa00980	0.69
hsa05211	0.69
hsa04621	0.69
hsa04664	0.69
hsa03013	0.72
hsa04722	0.72
hsa00511	0.72
hsa04310	0.72
hsa05160	0.72
hsa04360	0.72
hsa04910	0.72
hsa04120	0.72
hsa04145	0.72
hsa04514	0.72
hsa03410	0.74
hsa05320	0.74
hsa05310	0.74
hsa05020	0.74
hsa05340	0.74
hsa05150	0.74
hsa00650	0.74
hsa03430	0.74
hsa00591	0.74
hsa04270	0.76
hsa05142	0.76
hsa00190	0.76
hsa04142	0.76
hsa05012	0.76
hsa04670	0.76
hsa04012	0.77
hsa05323	0.77
hsa05215	0.77
hsa04666	0.77
hsa05410	0.77
hsa04070	0.77
hsa04912	0.77
hsa04540	0.77
hsa04972	0.77
hsa04146	0.77
hsa03015	0.77
hsa05322	0.77
hsa04914	0.77
hsa04210	0.77
hsa04512	0.77
hsa04916	0.77
hsa04620	0.77
hsa04623	0.78
hsa04080	0.78
hsa04060	0.78
hsa04010	0.78
hsa05212	0.78
hsa00564	0.78
hsa00970	0.79
hsa04122	0.8
hsa05412	0.81
hsa04971	0.81
hsa04260	0.81
hsa00010	0.81
hsa00601	0.82
hsa00260	0.82
hsa00512	0.82
hsa00830	0.82
hsa00640	0.82
hsa00620	0.82
hsa05143	0.82
hsa00480	0.82
hsa00360	0.83
hsa00920	0.83
hsa00604	0.84
hsa00780	0.86
hsa04141	0.87
hsa04380	0.87
hsa04630	0.87
hsa00230	0.87
hsa04660	0.87
hsa05146	0.87
hsa05145	0.87
hsa04144	0.87
hsa04114	0.87
hsa04062	0.87
hsa04510	0.87
hsa04020	0.87
hsa00603	0.88
hsa05144	0.88
hsa01040	0.88
hsa00531	0.88
hsa04110	0.88
hsa04530	0.88
hsa03050	0.88
hsa00592	0.88
hsa04370	0.88
hsa04744	0.88
hsa04650	0.88
hsa04976	0.88
hsa03440	0.88
hsa00250	0.88
hsa04340	0.88
hsa00740	0.88
hsa04330	0.89
hsa04970	0.89
hsa00510	0.89
hsa04640	0.89
hsa05330	0.89
hsa05414	0.89
hsa00561	0.89
hsa00280	0.89
hsa05222	0.89
hsa00020	0.9
hsa04977	0.9
hsa00450	0.9
hsa00563	0.9
hsa00410	0.9
hsa00630	0.91
hsa01100	0.92
hsa03040	0.93
hsa00140	0.93
hsa05010	0.93
hsa04810	0.93
hsa00071	0.93
hsa00785	0.93
hsa05210	0.93
hsa00533	0.94
hsa05217	0.94
hsa00240	0.94
hsa00053	0.94
hsa00900	0.94
hsa00790	0.95
hsa00532	0.95
hsa05200	0.95
hsa04614	0.96
hsa04350	0.97
hsa05016	0.97
hsa05220	0.97
hsa00380	0.98
hsa00330	0.98
hsa00061	0.99
hsa04950	0.99
hsa00232	0.99
hsa03022	1.0
hsa04742	1.0
hsa04740	1.0
hsa00340	1.0
hsa03010	1.0
