Gene Set	AUC
KEGG_PATHWAYS_IN_CANCER	0.97682332
REACTOME_CELL_CYCLE_MITOTIC	0.97628226
REACTOME_IMMUNE_SYSTEM	0.97616061
REACTOME_DEVELOPMENTAL_BIOLOGY	0.97605047
REACTOME_SIGNALLING_BY_NGF	0.97596355
REACTOME_CELL_CYCLE	0.97586923
REACTOME_METABOLISM_OF_PROTEINS	0.97561031
REACTOME_METABOLISM_OF_CARBOHYDRATES	0.97559592
PID_PDGFRBPATHWAY	0.97543852
KEGG_MAPK_SIGNALING_PATHWAY	0.97538468
REACTOME_SIGNALING_BY_EGFR_IN_CANCER	0.97531255
KEGG_ENDOCYTOSIS	0.97529262
REACTOME_AXON_GUIDANCE	0.97521371
REACTOME_NGF_SIGNALLING_VIA_TRKA_FROM_THE_PLASMA_MEMBRANE	0.97513871
REACTOME_ADAPTIVE_IMMUNE_SYSTEM	0.9750859
REACTOME_SIGNALING_BY_FGFR_IN_DISEASE	0.9748015
REACTOME_MITOTIC_G1_G1_S_PHASES	0.97479019
REACTOME_INTEGRATION_OF_ENERGY_METABOLISM	0.97473533
KEGG_SMALL_CELL_LUNG_CANCER	0.97467327
REACTOME_METABOLISM_OF_LIPIDS_AND_LIPOPROTEINS	0.97455429
REACTOME_G1_S_TRANSITION	0.97418954
REACTOME_SIGNALING_BY_RHO_GTPASES	0.97413776
KEGG_REGULATION_OF_ACTIN_CYTOSKELETON	0.97412995
REACTOME_TRANSMEMBRANE_TRANSPORT_OF_SMALL_MOLECULES	0.97407324
KEGG_ALZHEIMERS_DISEASE	0.97400686
REACTOME_NEURONAL_SYSTEM	0.97397131
REACTOME_SIGNALING_BY_GPCR	0.97391871
REACTOME_CLASS_I_MHC_MEDIATED_ANTIGEN_PROCESSING_PRESENTATION	0.97391747
KEGG_CHEMOKINE_SIGNALING_PATHWAY	0.97389035
REACTOME_TRANSLATION	0.97381062
REACTOME_GASTRIN_CREB_SIGNALLING_PATHWAY_VIA_PKC_AND_MAPK	0.97375514
KEGG_CELL_CYCLE	0.97371835
REACTOME_G_ALPHA_Q_SIGNALLING_EVENTS	0.97359444
REACTOME_CYTOKINE_SIGNALING_IN_IMMUNE_SYSTEM	0.9735067
REACTOME_GPCR_LIGAND_BINDING	0.97350197
REACTOME_GPCR_DOWNSTREAM_SIGNALING	0.97342923
REACTOME_S_PHASE	0.97334251
KEGG_CALCIUM_SIGNALING_PATHWAY	0.97332792
REACTOME_DOWNSTREAM_SIGNAL_TRANSDUCTION	0.97332278
REACTOME_SLC_MEDIATED_TRANSMEMBRANE_TRANSPORT	0.97328086
KEGG_HUNTINGTONS_DISEASE	0.9732784
KEGG_VASCULAR_SMOOTH_MUSCLE_CONTRACTION	0.97322189
REACTOME_PHOSPHOLIPID_METABOLISM	0.97318182
REACTOME_SIGNALING_BY_PDGF	0.97312264
PID_ERBB1_DOWNSTREAM_PATHWAY	0.97301311
REACTOME_ANTIGEN_PROCESSING_UBIQUITINATION_PROTEASOME_DEGRADATION	0.97299194
REACTOME_CELL_CYCLE_CHECKPOINTS	0.97289783
REACTOME_CLASS_A1_RHODOPSIN_LIKE_RECEPTORS	0.9728181
REACTOME_DNA_REPLICATION	0.97278111
REACTOME_METABOLISM_OF_RNA	0.97274659
REACTOME_INNATE_IMMUNE_SYSTEM	0.97270138
REACTOME_TRANSMISSION_ACROSS_CHEMICAL_SYNAPSES	0.97270097
KEGG_FOCAL_ADHESION	0.97252034
PID_E2F_PATHWAY	0.97251274
REACTOME_G_ALPHA_I_SIGNALLING_EVENTS	0.9725037
KEGG_WNT_SIGNALING_PATHWAY	0.97249836
REACTOME_METABOLISM_OF_MRNA	0.97246055
KEGG_CARDIAC_MUSCLE_CONTRACTION	0.97244698
REACTOME_SIGNALING_BY_ERBB2	0.97242089
KEGG_OXIDATIVE_PHOSPHORYLATION	0.97232492
REACTOME_APOPTOSIS	0.97224766
REACTOME_HIV_INFECTION	0.97223759
KEGG_INSULIN_SIGNALING_PATHWAY	0.97218765
KEGG_PARKINSONS_DISEASE	0.97215149
REACTOME_HEMOSTASIS	0.97210176
REACTOME_MITOTIC_M_M_G1_PHASES	0.97204011
PID_CXCR4_PATHWAY	0.9719612
REACTOME_POST_TRANSLATIONAL_PROTEIN_MODIFICATION	0.97174297
REACTOME_SIGNALING_BY_FGFR	0.97163776
KEGG_PHOSPHATIDYLINOSITOL_SIGNALING_SYSTEM	0.97141193
REACTOME_CELL_CELL_COMMUNICATION	0.97137473
PID_P53DOWNSTREAMPATHWAY	0.97137432
PID_VEGFR1_2_PATHWAY	0.97134124
REACTOME_SIGNALING_BY_THE_B_CELL_RECEPTOR_BCR	0.9712574
KEGG_FC_GAMMA_R_MEDIATED_PHAGOCYTOSIS	0.97125267
REACTOME_MEMBRANE_TRAFFICKING	0.97121835
REACTOME_METABOLISM_OF_AMINO_ACIDS_AND_DERIVATIVES	0.97115979
KEGG_UBIQUITIN_MEDIATED_PROTEOLYSIS	0.97114582
REACTOME_REGULATION_OF_INSULIN_SECRETION	0.9711413
REACTOME_SIGNALING_BY_ERBB4	0.9711228
KEGG_CYTOKINE_CYTOKINE_RECEPTOR_INTERACTION	0.97109938
REACTOME_TCA_CYCLE_AND_RESPIRATORY_ELECTRON_TRANSPORT	0.97106609
REACTOME_DOWNSTREAM_SIGNALING_OF_ACTIVATED_FGFR	0.97104841
REACTOME_DIABETES_PATHWAYS	0.971018
KEGG_JAK_STAT_SIGNALING_PATHWAY	0.97099704
PID_TRKRPATHWAY	0.97096211
REACTOME_GENERIC_TRANSCRIPTION_PATHWAY	0.97094526
REACTOME_3_UTR_MEDIATED_TRANSLATIONAL_REGULATION	0.97092532
REACTOME_PEPTIDE_LIGAND_BINDING_RECEPTORS	0.97086758
PID_ECADHERIN_NASCENTAJ_PATHWAY	0.97083964
REACTOME_L1CAM_INTERACTIONS	0.97083943
REACTOME_SRP_DEPENDENT_COTRANSLATIONAL_PROTEIN_TARGETING_TO_MEMBRANE	0.97082299
PID_SMAD2_3NUCLEARPATHWAY	0.97077326
REACTOME_GLYCOSAMINOGLYCAN_METABOLISM	0.9706847
REACTOME_P75_NTR_RECEPTOR_MEDIATED_SIGNALLING	0.97067812
REACTOME_INFLUENZA_LIFE_CYCLE	0.97065901
REACTOME_PLATELET_ACTIVATION_SIGNALING_AND_AGGREGATION	0.97046092
REACTOME_NEUROTRANSMITTER_RECEPTOR_BINDING_AND_DOWNSTREAM_TRANSMISSION_IN_THE_POSTSYNAPTIC_CELL	0.9703966
REACTOME_OPIOID_SIGNALLING	0.97038591
REACTOME_HOST_INTERACTIONS_OF_HIV_FACTORS	0.97037892
PID_RB_1PATHWAY	0.97028502
PID_RHOA_PATHWAY	0.97005877
KEGG_MELANOGENESIS	0.97004562
KEGG_T_CELL_RECEPTOR_SIGNALING_PATHWAY	0.97001315
REACTOME_MRNA_PROCESSING	0.96999959
REACTOME_SIGNALING_BY_SCF_KIT	0.96998438
KEGG_OOCYTE_MEIOSIS	0.96989294
KEGG_LYSOSOME	0.96987095
KEGG_NEUROACTIVE_LIGAND_RECEPTOR_INTERACTION	0.96983725
PID_BETACATENIN_NUC_PATHWAY	0.96979595
REACTOME_NONSENSE_MEDIATED_DECAY_ENHANCED_BY_THE_EXON_JUNCTION_COMPLEX	0.96978341
REACTOME_SIGNALING_BY_ILS	0.96974766
KEGG_DILATED_CARDIOMYOPATHY	0.96971067
KEGG_CHRONIC_MYELOID_LEUKEMIA	0.96967574
REACTOME_G_ALPHA1213_SIGNALLING_EVENTS	0.96966094
KEGG_TIGHT_JUNCTION	0.96962313
REACTOME_PI_METABOLISM	0.96958409
REACTOME_G_ALPHA_S_SIGNALLING_EVENTS	0.96957052
REACTOME_RESPIRATORY_ELECTRON_TRANSPORT_ATP_SYNTHESIS_BY_CHEMIOSMOTIC_COUPLING_AND_HEAT_PRODUCTION_BY_UNCOUPLING_PROTEINS_	0.9694799
REACTOME_FATTY_ACID_TRIACYLGLYCEROL_AND_KETONE_BODY_METABOLISM	0.9692814
REACTOME_SIGNALING_BY_INSULIN_RECEPTOR	0.96925489
REACTOME_DOWNSTREAM_SIGNALING_EVENTS_OF_B_CELL_RECEPTOR_BCR	0.96924585
PID_MYC_ACTIVPATHWAY	0.96907077
PID_MTOR_4PATHWAY	0.96899659
REACTOME_SIGNALING_BY_NOTCH	0.96891193
KEGG_NEUROTROPHIN_SIGNALING_PATHWAY	0.96885953
PID_MET_PATHWAY	0.96884206
KEGG_LEUKOCYTE_TRANSENDOTHELIAL_MIGRATION	0.96875473
KEGG_PROGESTERONE_MEDIATED_OOCYTE_MATURATION	0.96871445
REACTOME_CLASS_B_2_SECRETIN_FAMILY_RECEPTORS	0.96869801
REACTOME_PROCESSING_OF_CAPPED_INTRON_CONTAINING_PRE_MRNA	0.96859465
KEGG_ADHERENS_JUNCTION	0.9685365
KEGG_INOSITOL_PHOSPHATE_METABOLISM	0.96845697
REACTOME_POTASSIUM_CHANNELS	0.96840395
PID_AR_PATHWAY	0.96839964
REACTOME_MITOTIC_PROMETAPHASE	0.96837251
REACTOME_SEMAPHORIN_INTERACTIONS	0.96836429
REACTOME_INSULIN_RECEPTOR_SIGNALLING_CASCADE	0.96835155
REACTOME_TRANSCRIPTION	0.96829936
REACTOME_INTERFERON_SIGNALING	0.96826073
KEGG_CELL_ADHESION_MOLECULES_CAMS	0.9682523
REACTOME_PEPTIDE_CHAIN_ELONGATION	0.9680988
KEGG_AXON_GUIDANCE	0.96808853
REACTOME_MHC_CLASS_II_ANTIGEN_PRESENTATION	0.96808853
REACTOME_MITOCHONDRIAL_PROTEIN_IMPORT	0.96805565
REACTOME_CYCLIN_E_ASSOCIATED_EVENTS_DURING_G1_S_TRANSITION_	0.96803859
PID_FAK_PATHWAY	0.96800921
KEGG_APOPTOSIS	0.96800427
KEGG_HYPERTROPHIC_CARDIOMYOPATHY_HCM	0.96798044
ST_INTEGRIN_SIGNALING_PATHWAY	0.96795619
PID_ECADHERIN_STABILIZATION_PATHWAY	0.96794797
WNT_SIGNALING	0.96789598
PID_IL2_1PATHWAY	0.9678292
REACTOME_REGULATION_OF_MITOTIC_CELL_CYCLE	0.96781399
KEGG_PROSTATE_CANCER	0.96778995
REACTOME_UNFOLDED_PROTEIN_RESPONSE	0.9677844
REACTOME_HIV_LIFE_CYCLE	0.96773056
KEGG_ECM_RECEPTOR_INTERACTION	0.96771782
KEGG_ARRHYTHMOGENIC_RIGHT_VENTRICULAR_CARDIOMYOPATHY_ARVC	0.96769933
PID_MYC_REPRESSPATHWAY	0.9676496
PID_FOXOPATHWAY	0.96764138
PID_RAC1_PATHWAY	0.9676274
PID_ARF6_TRAFFICKINGPATHWAY	0.96761631
KEGG_ERBB_SIGNALING_PATHWAY	0.96760172
KEGG_PURINE_METABOLISM	0.96758692
KEGG_RIBOSOME	0.96757069
REACTOME_FACTORS_INVOLVED_IN_MEGAKARYOCYTE_DEVELOPMENT_AND_PLATELET_PRODUCTION	0.96757028
PID_HDAC_CLASSI_PATHWAY	0.96751274
PID_FGF_PATHWAY	0.96749959
REACTOME_TOLL_RECEPTOR_CASCADES	0.96745561
KEGG_GNRH_SIGNALING_PATHWAY	0.96744698
REACTOME_DNA_REPAIR	0.96744226
KEGG_P53_SIGNALING_PATHWAY	0.96740753
REACTOME_INTEGRIN_CELL_SURFACE_INTERACTIONS	0.96735903
REACTOME_INFLUENZA_VIRAL_RNA_TRANSCRIPTION_AND_REPLICATION	0.9673167
REACTOME_CELL_DEATH_SIGNALLING_VIA_NRAGE_NRIF_AND_NADE	0.96729985
BIOCARTA_MAPK_PATHWAY	0.96715786
PID_REG_GR_PATHWAY	0.9671108
KEGG_SPLICEOSOME	0.96703518
KEGG_NON_SMALL_CELL_LUNG_CANCER	0.9670323
PID_NFAT_3PATHWAY	0.96701258
PID_KITPATHWAY	0.96676311
REACTOME_TRANSPORT_OF_GLUCOSE_AND_OTHER_SUGARS_BILE_SALTS_AND_ORGANIC_ACIDS_METAL_IONS_AND_AMINE_COMPOUNDS	0.96674215
REACTOME_REGULATION_OF_MRNA_STABILITY_BY_PROTEINS_THAT_BIND_AU_RICH_ELEMENTS	0.9666394
REACTOME_SYNTHESIS_OF_DNA	0.96662975
REACTOME_REGULATION_OF_WATER_BALANCE_BY_RENAL_AQUAPORINS	0.96655844
REACTOME_CELL_JUNCTION_ORGANIZATION	0.96655721
KEGG_GLYCEROPHOSPHOLIPID_METABOLISM	0.96651508
REACTOME_ANTIGEN_PROCESSING_CROSS_PRESENTATION	0.96646433
REACTOME_MRNA_SPLICING	0.96646309
KEGG_NATURAL_KILLER_CELL_MEDIATED_CYTOTOXICITY	0.96641871
KEGG_VEGF_SIGNALING_PATHWAY	0.9662987
REACTOME_NRAGE_SIGNALS_DEATH_THROUGH_JNK	0.96622596
REACTOME_LATE_PHASE_OF_HIV_LIFE_CYCLE	0.96622226
REACTOME_RIG_I_MDA5_MEDIATED_INDUCTION_OF_IFN_ALPHA_BETA_PATHWAYS	0.9662015
PID_HES_HEYPATHWAY	0.96615445
REACTOME_MITOTIC_G2_G2_M_PHASES	0.96607759
REACTOME_AQUAPORIN_MEDIATED_TRANSPORT	0.96599684
KEGG_TOLL_LIKE_RECEPTOR_SIGNALING_PATHWAY	0.96599416
ST_ADRENERGIC	0.96587108
REACTOME_TRAF6_MEDIATED_INDUCTION_OF_NFKB_AND_MAP_KINASES_UPON_TLR7_8_OR_9_ACTIVATION	0.96587005
KEGG_GAP_JUNCTION	0.96581991
KEGG_COLORECTAL_CANCER	0.96574264
REACTOME_SIGNALING_BY_TGF_BETA_RECEPTOR_COMPLEX	0.96570113
PID_ENDOTHELINPATHWAY	0.96569805
REACTOME_REGULATION_OF_APOPTOSIS	0.96565141
PID_IFNGPATHWAY	0.96555832
REACTOME_MYD88_MAL_CASCADE_INITIATED_ON_PLASMA_MEMBRANE	0.9655388
BIOCARTA_CHREBP2_PATHWAY	0.96538488
PID_PLK1_PATHWAY	0.96538345
PID_TCR_PATHWAY	0.96533988
REACTOME_SIGNALING_BY_NOTCH1	0.96525481
KEGG_MELANOMA	0.96516563
KEGG_GLIOMA	0.96514138
REACTOME_ACTIVATED_TLR4_SIGNALLING	0.96513234
PID_A6B1_A6B4_INTEGRIN_PATHWAY	0.96509206
SIG_INSULIN_RECEPTOR_PATHWAY_IN_CARDIAC_MYOCYTES	0.96508548
REACTOME_PPARA_ACTIVATES_GENE_EXPRESSION	0.96506288
PID_P53REGULATIONPATHWAY	0.96498931
PID_ERA_GENOMIC_PATHWAY	0.96498068
KEGG_PANCREATIC_CANCER	0.96493239
KEGG_B_CELL_RECEPTOR_SIGNALING_PATHWAY	0.9649215
REACTOME_M_G1_TRANSITION	0.96481383
PID_CMYB_PATHWAY	0.96476574
KEGG_NOTCH_SIGNALING_PATHWAY	0.96476245
REACTOME_CHROMOSOME_MAINTENANCE	0.96475773
PID_RET_PATHWAY	0.96468416
PID_ERBB2ERBB3PATHWAY	0.96463916
REACTOME_ER_PHAGOSOME_PATHWAY	0.96450127
REACTOME_PI3K_CASCADE	0.96447333
REACTOME_NOTCH1_INTRACELLULAR_DOMAIN_REGULATES_TRANSCRIPTION	0.96446346
REACTOME_G_ALPHA_Z_SIGNALLING_EVENTS	0.96446161
PID_SYNDECAN_4_PATHWAY	0.96440572
PID_PTP1BPATHWAY	0.96440531
REACTOME_COSTIMULATION_BY_THE_CD28_FAMILY	0.96439997
PID_HNF3BPATHWAY	0.96431078
KEGG_LONG_TERM_POTENTIATION	0.96422119
PID_P73PATHWAY	0.96418009
KEGG_ADIPOCYTOKINE_SIGNALING_PATHWAY	0.96416324
BIOCARTA_PPARA_PATHWAY	0.96407241
PID_TXA2PATHWAY	0.96403789
BIOCARTA_HIVNEF_PATHWAY	0.96398282
ST_DIFFERENTIATION_PATHWAY_IN_PC12_CELLS	0.9639594
REACTOME_APC_C_CDC20_MEDIATED_DEGRADATION_OF_MITOTIC_PROTEINS	0.96393597
KEGG_VASOPRESSIN_REGULATED_WATER_REABSORPTION	0.96393289
PID_AR_TF_PATHWAY	0.9638848
KEGG_TGF_BETA_SIGNALING_PATHWAY	0.96386692
PID_LYSOPHOSPHOLIPID_PATHWAY	0.96374568
PID_CERAMIDE_PATHWAY	0.96373459
REACTOME_RESPIRATORY_ELECTRON_TRANSPORT	0.96368239
REACTOME_ACTIVATION_OF_NF_KAPPAB_IN_B_CELLS	0.96368096
PID_FOXM1PATHWAY	0.96362568
KEGG_ENDOMETRIAL_CANCER	0.96355704
PID_AVB3_INTEGRIN_PATHWAY	0.96355252
SIG_PIP3_SIGNALING_IN_CARDIAC_MYOCTES	0.96351718
REACTOME_MEIOSIS	0.96350238
PID_LKB1_PATHWAY	0.96347649
REACTOME_ACTIVATION_OF_THE_MRNA_UPON_BINDING_OF_THE_CAP_BINDING_COMPLEX_AND_EIFS_AND_SUBSEQUENT_BINDING_TO_43S	0.96343005
REACTOME_REGULATION_OF_INSULIN_SECRETION_BY_GLUCAGON_LIKE_PEPTIDE1	0.96341238
PID_NCADHERINPATHWAY	0.96340375
KEGG_VIBRIO_CHOLERAE_INFECTION	0.96334251
REACTOME_TRIF_MEDIATED_TLR3_SIGNALING	0.9632858
PID_THROMBIN_PAR1_PATHWAY	0.96320997
REACTOME_NCAM_SIGNALING_FOR_NEURITE_OUT_GROWTH	0.96320607
KEGG_TYPE_II_DIABETES_MELLITUS	0.9631699
PID_HEDGEHOG_GLIPATHWAY	0.96316867
KEGG_FC_EPSILON_RI_SIGNALING_PATHWAY	0.96299544
KEGG_PYRIMIDINE_METABOLISM	0.96291221
PID_TGFBRPATHWAY	0.96288468
PID_TAP63PATHWAY	0.96286207
REACTOME_SCFSKP2_MEDIATED_DEGRADATION_OF_P27_P21	0.96281584
BIOCARTA_NFAT_PATHWAY	0.9628107
KEGG_RENAL_CELL_CARCINOMA	0.96272111
KEGG_LONG_TERM_DEPRESSION	0.9627133
PID_SHP2_PATHWAY	0.96269296
REACTOME_NFKB_AND_MAP_KINASES_ACTIVATION_MEDIATED_BY_TLR4_SIGNALING_REPERTOIRE	0.96261754
REACTOME_TCR_SIGNALING	0.96261713
KEGG_LYSINE_DEGRADATION	0.96261302
PID_ATR_PATHWAY	0.96259473
PID_SYNDECAN_2_PATHWAY	0.96253843
REACTOME_CELL_SURFACE_INTERACTIONS_AT_THE_VASCULAR_WALL	0.96248623
REACTOME_IL_2_SIGNALING	0.96231978
PID_IL6_7PATHWAY	0.9621745
REACTOME_SIGNAL_TRANSDUCTION_BY_L1	0.96216012
REACTOME_GLUCAGON_SIGNALING_IN_METABOLIC_REGULATION	0.96213546
PID_ERBB4_PATHWAY	0.96213258
REACTOME_TRANS_GOLGI_NETWORK_VESICLE_BUDDING	0.96212888
REACTOME_ANTIVIRAL_MECHANISM_BY_IFN_STIMULATED_GENES	0.96200806
REACTOME_SYNTHESIS_OF_PIPS_AT_THE_PLASMA_MEMBRANE	0.96199203
PID_AJDISS_2PATHWAY	0.96197641
REACTOME_SIGNALING_BY_WNT	0.96190243
REACTOME_APC_C_CDH1_MEDIATED_DEGRADATION_OF_CDC20_AND_OTHER_APC_C_CDH1_TARGETED_PROTEINS_IN_LATE_MITOSIS_EARLY_G1	0.96186955
KEGG_HEDGEHOG_SIGNALING_PATHWAY	0.96180359
PID_P75NTRPATHWAY	0.96172037
REACTOME_MUSCLE_CONTRACTION	0.96158146
PID_TCPTP_PATHWAY	0.96154406
PID_CD8TCRPATHWAY	0.96153707
REACTOME_G2_M_CHECKPOINTS	0.96153132
PID_SYNDECAN_1_PATHWAY	0.96136487
PID_CDC42_PATHWAY	0.96133939
PID_AP1_PATHWAY	0.96133816
REACTOME_TRANSCRIPTIONAL_REGULATION_OF_WHITE_ADIPOCYTE_DIFFERENTIATION	0.96125226
REACTOME_PLATELET_HOMEOSTASIS	0.9612124
PID_HIF1_TFPATHWAY	0.96120007
REACTOME_PRE_NOTCH_EXPRESSION_AND_PROCESSING	0.96116719
BIOCARTA_BIOPEPTIDES_PATHWAY	0.96112075
KEGG_PEROXISOME	0.96111807
PID_RHOA_REG_PATHWAY	0.96105787
PID_PS1PATHWAY	0.96105663
REACTOME_RNA_POL_I_RNA_POL_III_AND_MITOCHONDRIAL_TRANSCRIPTION	0.96100855
REACTOME_CELL_CELL_JUNCTION_ORGANIZATION	0.96090498
PID_FANCONI_PATHWAY	0.96090395
REACTOME_GLYCEROPHOSPHOLIPID_BIOSYNTHESIS	0.96086594
PID_ATF2_PATHWAY	0.96085484
REACTOME_CD28_CO_STIMULATION	0.96082052
KEGG_HEMATOPOIETIC_CELL_LINEAGE	0.96079792
REACTOME_PHOSPHOLIPASE_C_MEDIATED_CASCADE	0.96078908
PID_RETINOIC_ACID_PATHWAY	0.96071757
REACTOME_GABA_RECEPTOR_ACTIVATION	0.96070812
REACTOME_GABA_B_RECEPTOR_ACTIVATION	0.96070072
PID_IL12_2PATHWAY	0.96051558
BIOCARTA_KERATINOCYTE_PATHWAY	0.96045249
PID_DELTANP63PATHWAY	0.96043441
ST_B_CELL_ANTIGEN_RECEPTOR	0.96034933
PID_GMCSF_PATHWAY	0.96026693
BIOCARTA_MET_PATHWAY	0.96026488
PID_ERBB1_RECEPTOR_PROXIMAL_PATHWAY	0.96021494
PID_NECTIN_PATHWAY	0.96020755
REACTOME_ASPARAGINE_N_LINKED_GLYCOSYLATION	0.96018946
REACTOME_EXTRACELLULAR_MATRIX_ORGANIZATION	0.96007644
PID_INTEGRIN1_PATHWAY	0.96004213
PID_IL4_2PATHWAY	0.95998849
PID_ATM_PATHWAY	0.95994144
REACTOME_METABOLISM_OF_VITAMINS_AND_COFACTORS	0.95993506
KEGG_LEISHMANIA_INFECTION	0.95986705
REACTOME_RNA_POL_II_TRANSCRIPTION	0.95985575
KEGG_ACUTE_MYELOID_LEUKEMIA	0.95980026
PID_ARF6_PATHWAY	0.95975341
SIG_BCR_SIGNALING_PATHWAY	0.95971067
BIOCARTA_TCR_PATHWAY	0.95958368
REACTOME_RECRUITMENT_OF_MITOTIC_CENTROSOME_PROTEINS_AND_COMPLEXES	0.95957505
REACTOME_IL_3_5_AND_GM_CSF_SIGNALING	0.95954874
KEGG_MTOR_SIGNALING_PATHWAY	0.95950518
REACTOME_APOPTOTIC_EXECUTION_PHASE	0.95948072
REACTOME_FORMATION_OF_THE_TERNARY_COMPLEX_AND_SUBSEQUENTLY_THE_43S_COMPLEX	0.95947805
REACTOME_GOLGI_ASSOCIATED_VESICLE_BIOGENESIS	0.95941826
REACTOME_ORC1_REMOVAL_FROM_CHROMATIN	0.95940387
REACTOME_METABOLISM_OF_NUCLEOTIDES	0.95934079
REACTOME_GPVI_MEDIATED_ACTIVATION_CASCADE	0.95933462
PID_IL27PATHWAY	0.95931078
REACTOME_VIF_MEDIATED_DEGRADATION_OF_APOBEC3G	0.95930133
KEGG_EPITHELIAL_CELL_SIGNALING_IN_HELICOBACTER_PYLORI_INFECTION	0.95922427
REACTOME_GLUCOSE_TRANSPORT	0.959199
KEGG_CYTOSOLIC_DNA_SENSING_PATHWAY	0.95916612
BIOCARTA_INTEGRIN_PATHWAY	0.95907529
REACTOME_ACTIVATION_OF_CHAPERONE_GENES_BY_XBP1S	0.95902762
PID_IL2_PI3KPATHWAY	0.95901796
SIG_PIP3_SIGNALING_IN_B_LYMPHOCYTES	0.95888028
PID_TELOMERASEPATHWAY	0.95885932
PID_ER_NONGENOMIC_PATHWAY	0.95883939
KEGG_ARGININE_AND_PROLINE_METABOLISM	0.95881678
REACTOME_SPHINGOLIPID_METABOLISM	0.95879521
REACTOME_P53_DEPENDENT_G1_DNA_DAMAGE_RESPONSE	0.95879213
KEGG_GLYCOLYSIS_GLUCONEOGENESIS	0.95876295
REACTOME_TRANSPORT_OF_INORGANIC_CATIONS_ANIONS_AND_AMINO_ACIDS_OLIGOPEPTIDES	0.95875349
PID_PI3KCIPATHWAY	0.95872514
KEGG_RNA_DEGRADATION	0.95871938
PID_PI3KPLCTRKPATHWAY	0.95866431
PID_HNF3APATHWAY	0.95856588
REACTOME_AUTODEGRADATION_OF_CDH1_BY_CDH1_APC_C	0.95855828
PID_NETRIN_PATHWAY	0.95843067
BIOCARTA_CARM_ER_PATHWAY	0.95837621
PID_ANGIOPOIETINRECEPTOR_PATHWAY	0.9583721
REACTOME_MAP_KINASE_ACTIVATION_IN_TLR_CASCADE	0.95835977
PID_IL2_STAT5PATHWAY	0.95827799
PID_BCR_5PATHWAY	0.9581364
REACTOME_CIRCADIAN_CLOCK	0.95812592
PID_BMPPATHWAY	0.95810003
PID_AVB3_OPN_PATHWAY	0.9579455
PID_CASPASE_PATHWAY	0.95784029
PID_INTEGRIN_A4B1_PATHWAY	0.95783824
REACTOME_TRANSPORT_OF_MATURE_TRANSCRIPT_TO_CYTOPLASM	0.95778974
KEGG_NOD_LIKE_RECEPTOR_SIGNALING_PATHWAY	0.95764425
REACTOME_PYRUVATE_METABOLISM_AND_CITRIC_ACID_TCA_CYCLE	0.95759247
REACTOME_ACTIVATION_OF_ATR_IN_RESPONSE_TO_REPLICATION_STRESS	0.95756946
KEGG_SPHINGOLIPID_METABOLISM	0.95756083
REACTOME_REGULATION_OF_ORNITHINE_DECARBOXYLASE_ODC	0.95749055
REACTOME_ASSEMBLY_OF_THE_PRE_REPLICATIVE_COMPLEX	0.95749014
PID_UPA_UPAR_PATHWAY	0.95743671
REACTOME_P53_INDEPENDENT_G1_S_DNA_DAMAGE_CHECKPOINT	0.95740547
REACTOME_RESPONSE_TO_ELEVATED_PLATELET_CYTOSOLIC_CA2_	0.95740219
BIOCARTA_IL2RB_PATHWAY	0.95739273
PID_ERBB1_INTERNALIZATION_PATHWAY	0.95735616
KEGG_PATHOGENIC_ESCHERICHIA_COLI_INFECTION	0.95730889
REACTOME_DESTABILIZATION_OF_MRNA_BY_AUF1_HNRNP_D0	0.95724314
REACTOME_SCF_BETA_TRCP_MEDIATED_DEGRADATION_OF_EMI1	0.95723368
KEGG_PYRUVATE_METABOLISM	0.95721396
KEGG_VIRAL_MYOCARDITIS	0.95703539
ST_G_ALPHA_I_PATHWAY	0.9569049
ST_FAS_SIGNALING_PATHWAY	0.95675612
PID_REELINPATHWAY	0.95673064
PID_ECADHERIN_KERATINOCYTE_PATHWAY	0.95659831
KEGG_BASAL_CELL_CARCINOMA	0.95657385
PID_RAS_PATHWAY	0.95651775
REACTOME_THE_ROLE_OF_NEF_IN_HIV1_REPLICATION_AND_DISEASE_PATHOGENESIS	0.9564109
PID_RAC1_REG_PATHWAY	0.95632768
REACTOME_LOSS_OF_NLP_FROM_MITOTIC_CENTROSOMES	0.95627651
PID_NOTCH_PATHWAY	0.95626993
REACTOME_AUTODEGRADATION_OF_THE_E3_UBIQUITIN_LIGASE_COP1	0.95615527
PID_TNFPATHWAY	0.95610307
REACTOME_NUCLEAR_RECEPTOR_TRANSCRIPTION_PATHWAY	0.9559769
PID_ILK_PATHWAY	0.95594033
REACTOME_CDT1_ASSOCIATION_WITH_THE_CDC6_ORC_ORIGIN_COMPLEX	0.95591957
REACTOME_HEPARAN_SULFATE_HEPARIN_HS_GAG_METABOLISM	0.95575415
REACTOME_CDK_MEDIATED_PHOSPHORYLATION_AND_REMOVAL_OF_CDC6	0.95565469
KEGG_BETA_ALANINE_METABOLISM	0.95562942
PID_AURORA_A_PATHWAY	0.95558072
KEGG_BLADDER_CANCER	0.95557537
REACTOME_E2F_MEDIATED_REGULATION_OF_DNA_REPLICATION	0.95557291
KEGG_GLYCEROLIPID_METABOLISM	0.95554003
REACTOME_NCAM1_INTERACTIONS	0.95553325
KEGG_ALDOSTERONE_REGULATED_SODIUM_REABSORPTION	0.95551989
PID_IL3_PATHWAY	0.95548064
KEGG_VALINE_LEUCINE_AND_ISOLEUCINE_DEGRADATION	0.95543564
PID_CXCR3PATHWAY	0.95541797
REACTOME_INHIBITION_OF_INSULIN_SECRETION_BY_ADRENALINE_NORADRENALINE	0.95539372
REACTOME_TRNA_AMINOACYLATION	0.95538345
KEGG_PROTEASOME	0.95526426
BIOCARTA_AT1R_PATHWAY	0.955247
KEGG_PPAR_SIGNALING_PATHWAY	0.95513788
ST_JNK_MAPK_PATHWAY	0.95513439
REACTOME_CROSS_PRESENTATION_OF_SOLUBLE_EXOGENOUS_ANTIGENS_ENDOSOMES	0.95503288
REACTOME_THROMBIN_SIGNALLING_THROUGH_PROTEINASE_ACTIVATED_RECEPTORS_PARS	0.95481876
REACTOME_COLLAGEN_FORMATION	0.95477807
BIOCARTA_PYK2_PATHWAY	0.95475752
PID_LIS1PATHWAY	0.95474642
BIOCARTA_FMLP_PATHWAY	0.95466341
REACTOME_LIPID_DIGESTION_MOBILIZATION_AND_TRANSPORT	0.95465601
BIOCARTA_RAC1_PATHWAY	0.95465025
REACTOME_GLUCOSE_METABOLISM	0.95463114
KEGG_CYSTEINE_AND_METHIONINE_METABOLISM	0.95453847
REACTOME_BIOLOGICAL_OXIDATIONS	0.95450251
REACTOME_PLC_BETA_MEDIATED_EVENTS	0.95448401
PID_HDAC_CLASSII_PATHWAY	0.95442483
KEGG_RIG_I_LIKE_RECEPTOR_SIGNALING_PATHWAY	0.95439339
REACTOME_RNA_POL_II_PRE_TRANSCRIPTION_EVENTS	0.95438682
PID_INSULIN_PATHWAY	0.95437408
KEGG_PRION_DISEASES	0.95432763
KEGG_AMINO_SUGAR_AND_NUCLEOTIDE_SUGAR_METABOLISM	0.95425571
REACTOME_DEADENYLATION_DEPENDENT_MRNA_DECAY	0.9542329
KEGG_NUCLEOTIDE_EXCISION_REPAIR	0.95421174
PID_CD8TCRDOWNSTREAMPATHWAY	0.95401488
BIOCARTA_G2_PATHWAY	0.95393227
BIOCARTA_G1_PATHWAY	0.95392035
PID_PRLSIGNALINGEVENTSPATHWAY	0.95378062
PID_EPHBFWDPATHWAY	0.95371281
REACTOME_NEUROTRANSMITTER_RELEASE_CYCLE	0.95370171
BIOCARTA_ATRBRCA_PATHWAY	0.95369965
REACTOME_BMAL1_CLOCK_NPAS2_ACTIVATES_CIRCADIAN_EXPRESSION	0.95358253
REACTOME_TRIGLYCERIDE_BIOSYNTHESIS	0.9535702
KEGG_TASTE_TRANSDUCTION	0.95354615
BIOCARTA_ERK_PATHWAY	0.95349293
REACTOME_NEGATIVE_REGULATORS_OF_RIG_I_MDA5_SIGNALING	0.9533795
KEGG_PROPANOATE_METABOLISM	0.95333655
REACTOME_GLUCAGON_TYPE_LIGAND_RECEPTORS	0.95326812
PID_EPOPATHWAY	0.95322045
PID_FCER1PATHWAY	0.9532186
REACTOME_NUCLEOTIDE_EXCISION_REPAIR	0.95318017
BIOCARTA_HER2_PATHWAY	0.95313743
BIOCARTA_PAR1_PATHWAY	0.95309305
REACTOME_CA_DEPENDENT_EVENTS	0.95304167
KEGG_AMYOTROPHIC_LATERAL_SCLEROSIS_ALS	0.95284769
REACTOME_DOWNSTREAM_TCR_SIGNALING	0.95268227
PID_VEGFR1_PATHWAY	0.95265124
REACTOME_PI3K_EVENTS_IN_ERBB2_SIGNALING	0.95260562
PID_INTEGRIN_A9B1_PATHWAY	0.95255302
REACTOME_NEF_MEDIATES_DOWN_MODULATION_OF_CELL_SURFACE_RECEPTORS_BY_RECRUITING_THEM_TO_CLATHRIN_ADAPTERS	0.95245808
REACTOME_TRANSCRIPTIONAL_ACTIVITY_OF_SMAD2_SMAD3_SMAD4_HETEROTRIMER	0.95244781
REACTOME_DAG_AND_IP3_SIGNALING	0.95242027
BIOCARTA_FCER1_PATHWAY	0.95231732
PID_IL8CXCR2_PATHWAY	0.9523093
REACTOME_STRIATED_MUSCLE_CONTRACTION	0.95227519
PID_AR_NONGENOMIC_PATHWAY	0.95226389
REACTOME_PI3K_AKT_ACTIVATION	0.95222834
REACTOME_MEIOTIC_SYNAPSIS	0.95220142
REACTOME_SIGNALING_BY_FGFR_MUTANTS	0.95219546
KEGG_BASE_EXCISION_REPAIR	0.9520771
KEGG_TYROSINE_METABOLISM	0.95203806
REACTOME_PROTEIN_FOLDING	0.95202326
REACTOME_CD28_DEPENDENT_PI3K_AKT_SIGNALING	0.95200518
REACTOME_MEIOTIC_RECOMBINATION	0.95198792
PID_IL8CXCR1_PATHWAY	0.95198381
KEGG_SNARE_INTERACTIONS_IN_VESICULAR_TRANSPORT	0.95195093
ST_ERK1_ERK2_MAPK_PATHWAY	0.95193182
REACTOME_EFFECTS_OF_PIP2_HYDROLYSIS	0.95191846
PID_NEPHRIN_NEPH1_PATHWAY	0.95183092
KEGG_INTESTINAL_IMMUNE_NETWORK_FOR_IGA_PRODUCTION	0.95182476
BIOCARTA_AGR_PATHWAY	0.95172325
PID_S1P_S1P3_PATHWAY	0.95168708
REACTOME_IMMUNOREGULATORY_INTERACTIONS_BETWEEN_A_LYMPHOID_AND_A_NON_LYMPHOID_CELL	0.95168461
REACTOME_O_LINKED_GLYCOSYLATION_OF_MUCINS	0.95168174
REACTOME_CYTOSOLIC_TRNA_AMINOACYLATION	0.95167023
REACTOME_G_PROTEIN_BETA_GAMMA_SIGNALLING	0.95149762
REACTOME_REGULATION_OF_BETA_CELL_DEVELOPMENT	0.9514633
KEGG_AMINOACYL_TRNA_BIOSYNTHESIS	0.95136877
BIOCARTA_RACCYCD_PATHWAY	0.95133199
REACTOME_DARPP_32_EVENTS	0.95124692
PID_BARD1PATHWAY	0.95123623
REACTOME_TRANSPORT_OF_RIBONUCLEOPROTEINS_INTO_THE_HOST_NUCLEUS	0.95122452
BIOCARTA_GH_PATHWAY	0.95119513
BIOCARTA_BCR_PATHWAY	0.95112794
REACTOME_TRANSCRIPTION_COUPLED_NER_TC_NER	0.95110965
PID_AURORA_B_PATHWAY	0.95101348
PID_P38ALPHABETADOWNSTREAMPATHWAY	0.95079052
PID_MAPKTRKPATHWAY	0.95078991
REACTOME_PKB_MEDIATED_EVENTS	0.95066291
REACTOME_PI_3K_CASCADE	0.95059777
ST_MYOCYTE_AD_PATHWAY	0.95057373
PID_FRA_PATHWAY	0.95047037
PID_INTEGRIN3_PATHWAY	0.95044571
REACTOME_EGFR_DOWNREGULATION	0.95033063
REACTOME_PLATELET_AGGREGATION_PLUG_FORMATION	0.95032673
REACTOME_G0_AND_EARLY_G1	0.95030413
REACTOME_DOUBLE_STRAND_BREAK_REPAIR	0.95022193
BIOCARTA_HDAC_PATHWAY	0.9502172
BIOCARTA_TOLL_PATHWAY	0.95008302
REACTOME_MRNA_SPLICING_MINOR_PATHWAY	0.95007768
PID_EPHA2_FWDPATHWAY	0.94999342
REACTOME_CHONDROITIN_SULFATE_DERMATAN_SULFATE_METABOLISM	0.94990671
REACTOME_RECYCLING_PATHWAY_OF_L1	0.94985205
REACTOME_METABOLISM_OF_NON_CODING_RNA	0.94974437
KEGG_THYROID_CANCER	0.94966423
ST_T_CELL_SIGNAL_TRANSDUCTION	0.94960587
PID_IL12_STAT4PATHWAY	0.94960094
PID_NFAT_TFPATHWAY	0.94958121
REACTOME_FORMATION_OF_RNA_POL_II_ELONGATION_COMPLEX_	0.94957176
REACTOME_PRE_NOTCH_TRANSCRIPTION_AND_TRANSLATION	0.94950004
REACTOME_G1_S_SPECIFIC_TRANSCRIPTION	0.94945504
REACTOME_G_BETA_GAMMA_SIGNALLING_THROUGH_PI3KGAMMA	0.94945134
REACTOME_G_PROTEIN_ACTIVATION	0.94931407
REACTOME_LATENT_INFECTION_OF_HOMO_SAPIENS_WITH_MYCOBACTERIUM_TUBERCULOSIS	0.94929393
REACTOME_TRAFFICKING_OF_AMPA_RECEPTORS	0.94929208
REACTOME_IRON_UPTAKE_AND_TRANSPORT	0.9490868
PID_IL23PATHWAY	0.94908454
REACTOME_SIGNALLING_TO_ERKS	0.94907694
ST_GA12_PATHWAY	0.94907611
BIOCARTA_MYOSIN_PATHWAY	0.94899844
KEGG_BUTANOATE_METABOLISM	0.94899556
REACTOME_VOLTAGE_GATED_POTASSIUM_CHANNELS	0.94889241
REACTOME_APOPTOTIC_CLEAVAGE_OF_CELLULAR_PROTEINS	0.94882994
KEGG_ETHER_LIPID_METABOLISM	0.94863472
KEGG_REGULATION_OF_AUTOPHAGY	0.94857718
ST_PHOSPHOINOSITIDE_3_KINASE_PATHWAY	0.9484917
BIOCARTA_IL1R_PATHWAY	0.94837292
PID_WNT_NONCANONICAL_PATHWAY	0.94831621
REACTOME_NETRIN1_SIGNALING	0.94827593
BIOCARTA_PROTEASOME_PATHWAY	0.94823483
KEGG_GLYCINE_SERINE_AND_THREONINE_METABOLISM	0.94819805
PID_SMAD2_3PATHWAY	0.94796318
BIOCARTA_EGF_PATHWAY	0.94793441
REACTOME_ACTIVATION_OF_NMDA_RECEPTOR_UPON_GLUTAMATE_BINDING_AND_POSTSYNAPTIC_EVENTS	0.94783166
REACTOME_YAP1_AND_WWTR1_TAZ_STIMULATED_GENE_EXPRESSION	0.94778851
SIG_CD40PATHWAYMAP	0.94775111
REACTOME_NUCLEAR_SIGNALING_BY_ERBB4	0.94773056
REACTOME_GLYCOSPHINGOLIPID_METABOLISM	0.94763151
REACTOME_SIGNAL_AMPLIFICATION	0.94762186
PID_S1P_S1P2_PATHWAY	0.9475974
BIOCARTA_WNT_PATHWAY	0.94756309
REACTOME_ACTIVATION_OF_KAINATE_RECEPTORS_UPON_GLUTAMATE_BINDING	0.94741041
BIOCARTA_PTEN_PATHWAY	0.94736314
REACTOME_CIRCADIAN_REPRESSION_OF_EXPRESSION_BY_REV_ERBA	0.94733602
REACTOME_G1_PHASE	0.94728978
ST_P38_MAPK_PATHWAY	0.9472865
KEGG_FRUCTOSE_AND_MANNOSE_METABOLISM	0.94724437
REACTOME_ANTIGEN_ACTIVATES_B_CELL_RECEPTOR_LEADING_TO_GENERATION_OF_SECOND_MESSENGERS	0.94718211
ST_G_ALPHA_S_PATHWAY	0.9471819
BIOCARTA_MCALPAIN_PATHWAY	0.94713793
PID_INSULIN_GLUCOSE_PATHWAY	0.9471108
REACTOME_POST_NMDA_RECEPTOR_ACTIVATION_EVENTS	0.94710566
ST_GA13_PATHWAY	0.94675736
REACTOME_TRANSPORT_OF_MATURE_MRNA_DERIVED_FROM_AN_INTRONLESS_TRANSCRIPT	0.94672427
PID_TCRCALCIUMPATHWAY	0.94662338
REACTOME_RNA_POL_II_TRANSCRIPTION_PRE_INITIATION_AND_PROMOTER_OPENING	0.94661598
REACTOME_IL1_SIGNALING	0.94659091
PID_CD40_PATHWAY	0.94655803
REACTOME_MYOGENESIS	0.94646207
KEGG_ABC_TRANSPORTERS	0.9463587
BIOCARTA_UCALPAIN_PATHWAY	0.94633363
REACTOME_AMINO_ACID_AND_OLIGOPEPTIDE_SLC_TRANSPORTERS	0.94631802
REACTOME_GAB1_SIGNALOSOME	0.94628206
REACTOME_RORA_ACTIVATES_CIRCADIAN_EXPRESSION	0.94625843
PID_P38_MKK3_6PATHWAY	0.94624692
REACTOME_PTM_GAMMA_CARBOXYLATION_HYPUSINE_FORMATION_AND_ARYLSULFATASE_ACTIVATION	0.94621178
PID_IGF1_PATHWAY	0.94612075
REACTOME_ENDOSOMAL_SORTING_COMPLEX_REQUIRED_FOR_TRANSPORT_ESCRT	0.94611417
PID_AMB2_NEUTROPHILS_PATHWAY	0.94611294
REACTOME_METAL_ION_SLC_TRANSPORTERS	0.94611047
BIOCARTA_TFF_PATHWAY	0.94609444
KEGG_ANTIGEN_PROCESSING_AND_PRESENTATION	0.94608828
BIOCARTA_IL2_PATHWAY	0.94605252
REACTOME_IL_RECEPTOR_SHC_SIGNALING	0.9460178
KEGG_SYSTEMIC_LUPUS_ERYTHEMATOSUS	0.94598183
PID_WNT_SIGNALING_PATHWAY	0.94590601
KEGG_PORPHYRIN_AND_CHLOROPHYLL_METABOLISM	0.9458834
BIOCARTA_MPR_PATHWAY	0.94588197
BIOCARTA_DEATH_PATHWAY	0.94586655
BIOCARTA_GPCR_PATHWAY	0.94586368
PID_HIF2PATHWAY	0.94583429
REACTOME_TRANSPORT_TO_THE_GOLGI_AND_SUBSEQUENT_MODIFICATION	0.94578497
BIOCARTA_CARM1_PATHWAY	0.9457636
BIOCARTA_PTDINS_PATHWAY	0.94574881
PID_FASPATHWAY	0.94565675
KEGG_CITRATE_CYCLE_TCA_CYCLE	0.9456288
PID_HIVNEFPATHWAY	0.94560661
BIOCARTA_CREB_PATHWAY	0.94557784
PID_IL1PATHWAY	0.94557455
BIOCARTA_BAD_PATHWAY	0.94552318
KEGG_ARACHIDONIC_ACID_METABOLISM	0.94548085
REACTOME_INTERFERON_ALPHA_BETA_SIGNALING	0.94546852
REACTOME_BASIGIN_INTERACTIONS	0.94544879
REACTOME_MAPK_TARGETS_NUCLEAR_EVENTS_MEDIATED_BY_MAP_KINASES	0.94542167
REACTOME_SPHINGOLIPID_DE_NOVO_BIOSYNTHESIS	0.94533372
REACTOME_NEP_NS2_INTERACTS_WITH_THE_CELLULAR_EXPORT_MACHINERY	0.94523262
BIOCARTA_PDGF_PATHWAY	0.94513316
REACTOME_KERATAN_SULFATE_KERATIN_METABOLISM	0.94508096
REACTOME_ADP_SIGNALLING_THROUGH_P2RY12	0.9449026
REACTOME_SIGNALING_BY_ROBO_RECEPTOR	0.94489212
KEGG_OLFACTORY_TRANSDUCTION	0.94488369
REACTOME_REGULATION_OF_GLUCOKINASE_BY_GLUCOKINASE_REGULATORY_PROTEIN	0.94461676
SA_B_CELL_RECEPTOR_COMPLEXES	0.94451997
KEGG_STARCH_AND_SUCROSE_METABOLISM	0.94450662
SIG_CHEMOTAXIS	0.94449244
KEGG_DNA_REPLICATION	0.94448915
REACTOME_SULFUR_AMINO_ACID_METABOLISM	0.94444928
PID_EPHRINBREVPATHWAY	0.94439545
REACTOME_CREB_PHOSPHORYLATION_THROUGH_THE_ACTIVATION_OF_RAS	0.94433585
BIOCARTA_PGC1A_PATHWAY	0.94433544
REACTOME_GAP_JUNCTION_TRAFFICKING	0.94424256
REACTOME_INTEGRIN_ALPHAIIB_BETA3_SIGNALING	0.9441094
REACTOME_METABOLISM_OF_STEROID_HORMONES_AND_VITAMINS_A_AND_D	0.94404735
REACTOME_PHASE1_FUNCTIONALIZATION_OF_COMPOUNDS	0.9440157
BIOCARTA_EDG1_PATHWAY	0.94393227
BIOCARTA_IL7_PATHWAY	0.94386775
REACTOME_ACTIVATION_OF_THE_PRE_REPLICATIVE_COMPLEX	0.94384021
REACTOME_INTERACTIONS_OF_VPR_WITH_HOST_CELLULAR_PROTEINS	0.94367171
KEGG_N_GLYCAN_BIOSYNTHESIS	0.94364869
REACTOME_SIGNALLING_TO_RAS	0.94363184
BIOCARTA_TPO_PATHWAY	0.94357842
REACTOME_ADP_SIGNALLING_THROUGH_P2RY1	0.94351862
KEGG_FATTY_ACID_METABOLISM	0.94343354
PID_INTEGRIN5_PATHWAY	0.94342306
KEGG_PENTOSE_PHOSPHATE_PATHWAY	0.94333861
REACTOME_PKA_MEDIATED_PHOSPHORYLATION_OF_CREB	0.94321552
BIOCARTA_P38MAPK_PATHWAY	0.94320196
PID_ALPHASYNUCLEIN_PATHWAY	0.94311606
BIOCARTA_TNFR1_PATHWAY	0.94308811
KEGG_GALACTOSE_METABOLISM	0.94295044
REACTOME_RNA_POL_I_TRANSCRIPTION	0.94284564
REACTOME_NUCLEOTIDE_BINDING_DOMAIN_LEUCINE_RICH_REPEAT_CONTAINING_RECEPTOR_NLR_SIGNALING_PATHWAYS	0.94276611
SA_TRKA_RECEPTOR	0.9427507
REACTOME_FORMATION_OF_THE_HIV1_EARLY_ELONGATION_COMPLEX	0.94272768
BIOCARTA_CXCR4_PATHWAY	0.94256288
REACTOME_BASE_EXCISION_REPAIR	0.94254315
KEGG_ALANINE_ASPARTATE_AND_GLUTAMATE_METABOLISM	0.94249774
REACTOME_ABC_FAMILY_PROTEINS_MEDIATED_TRANSPORT	0.94235205
REACTOME_SEMA4D_IN_SEMAPHORIN_SIGNALING	0.9423502
PID_MYC_PATHWAY	0.94230519
BIOCARTA_TGFB_PATHWAY	0.94226697
PID_THROMBIN_PAR4_PATHWAY	0.94205943
PID_INTEGRIN_CS_PATHWAY	0.94203765
REACTOME_PHASE_II_CONJUGATION	0.94185681
REACTOME_PI3K_EVENTS_IN_ERBB4_SIGNALING	0.94185353
BIOCARTA_HCMV_PATHWAY	0.94169941
KEGG_PRIMARY_IMMUNODEFICIENCY	0.94158433
BIOCARTA_FAS_PATHWAY	0.94152186
REACTOME_LIPOPROTEIN_METABOLISM	0.94150563
BIOCARTA_IL6_PATHWAY	0.94144172
REACTOME_ELONGATION_ARREST_AND_RECOVERY	0.94143556
BIOCARTA_ATM_PATHWAY	0.94141624
BIOCARTA_IGF1R_PATHWAY	0.94126993
REACTOME_FRS2_MEDIATED_CASCADE	0.94119801
PID_ARF_3PATHWAY	0.941175
BIOCARTA_MTOR_PATHWAY	0.94109403
REACTOME_PERK_REGULATED_GENE_EXPRESSION	0.94108088
ST_WNT_BETA_CATENIN_PATHWAY	0.94096498
REACTOME_G_BETA_GAMMA_SIGNALLING_THROUGH_PLC_BETA	0.94087703
REACTOME_INTERFERON_GAMMA_SIGNALING	0.94074593
REACTOME_HOMOLOGOUS_RECOMBINATION_REPAIR_OF_REPLICATION_INDEPENDENT_DOUBLE_STRAND_BREAKS	0.94072703
REACTOME_GRB2_EVENTS_IN_ERBB2_SIGNALING	0.94070524
REACTOME_PEROXISOMAL_LIPID_METABOLISM	0.94060928
BIOCARTA_RAS_PATHWAY	0.94060332
PID_HDAC_CLASSIII_PATHWAY	0.9405427
REACTOME_REGULATION_OF_HYPOXIA_INDUCIBLE_FACTOR_HIF_BY_OXYGEN	0.94053797
PID_LYMPHANGIOGENESIS_PATHWAY	0.9403292
REACTOME_TELOMERE_MAINTENANCE	0.94021289
BIOCARTA_MAL_PATHWAY	0.94020302
BIOCARTA_ALK_PATHWAY	0.94020056
BIOCARTA_CALCINEURIN_PATHWAY	0.94014919
REACTOME_ZINC_TRANSPORTERS	0.93999548
BIOCARTA_CK1_PATHWAY	0.93990671
BIOCARTA_CELLCYCLE_PATHWAY	0.93988123
PID_TRAIL_PATHWAY	0.93986561
REACTOME_INWARDLY_RECTIFYING_K_CHANNELS	0.93971478
KEGG_MATURITY_ONSET_DIABETES_OF_THE_YOUNG	0.93965971
PID_PI3KCIAKTPATHWAY	0.93961162
PID_RXR_VDR_PATHWAY	0.93954217
KEGG_O_GLYCAN_BIOSYNTHESIS	0.93948463
REACTOME_ACTIVATION_OF_GENES_BY_ATF4	0.93939175
REACTOME_PYRIMIDINE_METABOLISM	0.93938784
PID_IL5_PATHWAY	0.9393077
PID_CDC42_REG_PATHWAY	0.93928325
REACTOME_CYTOCHROME_P450_ARRANGED_BY_SUBSTRATE_TYPE	0.93924873
REACTOME_TIE2_SIGNALING	0.93924174
REACTOME_RNA_POL_III_TRANSCRIPTION	0.93921955
PID_P38_MK2PATHWAY	0.93921585
REACTOME_GLOBAL_GENOMIC_NER_GG_NER	0.93921523
BIOCARTA_NOS1_PATHWAY	0.93911064
REACTOME_RETROGRADE_NEUROTROPHIN_SIGNALLING	0.93903666
REACTOME_INHIBITION_OF_VOLTAGE_GATED_CA2_CHANNELS_VIA_GBETA_GAMMA_SUBUNITS	0.93902721
KEGG_BASAL_TRANSCRIPTION_FACTORS	0.93897378
BIOCARTA_VEGF_PATHWAY	0.93888234
REACTOME_PYRUVATE_METABOLISM	0.93883487
KEGG_COMPLEMENT_AND_COAGULATION_CASCADES	0.93877281
ST_WNT_CA2_CYCLIC_GMP_PATHWAY	0.93872226
SIG_IL4RECEPTOR_IN_B_LYPHOCYTES	0.93861828
PID_S1P_META_PATHWAY	0.93859198
BIOCARTA_CASPASE_PATHWAY	0.93849889
REACTOME_PROSTACYCLIN_SIGNALLING_THROUGH_PROSTACYCLIN_RECEPTOR	0.93844649
BIOCARTA_STRESS_PATHWAY	0.93839758
REACTOME_CRMPS_IN_SEMA3A_SIGNALING	0.93833553
REACTOME_INSULIN_RECEPTOR_RECYCLING	0.93821757
BIOCARTA_VIP_PATHWAY	0.93820627
REACTOME_TIGHT_JUNCTION_INTERACTIONS	0.93808524
BIOCARTA_RARRXR_PATHWAY	0.93802236
REACTOME_SIGNALING_BY_FGFR1_MUTANTS	0.93801701
REACTOME_APC_CDC20_MEDIATED_DEGRADATION_OF_NEK2A	0.93781173
REACTOME_SEMA3A_PLEXIN_REPULSION_SIGNALING_BY_INHIBITING_INTEGRIN_ADHESION	0.93775316
REACTOME_ENERGY_DEPENDENT_REGULATION_OF_MTOR_BY_LKB1_AMPK	0.93770344
BIOCARTA_EIF4_PATHWAY	0.9376085
REACTOME_FANCONI_ANEMIA_PATHWAY	0.93759617
ST_GRANULE_CELL_SURVIVAL_PATHWAY	0.93753206
REACTOME_ADHERENS_JUNCTIONS_INTERACTIONS	0.9375037
REACTOME_KINESINS	0.93750041
BIOCARTA_NTHI_PATHWAY	0.9373315
REACTOME_SEMA4D_INDUCED_CELL_MIGRATION_AND_GROWTH_CONE_COLLAPSE	0.93732574
BIOCARTA_ECM_PATHWAY	0.93732102
PID_S1P_S1P1_PATHWAY	0.93731588
BIOCARTA_MTA3_PATHWAY	0.93729369
REACTOME_PRE_NOTCH_PROCESSING_IN_GOLGI	0.93728239
KEGG_RNA_POLYMERASE	0.9372193
BIOCARTA_NFKB_PATHWAY	0.93712971
REACTOME_THROMBOXANE_SIGNALLING_THROUGH_TP_RECEPTOR	0.93705943
KEGG_HOMOLOGOUS_RECOMBINATION	0.93700148
REACTOME_APC_C_CDC20_MEDIATED_DEGRADATION_OF_CYCLIN_B	0.93686997
KEGG_RENIN_ANGIOTENSIN_SYSTEM	0.93686709
BIOCARTA_CTCF_PATHWAY	0.9368264
KEGG_DRUG_METABOLISM_OTHER_ENZYMES	0.93681407
REACTOME_LYSOSOME_VESICLE_BIOGENESIS	0.93680482
REACTOME_SIGNALING_BY_CONSTITUTIVELY_ACTIVE_EGFR	0.93679311
ST_TUMOR_NECROSIS_FACTOR_PATHWAY	0.93668009
BIOCARTA_GATA3_PATHWAY	0.93660344
REACTOME_FORMATION_OF_TRANSCRIPTION_COUPLED_NER_TC_NER_REPAIR_COMPLEX	0.93659913
REACTOME_INTRINSIC_PATHWAY_FOR_APOPTOSIS	0.93653337
KEGG_TRYPTOPHAN_METABOLISM	0.93646556
BIOCARTA_AKT_PATHWAY	0.93631884
REACTOME_NUCLEAR_EVENTS_KINASE_AND_TRANSCRIPTION_FACTOR_ACTIVATION	0.93631473
REACTOME_TRAF6_MEDIATED_IRF7_ACTIVATION	0.9362987
KEGG_MISMATCH_REPAIR	0.93629665
PID_P38ALPHABETAPATHWAY	0.93624897
REACTOME_FATTY_ACYL_COA_BIOSYNTHESIS	0.93623377
REACTOME_TGF_BETA_RECEPTOR_SIGNALING_IN_EMT_EPITHELIAL_TO_MESENCHYMAL_TRANSITION	0.9362087
ST_INTERLEUKIN_4_PATHWAY	0.93620171
KEGG_STEROID_HORMONE_BIOSYNTHESIS	0.93606403
REACTOME_RNA_POL_III_TRANSCRIPTION_INITIATION_FROM_TYPE_3_PROMOTER	0.93594731
BIOCARTA_IL12_PATHWAY	0.93594238
BIOCARTA_IGF1MTOR_PATHWAY	0.93584457
REACTOME_OXYGEN_DEPENDENT_PROLINE_HYDROXYLATION_OF_HYPOXIA_INDUCIBLE_FACTOR_ALPHA	0.93582689
BIOCARTA_INSULIN_PATHWAY	0.9357447
BIOCARTA_NKCELLS_PATHWAY	0.93572785
REACTOME_TRANSFERRIN_ENDOCYTOSIS_AND_RECYCLING	0.93571285
REACTOME_TRAF6_MEDIATED_NFKB_ACTIVATION	0.93570278
REACTOME_REGULATION_OF_SIGNALING_BY_CBL	0.93565305
REACTOME_DOWNREGULATION_OF_SMAD2_3_SMAD4_TRANSCRIPTIONAL_ACTIVITY	0.93563271
REACTOME_MRNA_CAPPING	0.9356064
SIG_REGULATION_OF_THE_ACTIN_CYTOSKELETON_BY_RHO_GTPASES	0.93527207
REACTOME_CHEMOKINE_RECEPTORS_BIND_CHEMOKINES	0.93516871
KEGG_GLYCOSPHINGOLIPID_BIOSYNTHESIS_GANGLIO_SERIES	0.93516172
BIOCARTA_EGFR_SMRTE_PATHWAY	0.93501027
KEGG_SELENOAMINO_ACID_METABOLISM	0.93477478
REACTOME_DNA_STRAND_ELONGATION	0.93473101
BIOCARTA_LAIR_PATHWAY	0.93468252
KEGG_GLYCOSPHINGOLIPID_BIOSYNTHESIS_GLOBO_SERIES	0.93459744
REACTOME_KERATAN_SULFATE_BIOSYNTHESIS	0.93440819
REACTOME_RNA_POL_I_TRANSCRIPTION_INITIATION	0.93432805
ST_GAQ_PATHWAY	0.93432229
REACTOME_PURINE_METABOLISM	0.93432106
BIOCARTA_GLEEVEC_PATHWAY	0.93428448
BIOCARTA_VDR_PATHWAY	0.93424873
REACTOME_RNA_POL_I_TRANSCRIPTION_TERMINATION	0.9341431
BIOCARTA_EPO_PATHWAY	0.93413201
REACTOME_NEGATIVE_REGULATION_OF_FGFR_SIGNALING	0.93410694
BIOCARTA_SPPA_PATHWAY	0.9340009
REACTOME_N_GLYCAN_ANTENNAE_ELONGATION_IN_THE_MEDIAL_TRANS_GOLGI	0.93385336
REACTOME_MITOCHONDRIAL_TRNA_AMINOACYLATION	0.93384473
BIOCARTA_NO2IL12_PATHWAY	0.93382357
BIOCARTA_MEF2D_PATHWAY	0.93376171
BIOCARTA_NO1_PATHWAY	0.93363472
BIOCARTA_CSK_PATHWAY	0.9334919
KEGG_DORSO_VENTRAL_AXIS_FORMATION	0.93348636
BIOCARTA_MITOCHONDRIA_PATHWAY	0.93346827
BIOCARTA_CERAMIDE_PATHWAY	0.93342553
REACTOME_SMAD2_SMAD3_SMAD4_HETEROTRIMER_REGULATES_TRANSCRIPTION	0.93340539
REACTOME_GROWTH_HORMONE_RECEPTOR_SIGNALING	0.9333869
KEGG_GLYCOSPHINGOLIPID_BIOSYNTHESIS_LACTO_AND_NEOLACTO_SERIES	0.93334539
REACTOME_TERMINATION_OF_O_GLYCAN_BIOSYNTHESIS	0.93334457
REACTOME_INTERACTION_BETWEEN_L1_AND_ANKYRINS	0.93326319
BIOCARTA_TOB1_PATHWAY	0.93321161
REACTOME_TRAFFICKING_OF_GLUR2_CONTAINING_AMPA_RECEPTORS	0.93317894
REACTOME_ERK_MAPK_TARGETS	0.93301578
KEGG_PHENYLALANINE_METABOLISM	0.93294879
PID_ARF6DOWNSTREAMPATHWAY	0.93293071
REACTOME_TGF_BETA_RECEPTOR_SIGNALING_ACTIVATES_SMADS	0.93279919
KEGG_GLYCOSYLPHOSPHATIDYLINOSITOL_GPI_ANCHOR_BIOSYNTHESIS	0.932732
BIOCARTA_ETS_PATHWAY	0.93269357
REACTOME_SIGNALING_BY_FGFR1_FUSION_MUTANTS	0.93265823
BIOCARTA_TH1TH2_PATHWAY	0.93218601
REACTOME_DOWNREGULATION_OF_TGF_BETA_RECEPTOR_SIGNALING	0.93211347
REACTOME_IL_6_SIGNALING	0.93191517
REACTOME_CLEAVAGE_OF_GROWING_TRANSCRIPT_IN_THE_TERMINATION_REGION_	0.93182147
REACTOME_RESOLUTION_OF_AP_SITES_VIA_THE_SINGLE_NUCLEOTIDE_REPLACEMENT_PATHWAY	0.93169571
KEGG_PROXIMAL_TUBULE_BICARBONATE_RECLAMATION	0.9316768
REACTOME_ABORTIVE_ELONGATION_OF_HIV1_TRANSCRIPT_IN_THE_ABSENCE_OF_TAT	0.93162379
KEGG_PROTEIN_EXPORT	0.93152001
REACTOME_ASSOCIATION_OF_TRIC_CCT_WITH_TARGET_PROTEINS_DURING_BIOSYNTHESIS	0.93151426
REACTOME_ACTIVATED_AMPK_STIMULATES_FATTY_ACID_OXIDATION_IN_MUSCLE	0.93150337
REACTOME_TRANSPORT_OF_VITAMINS_NUCLEOSIDES_AND_RELATED_MOLECULES	0.93144254
KEGG_BIOSYNTHESIS_OF_UNSATURATED_FATTY_ACIDS	0.93141049
REACTOME_CHONDROITIN_SULFATE_BIOSYNTHESIS	0.93138891
PID_NFKAPPABATYPICALPATHWAY	0.93094423
REACTOME_RAS_ACTIVATION_UOPN_CA2_INFUX_THROUGH_NMDA_RECEPTOR	0.93093498
BIOCARTA_CHEMICAL_PATHWAY	0.93092471
KEGG_NITROGEN_METABOLISM	0.93092019
BIOCARTA_PITX2_PATHWAY	0.93069168
BIOCARTA_IL10_PATHWAY	0.93064154
BIOCARTA_STATHMIN_PATHWAY	0.930539
BIOCARTA_PML_PATHWAY	0.93044345
REACTOME_BIOSYNTHESIS_OF_THE_N_GLYCAN_PRECURSOR_DOLICHOL_LIPID_LINKED_OLIGOSACCHARIDE_LLO_AND_TRANSFER_TO_A_NASCENT_PROTEIN	0.93041756
ST_STAT3_PATHWAY	0.93031173
REACTOME_GLYCOLYSIS	0.93028687
PID_ERB_GENOMIC_PATHWAY	0.93022974
REACTOME_PHOSPHORYLATION_OF_THE_APC_C	0.93022357
BIOCARTA_NGF_PATHWAY	0.93018022
BIOCARTA_ARF_PATHWAY	0.93015658
REACTOME_POST_TRANSLATIONAL_MODIFICATION_SYNTHESIS_OF_GPI_ANCHORED_PROTEINS	0.93012494
BIOCARTA_INFLAM_PATHWAY	0.93011261
BIOCARTA_BCELLSURVIVAL_PATHWAY	0.92998603
BIOCARTA_CDC42RAC_PATHWAY	0.92980787
KEGG_GLUTATHIONE_METABOLISM	0.92967306
BIOCARTA_TNFR2_PATHWAY	0.92935887
REACTOME_INHIBITION_OF_THE_PROTEOLYTIC_ACTIVITY_OF_APC_C_REQUIRED_FOR_THE_ONSET_OF_ANAPHASE_BY_MITOTIC_SPINDLE_CHECKPOINT_COMPONENTS	0.92915667
BIOCARTA_NDKDYNAMIN_PATHWAY	0.92905783
REACTOME_PROLONGED_ERK_ACTIVATION_EVENTS	0.9290383
BIOCARTA_CDK5_PATHWAY	0.92887658
REACTOME_BILE_ACID_AND_BILE_SALT_METABOLISM	0.92882932
REACTOME_AMINE_LIGAND_BINDING_RECEPTORS	0.92876171
BIOCARTA_ARENRF2_PATHWAY	0.92871897
REACTOME_REGULATORY_RNA_PATHWAYS	0.9286939
REACTOME_AMINE_COMPOUND_SLC_TRANSPORTERS	0.92865383
REACTOME_ION_CHANNEL_TRANSPORT	0.92857143
PID_PDGFRAPATHWAY	0.92853485
BIOCARTA_GSK3_PATHWAY	0.92852047
REACTOME_NITRIC_OXIDE_STIMULATES_GUANYLATE_CYCLASE	0.92846622
PID_TCRJNKPATHWAY	0.92811113
KEGG_HISTIDINE_METABOLISM	0.92795126
REACTOME_BRANCHED_CHAIN_AMINO_ACID_CATABOLISM	0.92791468
PID_EPHA_FWDPATHWAY	0.92776632
REACTOME_P130CAS_LINKAGE_TO_MAPK_SIGNALING_FOR_INTEGRINS	0.92769933
REACTOME_SYNTHESIS_OF_PC	0.92748479
BIOCARTA_IGF1_PATHWAY	0.92742623
BIOCARTA_CARDIACEGF_PATHWAY	0.92730807
BIOCARTA_MCM_PATHWAY	0.92729903
KEGG_RETINOL_METABOLISM	0.92729204
REACTOME_NOTCH_HLH_TRANSCRIPTION_PATHWAY	0.92726122
REACTOME_SYNTHESIS_OF_PA	0.92723574
REACTOME_EXTENSION_OF_TELOMERES	0.92721437
REACTOME_STEROID_HORMONES	0.92720286
REACTOME_SHC1_EVENTS_IN_ERBB4_SIGNALING	0.92719957
BIOCARTA_NKT_PATHWAY	0.92717717
BIOCARTA_AKAP95_PATHWAY	0.92710792
PID_HIF1APATHWAY	0.92696922
KEGG_GLYCOSAMINOGLYCAN_DEGRADATION	0.92688147
REACTOME_SHC1_EVENTS_IN_EGFR_SIGNALING	0.9268449
BIOCARTA_P53HYPOXIA_PATHWAY	0.92668811
PID_TOLL_ENDOGENOUS_PATHWAY	0.92662913
BIOCARTA_RHO_PATHWAY	0.92658248
REACTOME_A_TETRASACCHARIDE_LINKER_SEQUENCE_IS_REQUIRED_FOR_GAG_SYNTHESIS	0.92636898
REACTOME_N_GLYCAN_ANTENNAE_ELONGATION	0.92621219
REACTOME_SYNTHESIS_OF_PIPS_AT_THE_GOLGI_MEMBRANE	0.92619596
REACTOME_AMINE_DERIVED_HORMONES	0.92615568
BIOCARTA_ACTINY_PATHWAY	0.92602581
REACTOME_REGULATION_OF_AMPK_ACTIVITY_VIA_LKB1	0.92593683
REACTOME_SHC_RELATED_EVENTS	0.92581621
KEGG_GLYCOSAMINOGLYCAN_BIOSYNTHESIS_CHONDROITIN_SULFATE	0.92575908
KEGG_GLYCOSAMINOGLYCAN_BIOSYNTHESIS_HEPARAN_SULFATE	0.92554763
REACTOME_ARMS_MEDIATED_ACTIVATION	0.92553962
REACTOME_FORMATION_OF_INCISION_COMPLEX_IN_GG_NER	0.9254529
PID_INTEGRIN2_PATHWAY	0.92544838
REACTOME_ION_TRANSPORT_BY_P_TYPE_ATPASES	0.92542516
REACTOME_RNA_POL_III_TRANSCRIPTION_INITIATION_FROM_TYPE_2_PROMOTER	0.92530063
SA_REG_CASCADE_OF_CYCLIN_EXPR	0.92520344
REACTOME_SIGNALLING_TO_P38_VIA_RIT_AND_RIN	0.92512371
REACTOME_MRNA_DECAY_BY_5_TO_3_EXORIBONUCLEASE	0.92504418
REACTOME_DEPOSITION_OF_NEW_CENPA_CONTAINING_NUCLEOSOMES_AT_THE_CENTROMERE	0.92481794
PID_ALK1PATHWAY	0.92476615
REACTOME_SHC_MEDIATED_SIGNALLING	0.92472546
REACTOME_CYCLIN_A_B1_ASSOCIATED_EVENTS_DURING_G2_M_TRANSITION	0.92471149
REACTOME_HS_GAG_BIOSYNTHESIS	0.92458696
BIOCARTA_P35ALZHEIMERS_PATHWAY	0.92423845
PID_SYNDECAN_3_PATHWAY	0.92422551
REACTOME_PIP3_ACTIVATES_AKT_SIGNALING	0.92413797
BIOCARTA_EIF_PATHWAY	0.92396577
REACTOME_ABCA_TRANSPORTERS_IN_LIPID_HOMEOSTASIS	0.92382007
PID_CIRCADIANPATHWAY	0.92372904
REACTOME_HDL_MEDIATED_LIPID_TRANSPORT	0.92362547
REACTOME_SMOOTH_MUSCLE_CONTRACTION	0.92353978
PID_DNAPK_PATHWAY	0.92344238
SA_PTEN_PATHWAY	0.92339984
BIOCARTA_NUCLEARRS_PATHWAY	0.92337251
REACTOME_NOD1_2_SIGNALING_PATHWAY	0.92322333
REACTOME_METABOLISM_OF_PORPHYRINS	0.92316456
BIOCARTA_IL17_PATHWAY	0.9230575
REACTOME_GABA_SYNTHESIS_RELEASE_REUPTAKE_AND_DEGRADATION	0.92301085
REACTOME_MICRORNA_MIRNA_BIOGENESIS	0.92285427
REACTOME_DESTABILIZATION_OF_MRNA_BY_TRISTETRAPROLIN_TTP	0.92283269
REACTOME_MRNA_3_END_PROCESSING	0.92276673
PID_LPA4_PATHWAY	0.9227357
REACTOME_DESTABILIZATION_OF_MRNA_BY_KSRP	0.92267919
REACTOME_GENERATION_OF_SECOND_MESSENGER_MOLECULES	0.92258733
REACTOME_PROLACTIN_RECEPTOR_SIGNALING	0.92249877
BIOCARTA_IL22BP_PATHWAY	0.92242438
PID_WNT_CANONICAL_PATHWAY	0.92233273
BIOCARTA_ERK5_PATHWAY	0.92232246
BIOCARTA_DREAM_PATHWAY	0.92226369
REACTOME_CONVERSION_FROM_APC_C_CDC20_TO_APC_C_CDH1_IN_LATE_ANAPHASE	0.922208
BIOCARTA_ARAP_PATHWAY	0.9221558
KEGG_AUTOIMMUNE_THYROID_DISEASE	0.92207422
KEGG_TYPE_I_DIABETES_MELLITUS	0.92207237
REACTOME_IL_7_SIGNALING	0.92182435
KEGG_OTHER_GLYCAN_DEGRADATION	0.92167804
REACTOME_AMINO_ACID_TRANSPORT_ACROSS_THE_PLASMA_MEMBRANE	0.92155228
REACTOME_TRAF3_DEPENDENT_IRF_ACTIVATION_PATHWAY	0.92142549
BIOCARTA_CCR5_PATHWAY	0.92137268
REACTOME_REGULATION_OF_INSULIN_LIKE_GROWTH_FACTOR_IGF_ACTIVITY_BY_INSULIN_LIKE_GROWTH_FACTOR_BINDING_PROTEINS_IGFBPS	0.92133816
REACTOME_TRAF6_MEDIATED_INDUCTION_OF_TAK1_COMPLEX	0.92126952
REACTOME_HYALURONAN_METABOLISM	0.92121116
BIOCARTA_SHH_PATHWAY	0.92118445
REACTOME_GLUCONEOGENESIS	0.92103239
KEGG_METABOLISM_OF_XENOBIOTICS_BY_CYTOCHROME_P450	0.92094649
REACTOME_PLATELET_ADHESION_TO_EXPOSED_COLLAGEN	0.92090293
REACTOME_DEADENYLATION_OF_MRNA	0.92088813
REACTOME_ACTIVATED_TAK1_MEDIATES_P38_MAPK_ACTIVATION	0.92063579
REACTOME_SIGNALING_BY_BMP	0.92020323
BIOCARTA_CD40_PATHWAY	0.92004028
REACTOME_ADENYLATE_CYCLASE_INHIBITORY_PATHWAY	0.92001192
REACTOME_RNA_POL_III_TRANSCRIPTION_TERMINATION	0.91996157
REACTOME_P75NTR_SIGNALS_VIA_NFKB	0.91988657
KEGG_ONE_CARBON_POOL_BY_FOLATE	0.91972711
PID_ANTHRAXPATHWAY	0.91951586
REACTOME_JNK_C_JUN_KINASES_PHOSPHORYLATION_AND_ACTIVATION_MEDIATED_BY_ACTIVATED_HUMAN_TAK1	0.91925037
REACTOME_CREB_PHOSPHORYLATION_THROUGH_THE_ACTIVATION_OF_CAMKII	0.91922982
REACTOME_SOS_MEDIATED_SIGNALLING	0.91919653
REACTOME_ANTIGEN_PRESENTATION_FOLDING_ASSEMBLY_AND_PEPTIDE_LOADING_OF_CLASS_I_MHC	0.91906461
PID_HEDGEHOG_2PATHWAY	0.91893843
KEGG_DRUG_METABOLISM_CYTOCHROME_P450	0.91892158
REACTOME_SHC_MEDIATED_CASCADE	0.9189148
REACTOME_RAP1_SIGNALLING	0.91882172
BIOCARTA_SPRY_PATHWAY	0.91879089
REACTOME_RESOLUTION_OF_AP_SITES_VIA_THE_MULTIPLE_NUCLEOTIDE_PATCH_REPLACEMENT_PATHWAY	0.91876253
BIOCARTA_LONGEVITY_PATHWAY	0.91867767
BIOCARTA_STEM_PATHWAY	0.91866061
REACTOME_GAP_JUNCTION_ASSEMBLY	0.9186565
PID_GLYPICAN_1PATHWAY	0.91845142
KEGG_GLYCOSAMINOGLYCAN_BIOSYNTHESIS_KERATAN_SULFATE	0.91831703
REACTOME_CITRIC_ACID_CYCLE_TCA_CYCLE	0.91801475
REACTOME_OLFACTORY_SIGNALING_PATHWAY	0.9180051
BIOCARTA_DC_PATHWAY	0.91796235
REACTOME_COMPLEMENT_CASCADE	0.91791756
BIOCARTA_P53_PATHWAY	0.91788879
REACTOME_UNBLOCKING_OF_NMDA_RECEPTOR_GLUTAMATE_BINDING_AND_ACTIVATION	0.9178105
REACTOME_LAGGING_STRAND_SYNTHESIS	0.91760459
BIOCARTA_RELA_PATHWAY	0.91756658
REACTOME_P75NTR_RECRUITS_SIGNALLING_COMPLEXES	0.91751438
REACTOME_EARLY_PHASE_OF_HIV_LIFE_CYCLE	0.91734773
PID_NFKAPPABCANONICALPATHWAY	0.91727067
BIOCARTA_CTLA4_PATHWAY	0.91720676
KEGG_NICOTINATE_AND_NICOTINAMIDE_METABOLISM	0.91719793
BIOCARTA_AKAPCENTROSOME_PATHWAY	0.91716875
BIOCARTA_GCR_PATHWAY	0.91692524
REACTOME_HS_GAG_DEGRADATION	0.91686051
REACTOME_NEPHRIN_INTERACTIONS	0.91685661
KEGG_GLYOXYLATE_AND_DICARBOXYLATE_METABOLISM	0.91631761
REACTOME_AMYLOIDS	0.91629603
BIOCARTA_ERYTH_PATHWAY	0.91625349
BIOCARTA_IL3_PATHWAY	0.91610307
BIOCARTA_AKAP13_PATHWAY	0.91604965
REACTOME_SYNTHESIS_SECRETION_AND_DEACYLATION_OF_GHRELIN	0.91580511
PID_CONE_PATHWAY	0.91548085
BIOCARTA_SKP2E2F_PATHWAY	0.9153444
PID_RHODOPSIN_PATHWAY	0.91522172
REACTOME_NFKB_ACTIVATION_THROUGH_FADD_RIP1_PATHWAY_MEDIATED_BY_CASPASE_8_AND10	0.91513521
REACTOME_REGULATION_OF_GENE_EXPRESSION_IN_BETA_CELLS	0.91501027
BIOCARTA_TEL_PATHWAY	0.91498952
REACTOME_DOWNREGULATION_OF_ERBB2_ERBB3_SIGNALING	0.91496383
REACTOME_ACYL_CHAIN_REMODELLING_OF_PC	0.91483931
PID_ERBB_NETWORK_PATHWAY	0.91480725
REACTOME_SYNTHESIS_OF_BILE_ACIDS_AND_BILE_SALTS	0.91476697
REACTOME_SYNTHESIS_AND_INTERCONVERSION_OF_NUCLEOTIDE_DI_AND_TRIPHOSPHATES	0.914753
BIOCARTA_CELL2CELL_PATHWAY	0.91456559
BIOCARTA_GRANULOCYTES_PATHWAY	0.91455511
REACTOME_SYNTHESIS_OF_BILE_ACIDS_AND_BILE_SALTS_VIA_7ALPHA_HYDROXYCHOLESTEROL	0.91451812
KEGG_PANTOTHENATE_AND_COA_BIOSYNTHESIS	0.91413201
BIOCARTA_CACAM_PATHWAY	0.91413201
BIOCARTA_ACH_PATHWAY	0.91398734
REACTOME_ACTIVATED_NOTCH1_TRANSMITS_SIGNAL_TO_THE_NUCLEUS	0.91395405
REACTOME_VIRAL_MESSENGER_RNA_SYNTHESIS	0.91393453
REACTOME_ACTIVATION_OF_RAC	0.91391953
REACTOME_SIGNAL_ATTENUATION	0.91368404
BIOCARTA_LYM_PATHWAY	0.9136226
KEGG_NON_HOMOLOGOUS_END_JOINING	0.9130577
BIOCARTA_TALL1_PATHWAY	0.91303839
BIOCARTA_BARRESTIN_SRC_PATHWAY	0.91283166
REACTOME_FORMATION_OF_FIBRIN_CLOT_CLOTTING_CASCADE	0.91275789
REACTOME_PLATELET_CALCIUM_HOMEOSTASIS	0.91260316
REACTOME_REGULATION_OF_INSULIN_SECRETION_BY_ACETYLCHOLINE	0.91245274
REACTOME_CGMP_EFFECTS	0.91237136
REACTOME_GRB2_SOS_PROVIDES_LINKAGE_TO_MAPK_SIGNALING_FOR_INTERGRINS_	0.91198093
BIOCARTA_TRKA_PATHWAY	0.91176886
REACTOME_RAF_MAP_KINASE_CASCADE	0.91171359
REACTOME_CELL_EXTRACELLULAR_MATRIX_INTERACTIONS	0.91152639
REACTOME_DESTABILIZATION_OF_MRNA_BY_BRF1	0.91135521
BIOCARTA_PLCE_PATHWAY	0.91133446
REACTOME_FACILITATIVE_NA_INDEPENDENT_GLUCOSE_TRANSPORTERS	0.91132542
REACTOME_ASSOCIATION_OF_LICENSING_FACTORS_WITH_THE_PRE_REPLICATIVE_COMPLEX	0.91129151
REACTOME_RNA_POL_III_CHAIN_ELONGATION	0.91070319
REACTOME_DEGRADATION_OF_THE_EXTRACELLULAR_MATRIX	0.91059613
REACTOME_GLUTATHIONE_CONJUGATION	0.91047407
REACTOME_ERKS_ARE_INACTIVATED	0.91041242
BIOCARTA_HIF_PATHWAY	0.91025152
REACTOME_OTHER_SEMAPHORIN_INTERACTIONS	0.91015289
REACTOME_INFLAMMASOMES	0.91015104
REACTOME_CTLA4_INHIBITORY_SIGNALING	0.91011795
REACTOME_SEMA3A_PAK_DEPENDENT_AXON_REPULSION	0.91010973
REACTOME_NA_CL_DEPENDENT_NEUROTRANSMITTER_TRANSPORTERS	0.90996589
BIOCARTA_41BB_PATHWAY	0.90994411
BIOCARTA_CCR3_PATHWAY	0.90981177
REACTOME_EICOSANOID_LIGAND_BINDING_RECEPTORS	0.90976369
REACTOME_SYNTHESIS_OF_PIPS_AT_THE_EARLY_ENDOSOME_MEMBRANE	0.90971293
REACTOME_METABOLISM_OF_POLYAMINES	0.90966382
BIOCARTA_BARR_MAPK_PATHWAY	0.90955778
PID_S1P_S1P4_PATHWAY	0.90950333
PID_TCRRASPATHWAY	0.9091616
BIOCARTA_EPONFKB_PATHWAY	0.9089483
REACTOME_SYNTHESIS_OF_VERY_LONG_CHAIN_FATTY_ACYL_COAS	0.90880692
REACTOME_G2_M_DNA_DAMAGE_CHECKPOINT	0.9087239
REACTOME_RECRUITMENT_OF_NUMA_TO_MITOTIC_CENTROSOMES	0.90866041
REACTOME_TAK1_ACTIVATES_NFKB_BY_PHOSPHORYLATION_AND_ACTIVATION_OF_IKKS_COMPLEX	0.90831621
REACTOME_CD28_DEPENDENT_VAV1_PATHWAY	0.90828189
REACTOME_HORMONE_SENSITIVE_LIPASE_HSL_MEDIATED_TRIACYLGLYCEROL_HYDROLYSIS	0.90820155
REACTOME_CHOLESTEROL_BIOSYNTHESIS	0.9081399
REACTOME_INSULIN_SYNTHESIS_AND_PROCESSING	0.90805072
PID_BETACATENIN_DEG_PATHWAY	0.90801928
REACTOME_ENOS_ACTIVATION_AND_REGULATION	0.90794879
REACTOME_NRIF_SIGNALS_CELL_DEATH_FROM_THE_NUCLEUS	0.90770097
REACTOME_PREFOLDIN_MEDIATED_TRANSFER_OF_SUBSTRATE_TO_CCT_TRIC	0.90770076
REACTOME_ACYL_CHAIN_REMODELLING_OF_PE	0.90763357
REACTOME_BILE_SALT_AND_ORGANIC_ANION_SLC_TRANSPORTERS	0.90759946
REACTOME_INCRETIN_SYNTHESIS_SECRETION_AND_INACTIVATION	0.90754788
REACTOME_ROLE_OF_DCC_IN_REGULATING_APOPTOSIS	0.90744945
KEGG_CIRCADIAN_RHYTHM_MAMMAL	0.90683935
REACTOME_SYNTHESIS_OF_PIPS_AT_THE_LATE_ENDOSOME_MEMBRANE	0.90626521
REACTOME_RIP_MEDIATED_NFKB_ACTIVATION_VIA_DAI	0.90604369
REACTOME_MTORC1_MEDIATED_SIGNALLING	0.90562716
KEGG_LINOLEIC_ACID_METABOLISM	0.9054116
REACTOME_GLUTAMATE_NEUROTRANSMITTER_RELEASE_CYCLE	0.9053407
BIOCARTA_CDMAC_PATHWAY	0.90528851
REACTOME_ACTIVATION_OF_BH3_ONLY_PROTEINS	0.90511754
REACTOME_BOTULINUM_NEUROTOXICITY	0.90476903
REACTOME_EXTRINSIC_PATHWAY_FOR_APOPTOSIS	0.90466752
REACTOME_CS_DS_DEGRADATION	0.90456518
BIOCARTA_NEUROTRANSMITTERS_PATHWAY	0.90442709
BIOCARTA_DNAFRAGMENT_PATHWAY	0.90434531
PID_RANBP2PATHWAY	0.90412091
SA_CASPASE_CASCADE	0.90401652
REACTOME_ACTIVATION_OF_IRF3_IRF7_MEDIATED_BY_TBK1_IKK_EPSILON	0.90398323
KEGG_ALLOGRAFT_REJECTION	0.90393474
BIOCARTA_SET_PATHWAY	0.9038509
REACTOME_REPAIR_SYNTHESIS_FOR_GAP_FILLING_BY_DNA_POL_IN_TC_NER	0.90365116
REACTOME_PROCESSING_OF_CAPPED_INTRONLESS_PRE_MRNA	0.90351923
REACTOME_CASPASE_MEDIATED_CLEAVAGE_OF_CYTOSKELETAL_PROTEINS	0.90307085
KEGG_PRIMARY_BILE_ACID_BIOSYNTHESIS	0.90307065
REACTOME_SIGNALING_BY_NODAL	0.90292968
REACTOME_COPI_MEDIATED_TRANSPORT	0.90286824
REACTOME_AMINO_ACID_SYNTHESIS_AND_INTERCONVERSION_TRANSAMINATION	0.90264939
REACTOME_REGULATION_OF_PYRUVATE_DEHYDROGENASE_PDH_COMPLEX	0.90236253
KEGG_SULFUR_METABOLISM	0.90228136
BIOCARTA_P27_PATHWAY	0.90225156
REACTOME_FGFR_LIGAND_BINDING_AND_ACTIVATION	0.9019797
BIOCARTA_AGPCR_PATHWAY	0.90196655
REACTOME_DCC_MEDIATED_ATTRACTIVE_SIGNALING	0.90180195
BIOCARTA_BARRESTIN_PATHWAY	0.90174482
BIOCARTA_LEPTIN_PATHWAY	0.90160899
REACTOME_ADENYLATE_CYCLASE_ACTIVATING_PATHWAY	0.90143556
BIOCARTA_TID_PATHWAY	0.90137658
BIOCARTA_CBL_PATHWAY	0.90130754
REACTOME_PURINE_SALVAGE	0.90130651
PID_P38GAMMADELTAPATHWAY	0.90126829
REACTOME_PROCESSIVE_SYNTHESIS_ON_THE_LAGGING_STRAND	0.90114828
REACTOME_PROTEOLYTIC_CLEAVAGE_OF_SNARE_COMPLEX_PROTEINS	0.90089964
BIOCARTA_COMP_PATHWAY	0.90083306
REACTOME_MITOCHONDRIAL_FATTY_ACID_BETA_OXIDATION	0.90070155
REACTOME_INTEGRATION_OF_PROVIRUS	0.90037276
REACTOME_IKK_COMPLEX_RECRUITMENT_MEDIATED_BY_RIP1	0.90020672
BIOCARTA_PS1_PATHWAY	0.90017261
REACTOME_VITAMIN_B5_PANTOTHENATE_METABOLISM	0.90012124
BIOCARTA_IL4_PATHWAY	0.90011179
REACTOME_N_GLYCAN_TRIMMING_IN_THE_ER_AND_CALNEXIN_CALRETICULIN_CYCLE	0.89996671
REACTOME_FORMATION_OF_ATP_BY_CHEMIOSMOTIC_COUPLING	0.89991452
ST_PAC1_RECEPTOR_PATHWAY	0.8997867
REACTOME_PLATELET_SENSITIZATION_BY_LDL	0.89959107
REACTOME_ACTIVATION_OF_CHAPERONES_BY_ATF6_ALPHA	0.89920249
REACTOME_GLYCOGEN_BREAKDOWN_GLYCOGENOLYSIS	0.89918667
BIOCARTA_D4GDI_PATHWAY	0.89917105
REACTOME_SYNTHESIS_OF_SUBSTRATES_IN_N_GLYCAN_BIOSYTHESIS	0.89910365
REACTOME_RECEPTOR_LIGAND_BINDING_INITIATES_THE_SECOND_PROTEOLYTIC_CLEAVAGE_OF_NOTCH_RECEPTOR	0.89881267
REACTOME_REVERSIBLE_HYDRATION_OF_CARBON_DIOXIDE	0.89876151
KEGG_TERPENOID_BACKBONE_BIOSYNTHESIS	0.89864438
KEGG_GRAFT_VERSUS_HOST_DISEASE	0.89857102
REACTOME_PURINE_RIBONUCLEOSIDE_MONOPHOSPHATE_BIOSYNTHESIS	0.89830511
REACTOME_SIGNALING_BY_HIPPO	0.89809099
REACTOME_PROSTANOID_LIGAND_RECEPTORS	0.89777844
BIOCARTA_RAB_PATHWAY	0.89771864
BIOCARTA_EPHA4_PATHWAY	0.89753576
BIOCARTA_CFTR_PATHWAY	0.8975263
REACTOME_BASE_FREE_SUGAR_PHOSPHATE_REMOVAL_VIA_THE_SINGLE_NUCLEOTIDE_REPLACEMENT_PATHWAY	0.89745438
REACTOME_CHYLOMICRON_MEDIATED_LIPID_TRANSPORT	0.89731794
BIOCARTA_CYTOKINE_PATHWAY	0.8973015
REACTOME_AKT_PHOSPHORYLATES_TARGETS_IN_THE_CYTOSOL	0.89717204
REACTOME_CDC6_ASSOCIATION_WITH_THE_ORC_ORIGIN_COMPLEX	0.8970584
REACTOME_SYNTHESIS_SECRETION_AND_INACTIVATION_OF_GIP	0.89668133
KEGG_LIMONENE_AND_PINENE_DEGRADATION	0.89652186
BIOCARTA_RB_PATHWAY	0.89625432
REACTOME_GAP_JUNCTION_DEGRADATION	0.89609609
REACTOME_SEROTONIN_RECEPTORS	0.89578662
REACTOME_NUCLEOTIDE_LIKE_PURINERGIC_RECEPTORS	0.89559058
BIOCARTA_AHSP_PATHWAY	0.89553181
REACTOME_SPRY_REGULATION_OF_FGF_SIGNALING	0.89518782
SA_MMP_CYTOKINE_CONNECTION	0.89496835
BIOCARTA_SALMONELLA_PATHWAY	0.89485122
KEGG_TAURINE_AND_HYPOTAURINE_METABOLISM	0.89485122
BIOCARTA_MONOCYTE_PATHWAY	0.89473492
BIOCARTA_HSP27_PATHWAY	0.89446346
REACTOME_PEPTIDE_HORMONE_BIOSYNTHESIS	0.89390884
REACTOME_MEMBRANE_BINDING_AND_TARGETTING_OF_GAG_PROTEINS	0.89386446
REACTOME_ACTIVATED_POINT_MUTANTS_OF_FGFR2	0.89382357
REACTOME_REGULATION_OF_KIT_SIGNALING	0.89380199
BIOCARTA_SRCRPTP_PATHWAY	0.89365958
SA_G1_AND_S_PHASES	0.89360739
KEGG_ALPHA_LINOLENIC_ACID_METABOLISM	0.89353156
REACTOME_ACTIVATION_OF_THE_AP1_FAMILY_OF_TRANSCRIPTION_FACTORS	0.89341526
BIOCARTA_PTC1_PATHWAY	0.89277474
BIOCARTA_RNA_PATHWAY	0.89264878
BIOCARTA_FIBRINOLYSIS_PATHWAY	0.89263686
BIOCARTA_RANMS_PATHWAY	0.89251808
REACTOME_CYTOSOLIC_SULFONATION_OF_SMALL_MOLECULES	0.8919986
REACTOME_PYRIMIDINE_CATABOLISM	0.89191147
REACTOME_TETRAHYDROBIOPTERIN_BH4_SYNTHESIS_RECYCLING_SALVAGE_AND_REGULATION	0.89188312
REACTOME_CALNEXIN_CALRETICULIN_CYCLE	0.8915268
REACTOME_ENDOGENOUS_STEROLS	0.8913735
KEGG_STEROID_BIOSYNTHESIS	0.89133692
SA_PROGRAMMED_CELL_DEATH	0.89103197
REACTOME_IONOTROPIC_ACTIVITY_OF_KAINATE_RECEPTORS	0.89098225
REACTOME_ALPHA_LINOLENIC_ACID_ALA_METABOLISM	0.89096498
REACTOME_DOPAMINE_NEUROTRANSMITTER_RELEASE_CYCLE	0.89083244
REACTOME_POST_CHAPERONIN_TUBULIN_FOLDING_PATHWAY	0.89070812
REACTOME_P38MAPK_EVENTS	0.89021083
SA_G2_AND_M_PHASES	0.89018576
REACTOME_TANDEM_PORE_DOMAIN_POTASSIUM_CHANNELS	0.88991328
REACTOME_DSCAM_INTERACTIONS	0.88988575
BIOCARTA_GLYCOLYSIS_PATHWAY	0.88958614
REACTOME_PECAM1_INTERACTIONS	0.88955737
KEGG_RIBOFLAVIN_METABOLISM	0.88935517
BIOCARTA_INTRINSIC_PATHWAY	0.88923516
BIOCARTA_LECTIN_PATHWAY	0.88919448
REACTOME_SYNTHESIS_SECRETION_AND_INACTIVATION_OF_GLP1	0.88858499
REACTOME_POL_SWITCHING	0.88842574
REACTOME_NEF_MEDIATED_DOWNREGULATION_OF_MHC_CLASS_I_COMPLEX_CELL_SURFACE_EXPRESSION	0.88821429
REACTOME_NFKB_IS_ACTIVATED_AND_SIGNALS_SURVIVAL	0.88817339
REACTOME_ACYL_CHAIN_REMODELLING_OF_PS	0.88790112
REACTOME_SYNTHESIS_OF_GLYCOSYLPHOSPHATIDYLINOSITOL_GPI	0.88747329
BIOCARTA_THELPER_PATHWAY	0.88731711
REACTOME_INTRINSIC_PATHWAY	0.88703559
REACTOME_INITIAL_TRIGGERING_OF_COMPLEMENT	0.8863135
REACTOME_REGULATION_OF_THE_FANCONI_ANEMIA_PATHWAY	0.88627528
REACTOME_SIGNALING_BY_NOTCH3	0.88609609
REACTOME_NOREPINEPHRINE_NEUROTRANSMITTER_RELEASE_CYCLE	0.88590457
REACTOME_REGULATION_OF_RHEB_GTPASE_ACTIVITY_BY_AMPK	0.88579155
BIOCARTA_EIF2_PATHWAY	0.88555051
REACTOME_APOPTOSIS_INDUCED_DNA_FRAGMENTATION	0.88551599
BIOCARTA_KREB_PATHWAY	0.88520529
REACTOME_ACYL_CHAIN_REMODELLING_OF_PI	0.88461799
REACTOME_ELEVATION_OF_CYTOSOLIC_CA2_LEVELS	0.88460628
REACTOME_PHOSPHORYLATION_OF_CD3_AND_TCR_ZETA_CHAINS	0.88433832
REACTOME_PACKAGING_OF_TELOMERE_ENDS	0.88420557
BIOCARTA_SARS_PATHWAY	0.88406461
BIOCARTA_CLASSIC_PATHWAY	0.88386734
REACTOME_FORMATION_OF_TUBULIN_FOLDING_INTERMEDIATES_BY_CCT_TRIC	0.88382583
REACTOME_RNA_POL_I_PROMOTER_OPENING	0.88357924
REACTOME_THE_ACTIVATION_OF_ARYLSULFATASES	0.88344546
REACTOME_CLASS_C_3_METABOTROPIC_GLUTAMATE_PHEROMONE_RECEPTORS	0.88329155
BIOCARTA_ASBCELL_PATHWAY	0.88308154
KEGG_VALINE_LEUCINE_AND_ISOLEUCINE_BIOSYNTHESIS	0.88290358
BIOCARTA_RANKL_PATHWAY	0.88271679
REACTOME_IRAK2_MEDIATED_ACTIVATION_OF_TAK1_COMPLEX_UPON_TLR7_8_OR_9_STIMULATION	0.88258137
REACTOME_REGULATION_OF_IFNA_SIGNALING	0.88158002
REACTOME_TRAFFICKING_AND_PROCESSING_OF_ENDOSOMAL_TLR	0.88073648
REACTOME_MRNA_DECAY_BY_3_TO_5_EXORIBONUCLEASE	0.88028892
REACTOME_PD1_SIGNALING	0.87998438
PID_VEGF_VEGFR_PATHWAY	0.87975916
REACTOME_HYALURONAN_UPTAKE_AND_DEGRADATION	0.87957936
BIOCARTA_CTL_PATHWAY	0.87841649
REACTOME_SYNTHESIS_OF_BILE_ACIDS_AND_BILE_SALTS_VIA_24_HYDROXYCHOLESTEROL	0.87831847
REACTOME_ROLE_OF_SECOND_MESSENGERS_IN_NETRIN1_SIGNALING	0.87824716
REACTOME_THE_NLRP3_INFLAMMASOME	0.87773714
REACTOME_VEGF_LIGAND_RECEPTOR_INTERACTIONS	0.87748233
REACTOME_DEFENSINS	0.87716361
REACTOME_REMOVAL_OF_THE_FLAP_INTERMEDIATE_FROM_THE_C_STRAND	0.8770808
ST_INTERLEUKIN_13_PATHWAY	0.87669283
ST_IL_13_PATHWAY	0.87669283
REACTOME_REGULATION_OF_COMPLEMENT_CASCADE	0.87663756
REACTOME_TRANSPORT_OF_ORGANIC_ANIONS	0.8765831
REACTOME_SIGNALING_BY_NOTCH2	0.87647419
BIOCARTA_TCYTOTOXIC_PATHWAY	0.87639569
REACTOME_GLYCOPROTEIN_HORMONES	0.87611314
REACTOME_ACETYLCHOLINE_NEUROTRANSMITTER_RELEASE_CYCLE	0.87582073
BIOCARTA_ETC_PATHWAY	0.8757784
BIOCARTA_PARKIN_PATHWAY	0.87555606
REACTOME_FGFR1_LIGAND_BINDING_AND_ACTIVATION	0.8752207
ST_TYPE_I_INTERFERON_PATHWAY	0.8749887
REACTOME_REGULATION_OF_IFNG_SIGNALING	0.87468396
REACTOME_APOPTOTIC_CLEAVAGE_OF_CELL_ADHESION_PROTEINS	0.87447024
REACTOME_CTNNB1_PHOSPHORYLATION_CASCADE	0.87429845
BIOCARTA_AMI_PATHWAY	0.87357492
ST_JAK_STAT_PATHWAY	0.87342717
REACTOME_UNWINDING_OF_DNA	0.87340745
REACTOME_TRYPTOPHAN_CATABOLISM	0.87286187
KEGG_FOLATE_BIOSYNTHESIS	0.87284584
REACTOME_KERATAN_SULFATE_DEGRADATION	0.87260192
REACTOME_ACTIVATION_OF_CHAPERONE_GENES_BY_ATF6_ALPHA	0.87253617
REACTOME_ADVANCED_GLYCOSYLATION_ENDPRODUCT_RECEPTOR_SIGNALING	0.87222793
REACTOME_SYNTHESIS_OF_PE	0.87129706
REACTOME_REGULATED_PROTEOLYSIS_OF_P75NTR	0.87124034
REACTOME_FGFR2C_LIGAND_BINDING_AND_ACTIVATION	0.87069867
BIOCARTA_SODD_PATHWAY	0.87068634
REACTOME_ACYL_CHAIN_REMODELLING_OF_PG	0.8696706
REACTOME_TRANSLOCATION_OF_ZAP_70_TO_IMMUNOLOGICAL_SYNAPSE	0.86958737
BIOCARTA_EXTRINSIC_PATHWAY	0.86945175
BIOCARTA_FEEDER_PATHWAY	0.86943757
BIOCARTA_GABA_PATHWAY	0.86941312
REACTOME_PROCESSING_OF_INTRONLESS_PRE_MRNAS	0.86896597
BIOCARTA_IL5_PATHWAY	0.86855581
REACTOME_RECYCLING_OF_BILE_ACIDS_AND_SALTS	0.86797345
BIOCARTA_ACE2_PATHWAY	0.86735533
PID_ALK2PATHWAY	0.86732657
REACTOME_ANDROGEN_BIOSYNTHESIS	0.86694641
REACTOME_SIGNALING_BY_FGFR3_MUTANTS	0.86666817
REACTOME_FGFR4_LIGAND_BINDING_AND_ACTIVATION	0.86634021
REACTOME_INHIBITION_OF_REPLICATION_INITIATION_OF_DAMAGED_DNA_BY_RB1_E2F1	0.86571737
ST_INTERFERON_GAMMA_PATHWAY	0.86516357
REACTOME_ABACAVIR_TRANSPORT_AND_METABOLISM	0.86501685
KEGG_ASTHMA	0.86501151
REACTOME_ACETYLCHOLINE_BINDING_AND_DOWNSTREAM_EVENTS	0.86494883
REACTOME_P2Y_RECEPTORS	0.86457135
BIOCARTA_TCRA_PATHWAY	0.86456354
REACTOME_SIGNALING_BY_ACTIVATED_POINT_MUTANTS_OF_FGFR1	0.86417783
PID_INTEGRIN4_PATHWAY	0.86410118
REACTOME_SIGNAL_REGULATORY_PROTEIN_SIRP_FAMILY_INTERACTIONS	0.86408783
KEGG_ASCORBATE_AND_ALDARATE_METABOLISM	0.86382233
REACTOME_SLBP_DEPENDENT_PROCESSING_OF_REPLICATION_DEPENDENT_HISTONE_PRE_MRNAS	0.86361129
REACTOME_SIGNALING_BY_NOTCH4	0.86261507
REACTOME_LIGAND_GATED_ION_CHANNEL_TRANSPORT	0.86227684
REACTOME_PRESYNAPTIC_NICOTINIC_ACETYLCHOLINE_RECEPTORS	0.86149926
REACTOME_CREATION_OF_C4_AND_C2_ACTIVATORS	0.86125925
BIOCARTA_VITCB_PATHWAY	0.86121116
BIOCARTA_PLATELETAPP_PATHWAY	0.86118137
REACTOME_COMMON_PATHWAY	0.86098677
REACTOME_ENDOSOMAL_VACUOLAR_PATHWAY	0.86097937
REACTOME_OPSINS	0.85997699
REACTOME_XENOBIOTICS	0.85996959
REACTOME_ORGANIC_CATION_ANION_ZWITTERION_TRANSPORT	0.85961203
BIOCARTA_BLYMPHOCYTE_PATHWAY	0.85961039
REACTOME_APOBEC3G_MEDIATED_RESISTANCE_TO_HIV1_INFECTION	0.85945956
REACTOME_TRAF6_MEDIATED_IRF7_ACTIVATION_IN_TLR7_8_OR_9_SIGNALING	0.85925386
REACTOME_HORMONE_LIGAND_BINDING_RECEPTORS	0.85921914
KEGG_PENTOSE_AND_GLUCURONATE_INTERCONVERSIONS	0.85716546
REACTOME_NEGATIVE_REGULATION_OF_THE_PI3K_AKT_NETWORK	0.85712025
REACTOME_IRAK1_RECRUITS_IKK_COMPLEX	0.85464183
REACTOME_BETA_DEFENSINS	0.85444928
BIOCARTA_FREE_PATHWAY	0.85329998
REACTOME_GAMMA_CARBOXYLATION_TRANSPORT_AND_AMINO_TERMINAL_CLEAVAGE_OF_PROTEINS	0.8511152
REACTOME_HIGHLY_CALCIUM_PERMEABLE_POSTSYNAPTIC_NICOTINIC_ACETYLCHOLINE_RECEPTORS	0.84989746
REACTOME_PASSIVE_TRANSPORT_BY_AQUAPORINS	0.84966916
REACTOME_E2F_ENABLED_INHIBITION_OF_PRE_REPLICATION_COMPLEX_FORMATION	0.84939257
BIOCARTA_TCAPOPTOSIS_PATHWAY	0.84727026
SA_FAS_SIGNALING	0.84033331
REACTOME_GLUCURONIDATION	0.83615054
REACTOME_PURINE_CATABOLISM	0.8357671
REACTOME_GABA_A_RECEPTOR_ACTIVATION	0.83557702
REACTOME_BINDING_AND_ENTRY_OF_HIV_VIRION	0.82668502
REACTOME_ETHANOL_OXIDATION	0.81205943
REACTOME_DIGESTION_OF_DIETARY_CARBOHYDRATE	0.7725785
