	Rank.p.value
REACTOME_ERK_MAPK_TARGETS	0.000773380244629628
PID_P53DOWNSTREAMPATHWAY	0.000989297792802281
BIOCARTA_MET_PATHWAY	0.00140844773788056
BIOCARTA_FCER1_PATHWAY	0.00162936886632799
KEGG_NON_SMALL_CELL_LUNG_CANCER	0.00181311774610814
REACTOME_NUCLEAR_EVENTS_KINASE_AND_TRANSCRIPTION_FACTOR_ACTIVATION	0.00212600004791456
KEGG_PANCREATIC_CANCER	0.00221638131019025
KEGG_TIGHT_JUNCTION	0.00237189820686763
PID_CXCR4_PATHWAY	0.00299527649843952
ST_DIFFERENTIATION_PATHWAY_IN_PC12_CELLS	0.00300580210092715
BIOCARTA_TCR_PATHWAY	0.00333093584047135
PID_A6B1_A6B4_INTEGRIN_PATHWAY	0.00362582485476875
PID_ERBB4_PATHWAY	0.00452458412864665
BIOCARTA_RAS_PATHWAY	0.00466100413824898
PID_ERBB2ERBB3PATHWAY	0.00588024180314899
KEGG_FC_GAMMA_R_MEDIATED_PHAGOCYTOSIS	0.00597968711754513
KEGG_PHOSPHATIDYLINOSITOL_SIGNALING_SYSTEM	0.00621762981882049
KEGG_LEUKOCYTE_TRANSENDOTHELIAL_MIGRATION	0.0064372835403279
PID_AR_PATHWAY	0.00651967879149408
PID_EPHRINBREVPATHWAY	0.00655965848856993
BIOCARTA_NGF_PATHWAY	0.00669484081709803
REACTOME_ACTIVATED_TLR4_SIGNALLING	0.00669865667953295
REACTOME_TRAF6_MEDIATED_INDUCTION_OF_NFKB_AND_MAP_KINASES_UPON_TLR7_8_OR_9_ACTIVATION	0.0067072182095806
REACTOME_GRB2_EVENTS_IN_ERBB2_SIGNALING	0.00677396578948544
KEGG_ERBB_SIGNALING_PATHWAY	0.00684548004451015
REACTOME_TOLL_RECEPTOR_CASCADES	0.00717393384803885
REACTOME_HDL_MEDIATED_LIPID_TRANSPORT	0.00847480100697927
KEGG_ACUTE_MYELOID_LEUKEMIA	0.00882460009479213
REACTOME_CELL_CELL_COMMUNICATION	0.00916011289961339
REACTOME_TRANSPORT_OF_GLUCOSE_AND_OTHER_SUGARS_BILE_SALTS_AND_ORGANIC_ACIDS_METAL_IONS_AND_AMINE_COMPOUNDS	0.00916014446158742
REACTOME_MAP_KINASE_ACTIVATION_IN_TLR_CASCADE	0.00917748717753049
KEGG_CHRONIC_MYELOID_LEUKEMIA	0.00932009650302642
KEGG_ENDOMETRIAL_CANCER	0.00996365700860238
ST_T_CELL_SIGNAL_TRANSDUCTION	0.0102793503215105
BIOCARTA_INSULIN_PATHWAY	0.0103700728667747
KEGG_T_CELL_RECEPTOR_SIGNALING_PATHWAY	0.0104071431033593
REACTOME_CELL_CELL_JUNCTION_ORGANIZATION	0.0106684180765783
KEGG_MELANOMA	0.0113276146508718
KEGG_BLADDER_CANCER	0.0117628630688787
KEGG_B_CELL_RECEPTOR_SIGNALING_PATHWAY	0.0125704670461754
REACTOME_TRIF_MEDIATED_TLR3_SIGNALING	0.013473393394086
PID_TRAIL_PATHWAY	0.0138864119188275
PID_DELTANP63PATHWAY	0.0143696378942228
REACTOME_NA_CL_DEPENDENT_NEUROTRANSMITTER_TRANSPORTERS	0.0148114290607996
BIOCARTA_GLEEVEC_PATHWAY	0.0151995486584682
REACTOME_GPVI_MEDIATED_ACTIVATION_CASCADE	0.0152158464538659
REACTOME_G_ALPHA1213_SIGNALLING_EVENTS	0.0158724763609903
KEGG_CELL_ADHESION_MOLECULES_CAMS	0.0159787593193369
PID_NEPHRIN_NEPH1_PATHWAY	0.0164167553795577
KEGG_APOPTOSIS	0.0166755662736276
KEGG_VEGF_SIGNALING_PATHWAY	0.0166817632285978
BIOCARTA_CHEMICAL_PATHWAY	0.0167576144827281
KEGG_FOCAL_ADHESION	0.0187033744109939
REACTOME_NFKB_AND_MAP_KINASES_ACTIVATION_MEDIATED_BY_TLR4_SIGNALING_REPERTOIRE	0.0189591188549352
REACTOME_MYD88_MAL_CASCADE_INITIATED_ON_PLASMA_MEMBRANE	0.0196749623824482
REACTOME_DARPP_32_EVENTS	0.020161119754316
KEGG_PROSTATE_CANCER	0.0209234690730695
ST_ADRENERGIC	0.0214722800193485
BIOCARTA_ACH_PATHWAY	0.0220518742428215
PID_BCR_5PATHWAY	0.0223974513784983
KEGG_GLIOMA	0.0226095106597751
KEGG_NATURAL_KILLER_CELL_MEDIATED_CYTOTOXICITY	0.0227624358824424
BIOCARTA_BCELLSURVIVAL_PATHWAY	0.0230696546097428
KEGG_PATHWAYS_IN_CANCER	0.023320522566332
REACTOME_INTRINSIC_PATHWAY_FOR_APOPTOSIS	0.0234746706981172
REACTOME_SEMAPHORIN_INTERACTIONS	0.0235428262942977
REACTOME_ADHERENS_JUNCTIONS_INTERACTIONS	0.0239962246239796
REACTOME_AXON_GUIDANCE	0.0242275552268931
BIOCARTA_CXCR4_PATHWAY	0.0243972293713137
REACTOME_L1CAM_INTERACTIONS	0.0247707638684004
REACTOME_INNATE_IMMUNE_SYSTEM	0.0254436870962424
BIOCARTA_HCMV_PATHWAY	0.0261274931188616
BIOCARTA_IGF1_PATHWAY	0.0262630051515953
REACTOME_INTERACTION_BETWEEN_L1_AND_ANKYRINS	0.0281861248918725
REACTOME_AMINE_COMPOUND_SLC_TRANSPORTERS	0.0284784182569045
REACTOME_AMINO_ACID_TRANSPORT_ACROSS_THE_PLASMA_MEMBRANE	0.028515200496227
PID_ER_NONGENOMIC_PATHWAY	0.028979563433377
PID_TCR_PATHWAY	0.0296917300325838
PID_RHOA_REG_PATHWAY	0.030054396236695
WNT_SIGNALING	0.030204961735511
PID_IL2_PI3KPATHWAY	0.0306077327246122
REACTOME_NOREPINEPHRINE_NEUROTRANSMITTER_RELEASE_CYCLE	0.0314058216881935
BIOCARTA_P53_PATHWAY	0.0325228772768516
PID_CMYB_PATHWAY	0.0328313283172699
PID_TELOMERASEPATHWAY	0.0334017253588415
KEGG_INOSITOL_PHOSPHATE_METABOLISM	0.0337015782730316
PID_E2F_PATHWAY	0.0339035335489894
REACTOME_CTLA4_INHIBITORY_SIGNALING	0.0345192386109917
REACTOME_IL_2_SIGNALING	0.0350581346435849
PID_AP1_PATHWAY	0.0366383410890096
REACTOME_MAPK_TARGETS_NUCLEAR_EVENTS_MEDIATED_BY_MAP_KINASES	0.0368056489160385
KEGG_AXON_GUIDANCE	0.0370046526662187
KEGG_LONG_TERM_DEPRESSION	0.0378546248953498
REACTOME_PI_METABOLISM	0.0384449739263106
REACTOME_SHC1_EVENTS_IN_ERBB4_SIGNALING	0.0387944427483568
REACTOME_RECRUITMENT_OF_MITOTIC_CENTROSOME_PROTEINS_AND_COMPLEXES	0.0409813004033561
REACTOME_CD28_DEPENDENT_PI3K_AKT_SIGNALING	0.0416701832223695
PID_FAK_PATHWAY	0.0417206471422887
PID_HDAC_CLASSIII_PATHWAY	0.042886521513869
PID_AVB3_INTEGRIN_PATHWAY	0.0434673973454428
BIOCARTA_PYK2_PATHWAY	0.0434686821197916
REACTOME_NUCLEAR_SIGNALING_BY_ERBB4	0.0439057041392896
PID_AR_NONGENOMIC_PATHWAY	0.0451585273541536
REACTOME_COSTIMULATION_BY_THE_CD28_FAMILY	0.0455066964259432
PID_EPOPATHWAY	0.0458066072863343
REACTOME_INCRETIN_SYNTHESIS_SECRETION_AND_INACTIVATION	0.0462995639781102
REACTOME_SEMA3A_PLEXIN_REPULSION_SIGNALING_BY_INHIBITING_INTEGRIN_ADHESION	0.0465051023750245
PID_IL6_7PATHWAY	0.0475411829213775
PID_TCRJNKPATHWAY	0.0490407877150422
REACTOME_ADENYLATE_CYCLASE_ACTIVATING_PATHWAY	0.0497383250215466
BIOCARTA_HER2_PATHWAY	0.0505472503299665
REACTOME_ADP_SIGNALLING_THROUGH_P2RY1	0.0509673542374971
PID_LYMPHANGIOGENESIS_PATHWAY	0.0511652757805805
PID_SMAD2_3NUCLEARPATHWAY	0.0527606872266056
PID_IL2_1PATHWAY	0.0528531146257803
REACTOME_CTNNB1_PHOSPHORYLATION_CASCADE	0.0539054815169851
BIOCARTA_ARF_PATHWAY	0.0544777320904622
ST_FAS_SIGNALING_PATHWAY	0.0565038016812621
KEGG_ECM_RECEPTOR_INTERACTION	0.0595320098571751
BIOCARTA_NFAT_PATHWAY	0.0597269982003896
REACTOME_G1_PHASE	0.0598773090956843
BIOCARTA_TEL_PATHWAY	0.0625005303885294
REACTOME_AMINO_ACID_AND_OLIGOPEPTIDE_SLC_TRANSPORTERS	0.0627845791064406
KEGG_NEUROTROPHIN_SIGNALING_PATHWAY	0.0629110105096278
BIOCARTA_AT1R_PATHWAY	0.0634796386236016
REACTOME_MUSCLE_CONTRACTION	0.0636743377250499
SIG_PIP3_SIGNALING_IN_CARDIAC_MYOCTES	0.0637614877709905
BIOCARTA_TNFR1_PATHWAY	0.0651122634770247
PID_IL2_STAT5PATHWAY	0.0692759890354004
REACTOME_N_GLYCAN_ANTENNAE_ELONGATION_IN_THE_MEDIAL_TRANS_GOLGI	0.0706104108061245
BIOCARTA_G1_PATHWAY	0.0718434279571334
REACTOME_GABA_SYNTHESIS_RELEASE_REUPTAKE_AND_DEGRADATION	0.0723642066657741
PID_ERA_GENOMIC_PATHWAY	0.0731427572266797
SA_TRKA_RECEPTOR	0.0749933906115366
REACTOME_SOS_MEDIATED_SIGNALLING	0.0750849112204584
REACTOME_GLUTAMATE_NEUROTRANSMITTER_RELEASE_CYCLE	0.0753239180746182
KEGG_COLORECTAL_CANCER	0.0807072190250252
REACTOME_SHC_MEDIATED_SIGNALLING	0.0807415791697279
KEGG_SMALL_CELL_LUNG_CANCER	0.0812033477590188
REACTOME_LOSS_OF_NLP_FROM_MITOTIC_CENTROSOMES	0.0822409763740577
PID_S1P_S1P2_PATHWAY	0.082574728636856
BIOCARTA_TPO_PATHWAY	0.0826887086156959
KEGG_EPITHELIAL_CELL_SIGNALING_IN_HELICOBACTER_PYLORI_INFECTION	0.0828557931256229
PID_ANTHRAXPATHWAY	0.0833208561175816
PID_ECADHERIN_KERATINOCYTE_PATHWAY	0.0852473103731085
REACTOME_CELL_SURFACE_INTERACTIONS_AT_THE_VASCULAR_WALL	0.0855908610704918
BIOCARTA_EGF_PATHWAY	0.0857247698665828
REACTOME_IMMUNE_SYSTEM	0.0864399721667071
REACTOME_NEPHRIN_INTERACTIONS	0.0873659958629441
BIOCARTA_P53HYPOXIA_PATHWAY	0.0882910951540127
REACTOME_INHIBITION_OF_REPLICATION_INITIATION_OF_DAMAGED_DNA_BY_RB1_E2F1	0.088782804896913
REACTOME_ACETYLCHOLINE_NEUROTRANSMITTER_RELEASE_CYCLE	0.0892417786112882
BIOCARTA_HDAC_PATHWAY	0.0896993368296284
BIOCARTA_IL2_PATHWAY	0.0897386625034281
PID_CONE_PATHWAY	0.0900495403620396
PID_P75NTRPATHWAY	0.0907572019481631
PID_RB_1PATHWAY	0.0909384689212845
BIOCARTA_MAL_PATHWAY	0.0915466210213243
PID_HDAC_CLASSI_PATHWAY	0.0920634963909531
REACTOME_G1_S_TRANSITION	0.0924833248105072
BIOCARTA_EPONFKB_PATHWAY	0.0928386098552373
BIOCARTA_EIF4_PATHWAY	0.0932472813746677
PID_NOTCH_PATHWAY	0.0935078261793892
PID_MYC_PATHWAY	0.0936342203701264
BIOCARTA_PDGF_PATHWAY	0.0938568841659446
BIOCARTA_MEF2D_PATHWAY	0.0941246044517381
PID_PDGFRBPATHWAY	0.094668195195163
ST_B_CELL_ANTIGEN_RECEPTOR	0.0949397671444507
PID_INTEGRIN4_PATHWAY	0.0956237375318035
BIOCARTA_PPARA_PATHWAY	0.0980641107173228
PID_MET_PATHWAY	0.0983034875484585
BIOCARTA_RNA_PATHWAY	0.098698108946457
PID_NFKAPPABATYPICALPATHWAY	0.0989146140048529
PID_SYNDECAN_3_PATHWAY	0.0997079391470675
PID_ARF6_PATHWAY	0.0998155390652204
BIOCARTA_CELLCYCLE_PATHWAY	0.101170891276068
BIOCARTA_GABA_PATHWAY	0.101637808174991
REACTOME_SIGNALING_BY_NOTCH1	0.103386380820572
BIOCARTA_NKCELLS_PATHWAY	0.104216968088848
REACTOME_RECYCLING_PATHWAY_OF_L1	0.104734813568768
REACTOME_CELL_JUNCTION_ORGANIZATION	0.10502340028885
REACTOME_TCR_SIGNALING	0.106425369352536
REACTOME_RAF_MAP_KINASE_CASCADE	0.106557205220754
REACTOME_SLC_MEDIATED_TRANSMEMBRANE_TRANSPORT	0.106575864055455
KEGG_WNT_SIGNALING_PATHWAY	0.108607201114717
BIOCARTA_FMLP_PATHWAY	0.109239960609679
KEGG_TRYPTOPHAN_METABOLISM	0.109640770441664
PID_THROMBIN_PAR1_PATHWAY	0.111257392945825
REACTOME_INTEGRATION_OF_PROVIRUS	0.112194543651684
SA_PTEN_PATHWAY	0.112716740013793
REACTOME_PLATELET_ACTIVATION_SIGNALING_AND_AGGREGATION	0.112905198882225
PID_FGF_PATHWAY	0.113180206905003
PID_NFAT_TFPATHWAY	0.116833273327683
BIOCARTA_FAS_PATHWAY	0.117884447352026
SA_G1_AND_S_PHASES	0.118947328329797
PID_TCPTP_PATHWAY	0.119456559091158
PID_AR_TF_PATHWAY	0.121399898487601
PID_MYC_REPRESSPATHWAY	0.121856996981746
PID_TRKRPATHWAY	0.122468527990315
BIOCARTA_TRKA_PATHWAY	0.123958322577021
BIOCARTA_IGF1R_PATHWAY	0.124669015028411
REACTOME_N_GLYCAN_ANTENNAE_ELONGATION	0.126585522537252
BIOCARTA_BIOPEPTIDES_PATHWAY	0.127949490461148
BIOCARTA_ATM_PATHWAY	0.128576576440652
SIG_INSULIN_RECEPTOR_PATHWAY_IN_CARDIAC_MYOCYTES	0.128943155256722
BIOCARTA_PAR1_PATHWAY	0.129012129003537
REACTOME_CD28_CO_STIMULATION	0.129369551864651
REACTOME_ABCA_TRANSPORTERS_IN_LIPID_HOMEOSTASIS	0.131906765371565
ST_INTEGRIN_SIGNALING_PATHWAY	0.132937024440071
REACTOME_SYNTHESIS_OF_PIPS_AT_THE_PLASMA_MEMBRANE	0.13569817033928
BIOCARTA_BCR_PATHWAY	0.136426528040473
REACTOME_ARMS_MEDIATED_ACTIVATION	0.137786470499414
PID_RET_PATHWAY	0.137948625285905
PID_ERBB1_DOWNSTREAM_PATHWAY	0.140842947012243
REACTOME_CDC6_ASSOCIATION_WITH_THE_ORC_ORIGIN_COMPLEX	0.14242264874843
REACTOME_TERMINATION_OF_O_GLYCAN_BIOSYNTHESIS	0.142489839464491
REACTOME_TRANSFERRIN_ENDOCYTOSIS_AND_RECYCLING	0.143570090961147
REACTOME_IL_RECEPTOR_SHC_SIGNALING	0.144962976429722
REACTOME_NCAM_SIGNALING_FOR_NEURITE_OUT_GROWTH	0.145410376816056
REACTOME_MYOGENESIS	0.145509679604872
BIOCARTA_CARM_ER_PATHWAY	0.145555135451855
REACTOME_LIPID_DIGESTION_MOBILIZATION_AND_TRANSPORT	0.145891169527257
PID_CXCR3PATHWAY	0.146149494163574
REACTOME_APOBEC3G_MEDIATED_RESISTANCE_TO_HIV1_INFECTION	0.149461677985816
SIG_PIP3_SIGNALING_IN_B_LYMPHOCYTES	0.149845430379634
PID_NETRIN_PATHWAY	0.150103727903353
BIOCARTA_RACCYCD_PATHWAY	0.150239621051053
ST_JAK_STAT_PATHWAY	0.150935077945892
BIOCARTA_CASPASE_PATHWAY	0.150951956305264
PID_PRLSIGNALINGEVENTSPATHWAY	0.151101128079168
REACTOME_SEMA4D_INDUCED_CELL_MIGRATION_AND_GROWTH_CONE_COLLAPSE	0.151425526222593
REACTOME_OPIOID_SIGNALLING	0.153103921017102
PID_CERAMIDE_PATHWAY	0.153325278471735
BIOCARTA_IL7_PATHWAY	0.154730427016265
PID_TGFBRPATHWAY	0.155981521160516
PID_RAS_PATHWAY	0.156531680885029
BIOCARTA_INTEGRIN_PATHWAY	0.158296208925628
ST_PHOSPHOINOSITIDE_3_KINASE_PATHWAY	0.159542158471439
REACTOME_EXTRINSIC_PATHWAY_FOR_APOPTOSIS	0.159553853694721
REACTOME_IL_3_5_AND_GM_CSF_SIGNALING	0.159722693736217
KEGG_RENIN_ANGIOTENSIN_SYSTEM	0.160004320414213
PID_ANGIOPOIETINRECEPTOR_PATHWAY	0.162116021040843
BIOCARTA_DC_PATHWAY	0.162980166915038
BIOCARTA_MTOR_PATHWAY	0.165333189566017
REACTOME_DOWNREGULATION_OF_SMAD2_3_SMAD4_TRANSCRIPTIONAL_ACTIVITY	0.165840780845523
REACTOME_NGF_SIGNALLING_VIA_TRKA_FROM_THE_PLASMA_MEMBRANE	0.166474241651629
REACTOME_SIGNALING_BY_HIPPO	0.167341920618662
BIOCARTA_EPO_PATHWAY	0.167827195103096
PID_IFNGPATHWAY	0.169296531968087
REACTOME_SIGNAL_AMPLIFICATION	0.171975976577294
KEGG_DORSO_VENTRAL_AXIS_FORMATION	0.173712512954598
REACTOME_LIPOPROTEIN_METABOLISM	0.17377407718505
PID_TCRRASPATHWAY	0.174626747252181
PID_AURORA_A_PATHWAY	0.174706639045048
REACTOME_PROLONGED_ERK_ACTIVATION_EVENTS	0.175834276208296
REACTOME_MITOTIC_G1_G1_S_PHASES	0.17611861004092
PID_PTP1BPATHWAY	0.176334390672064
ST_G_ALPHA_I_PATHWAY	0.176823677741238
PID_THROMBIN_PAR4_PATHWAY	0.177215032562717
REACTOME_E2F_MEDIATED_REGULATION_OF_DNA_REPLICATION	0.180223659294151
REACTOME_PI3K_EVENTS_IN_ERBB2_SIGNALING	0.181101993792994
BIOCARTA_FREE_PATHWAY	0.181137639526892
PID_SYNDECAN_2_PATHWAY	0.18131594699162
ST_ERK1_ERK2_MAPK_PATHWAY	0.181403412211987
KEGG_MTOR_SIGNALING_PATHWAY	0.182251147802149
REACTOME_IL_6_SIGNALING	0.182591993008326
KEGG_PROGESTERONE_MEDIATED_OOCYTE_MATURATION	0.184177230091234
REACTOME_UNBLOCKING_OF_NMDA_RECEPTOR_GLUTAMATE_BINDING_AND_ACTIVATION	0.18419557240153
REACTOME_PHOSPHOLIPID_METABOLISM	0.184198875034537
SIG_BCR_SIGNALING_PATHWAY	0.184323879119293
REACTOME_ROLE_OF_DCC_IN_REGULATING_APOPTOSIS	0.185228699323551
BIOCARTA_ECM_PATHWAY	0.185352208536409
REACTOME_LATENT_INFECTION_OF_HOMO_SAPIENS_WITH_MYCOBACTERIUM_TUBERCULOSIS	0.185658314323388
KEGG_GLYCOSAMINOGLYCAN_BIOSYNTHESIS_HEPARAN_SULFATE	0.187561347132806
ST_WNT_BETA_CATENIN_PATHWAY	0.188125270888778
KEGG_ABC_TRANSPORTERS	0.19042003223489
REACTOME_SIGNALING_BY_ERBB4	0.192619180572747
PID_HES_HEYPATHWAY	0.192663617591379
PID_DNAPK_PATHWAY	0.193224751979268
BIOCARTA_RB_PATHWAY	0.194036541762864
REACTOME_APOPTOSIS	0.19664517122755
REACTOME_G_BETA_GAMMA_SIGNALLING_THROUGH_PI3KGAMMA	0.196847673642765
BIOCARTA_MYOSIN_PATHWAY	0.197016366924867
PID_PDGFRAPATHWAY	0.197144922346585
KEGG_GNRH_SIGNALING_PATHWAY	0.197317734286938
REACTOME_SHC_RELATED_EVENTS	0.197359586701961
REACTOME_REGULATED_PROTEOLYSIS_OF_P75NTR	0.198911105820687
REACTOME_TRANSCRIPTIONAL_REGULATION_OF_WHITE_ADIPOCYTE_DIFFERENTIATION	0.202177943823695
REACTOME_SIGNALING_BY_ERBB2	0.204254233295108
REACTOME_METAL_ION_SLC_TRANSPORTERS	0.204836434400556
REACTOME_NEUROTRANSMITTER_RELEASE_CYCLE	0.204980158494146
PID_MTOR_4PATHWAY	0.205418159732638
REACTOME_MITOCHONDRIAL_TRNA_AMINOACYLATION	0.205487799777644
PID_NCADHERINPATHWAY	0.205610673590038
PID_FASPATHWAY	0.208227087487804
PID_TXA2PATHWAY	0.208691720586068
BIOCARTA_RAC1_PATHWAY	0.209265724493291
KEGG_BASAL_CELL_CARCINOMA	0.210210319321156
BIOCARTA_G2_PATHWAY	0.21129967702931
KEGG_TGF_BETA_SIGNALING_PATHWAY	0.21169120814539
PID_BETACATENIN_NUC_PATHWAY	0.212257960397064
PID_CDC42_PATHWAY	0.214342784865704
BIOCARTA_PML_PATHWAY	0.214386299209984
PID_CD8TCRPATHWAY	0.215754543079724
KEGG_REGULATION_OF_ACTIN_CYTOSKELETON	0.215907208326739
REACTOME_NEGATIVE_REGULATION_OF_THE_PI3K_AKT_NETWORK	0.216931174074149
REACTOME_SMOOTH_MUSCLE_CONTRACTION	0.217460404976855
REACTOME_IL_7_SIGNALING	0.217938859505407
REACTOME_CREB_PHOSPHORYLATION_THROUGH_THE_ACTIVATION_OF_CAMKII	0.218325011882814
PID_IL8CXCR2_PATHWAY	0.218341960728189
REACTOME_ROLE_OF_SECOND_MESSENGERS_IN_NETRIN1_SIGNALING	0.218762206768177
ST_GA12_PATHWAY	0.21905798128138
REACTOME_MITOTIC_G2_G2_M_PHASES	0.219674265586724
BIOCARTA_EDG1_PATHWAY	0.220733266498625
REACTOME_SHC1_EVENTS_IN_EGFR_SIGNALING	0.221482108828044
REACTOME_CLASS_A1_RHODOPSIN_LIKE_RECEPTORS	0.22344962312346
REACTOME_P75_NTR_RECEPTOR_MEDIATED_SIGNALLING	0.224909487017353
BIOCARTA_CHREBP2_PATHWAY	0.226798465232614
PID_LYSOPHOSPHOLIPID_PATHWAY	0.226896584953195
REACTOME_S_PHASE	0.227323773769079
KEGG_P53_SIGNALING_PATHWAY	0.227973591010311
REACTOME_TIE2_SIGNALING	0.229454002253805
REACTOME_ADAPTIVE_IMMUNE_SYSTEM	0.229690493862993
REACTOME_SIGNALING_BY_FGFR	0.231317870282587
BIOCARTA_ERK5_PATHWAY	0.232177535805854
REACTOME_TRANSPORT_OF_INORGANIC_CATIONS_ANIONS_AND_AMINO_ACIDS_OLIGOPEPTIDES	0.232381704606969
REACTOME_INSULIN_RECEPTOR_RECYCLING	0.233011601248418
BIOCARTA_EIF_PATHWAY	0.233998201842967
PID_IL23PATHWAY	0.234085272855273
PID_AJDISS_2PATHWAY	0.234209476297226
BIOCARTA_TFF_PATHWAY	0.234485125440903
ST_PAC1_RECEPTOR_PATHWAY	0.235406498531265
REACTOME_ZINC_TRANSPORTERS	0.23554871026208
BIOCARTA_MAPK_PATHWAY	0.236428178839037
BIOCARTA_CTCF_PATHWAY	0.236646264163302
PID_ERBB1_RECEPTOR_PROXIMAL_PATHWAY	0.238049813808465
REACTOME_RAS_ACTIVATION_UOPN_CA2_INFUX_THROUGH_NMDA_RECEPTOR	0.238847646259656
PID_KITPATHWAY	0.23891193009735
REACTOME_SYNTHESIS_AND_INTERCONVERSION_OF_NUCLEOTIDE_DI_AND_TRIPHOSPHATES	0.239305558768121
REACTOME_EGFR_DOWNREGULATION	0.239490331130142
PID_ERBB_NETWORK_PATHWAY	0.239668505287911
PID_P73PATHWAY	0.239746963767651
REACTOME_YAP1_AND_WWTR1_TAZ_STIMULATED_GENE_EXPRESSION	0.240660764859956
REACTOME_ACTIVATION_OF_BH3_ONLY_PROTEINS	0.240727788956023
PID_MYC_ACTIVPATHWAY	0.242052715270642
PID_FOXM1PATHWAY	0.244495753528107
REACTOME_SIGNALING_BY_SCF_KIT	0.245011954477016
PID_LKB1_PATHWAY	0.246032794551923
REACTOME_INHIBITION_OF_VOLTAGE_GATED_CA2_CHANNELS_VIA_GBETA_GAMMA_SUBUNITS	0.246135660345809
REACTOME_CELL_DEATH_SIGNALLING_VIA_NRAGE_NRIF_AND_NADE	0.246286347879916
ST_TYPE_I_INTERFERON_PATHWAY	0.246962295894797
PID_TNFPATHWAY	0.247593923422474
REACTOME_SYNTHESIS_SECRETION_AND_INACTIVATION_OF_GIP	0.247913424950181
KEGG_VIBRIO_CHOLERAE_INFECTION	0.248770638837043
REACTOME_PLATELET_SENSITIZATION_BY_LDL	0.249929095618564
BIOCARTA_CERAMIDE_PATHWAY	0.250287733200887
REACTOME_NRAGE_SIGNALS_DEATH_THROUGH_JNK	0.250417413751987
REACTOME_ELEVATION_OF_CYTOSOLIC_CA2_LEVELS	0.251195111725707
REACTOME_GPCR_LIGAND_BINDING	0.251603913249259
REACTOME_METABOLISM_OF_LIPIDS_AND_LIPOPROTEINS	0.251627288906181
REACTOME_REGULATION_OF_HYPOXIA_INDUCIBLE_FACTOR_HIF_BY_OXYGEN	0.252100404044162
KEGG_GLYCOSPHINGOLIPID_BIOSYNTHESIS_LACTO_AND_NEOLACTO_SERIES	0.252771792709007
REACTOME_CRMPS_IN_SEMA3A_SIGNALING	0.252989046515662
SA_B_CELL_RECEPTOR_COMPLEXES	0.253605793531184
BIOCARTA_GCR_PATHWAY	0.254184967472156
KEGG_GLYCEROLIPID_METABOLISM	0.256298699320019
BIOCARTA_IL6_PATHWAY	0.257006626772019
BIOCARTA_IL2RB_PATHWAY	0.257049878033345
REACTOME_SIGNAL_TRANSDUCTION_BY_L1	0.257279863567147
PID_IL5_PATHWAY	0.257305001885081
KEGG_GLYCOSYLPHOSPHATIDYLINOSITOL_GPI_ANCHOR_BIOSYNTHESIS	0.25752266882214
KEGG_AMYOTROPHIC_LATERAL_SCLEROSIS_ALS	0.257580751623711
REACTOME_FANCONI_ANEMIA_PATHWAY	0.260013507350356
KEGG_RENAL_CELL_CARCINOMA	0.260674205036482
BIOCARTA_GSK3_PATHWAY	0.263350396842032
REACTOME_CHONDROITIN_SULFATE_DERMATAN_SULFATE_METABOLISM	0.263509936295032
KEGG_ENDOCYTOSIS	0.264855241016221
KEGG_ADHERENS_JUNCTION	0.265373934425698
REACTOME_PURINE_CATABOLISM	0.267850881938979
PID_WNT_CANONICAL_PATHWAY	0.269259121039264
REACTOME_ERKS_ARE_INACTIVATED	0.269828212135903
PID_IL12_2PATHWAY	0.272492655041251
REACTOME_G1_S_SPECIFIC_TRANSCRIPTION	0.277263827042025
REACTOME_ANTIGEN_ACTIVATES_B_CELL_RECEPTOR_LEADING_TO_GENERATION_OF_SECOND_MESSENGERS	0.27728382744057
PID_VEGFR1_2_PATHWAY	0.277399446543114
REACTOME_PI3K_EVENTS_IN_ERBB4_SIGNALING	0.277776646418428
ST_G_ALPHA_S_PATHWAY	0.27836929943795
KEGG_FC_EPSILON_RI_SIGNALING_PATHWAY	0.278534657720405
BIOCARTA_ERK_PATHWAY	0.280441156368227
PID_TAP63PATHWAY	0.28094280154976
PID_LPA4_PATHWAY	0.282230946288805
REACTOME_SYNTHESIS_OF_PC	0.28382074752034
BIOCARTA_GH_PATHWAY	0.28725849088963
ST_IL_13_PATHWAY	0.288066859941632
ST_INTERLEUKIN_13_PATHWAY	0.288066859941632
REACTOME_INTEGRIN_CELL_SURFACE_INTERACTIONS	0.288311699339376
REACTOME_NOTCH1_INTRACELLULAR_DOMAIN_REGULATES_TRANSCRIPTION	0.288458225721804
PID_INTEGRIN_A9B1_PATHWAY	0.289321667167537
REACTOME_NEUROTRANSMITTER_RECEPTOR_BINDING_AND_DOWNSTREAM_TRANSMISSION_IN_THE_POSTSYNAPTIC_CELL	0.290267058127558
ST_GA13_PATHWAY	0.290820713806269
KEGG_CHEMOKINE_SIGNALING_PATHWAY	0.291082413500277
PID_EPHBFWDPATHWAY	0.291331343683401
PID_S1P_META_PATHWAY	0.292613482270836
BIOCARTA_CTLA4_PATHWAY	0.293346141338356
REACTOME_SIGNALING_BY_WNT	0.293957136900028
REACTOME_SYNTHESIS_OF_PIPS_AT_THE_LATE_ENDOSOME_MEMBRANE	0.294570951382087
PID_EPHA_FWDPATHWAY	0.294586123647107
BIOCARTA_BAD_PATHWAY	0.295092425112458
REACTOME_CELL_CYCLE	0.296262658090699
REACTOME_FACTORS_INVOLVED_IN_MEGAKARYOCYTE_DEVELOPMENT_AND_PLATELET_PRODUCTION	0.29662774676356
REACTOME_ACTIVATION_OF_KAINATE_RECEPTORS_UPON_GLUTAMATE_BINDING	0.298151958948879
PID_HEDGEHOG_2PATHWAY	0.298214656771991
BIOCARTA_EPHA4_PATHWAY	0.301348543649061
KEGG_LONG_TERM_POTENTIATION	0.301386397239745
ST_INTERFERON_GAMMA_PATHWAY	0.301771120205301
PID_IL4_2PATHWAY	0.302258977290918
REACTOME_SIGNALLING_TO_P38_VIA_RIT_AND_RIN	0.302506477162163
REACTOME_DOWNREGULATION_OF_ERBB2_ERBB3_SIGNALING	0.305333914030216
REACTOME_GLUCOSE_METABOLISM	0.309812124627231
BIOCARTA_LONGEVITY_PATHWAY	0.310989215773552
REACTOME_GAP_JUNCTION_DEGRADATION	0.31214076128919
REACTOME_RORA_ACTIVATES_CIRCADIAN_EXPRESSION	0.312204975168685
PID_INSULIN_GLUCOSE_PATHWAY	0.312943696302401
REACTOME_THROMBOXANE_SIGNALLING_THROUGH_TP_RECEPTOR	0.313513384513774
REACTOME_NUCLEAR_RECEPTOR_TRANSCRIPTION_PATHWAY	0.313880898536871
PID_HNF3APATHWAY	0.316070863893759
PID_EPHA2_FWDPATHWAY	0.317884370310598
REACTOME_DOWNSTREAM_SIGNALING_OF_ACTIVATED_FGFR	0.317895443303859
REACTOME_GASTRIN_CREB_SIGNALLING_PATHWAY_VIA_PKC_AND_MAPK	0.31918216306906
REACTOME_PROSTANOID_LIGAND_RECEPTORS	0.321163871086973
REACTOME_SIGNALING_BY_FGFR_IN_DISEASE	0.322813841462073
REACTOME_SPRY_REGULATION_OF_FGF_SIGNALING	0.322916407790683
REACTOME_DEVELOPMENTAL_BIOLOGY	0.323322940241416
REACTOME_BOTULINUM_NEUROTOXICITY	0.324062102361623
BIOCARTA_IGF1MTOR_PATHWAY	0.32408027390536
REACTOME_REGULATION_OF_SIGNALING_BY_CBL	0.324665938979424
REACTOME_NETRIN1_SIGNALING	0.32576458849499
PID_ECADHERIN_STABILIZATION_PATHWAY	0.326910549007636
PID_FCER1PATHWAY	0.327035629943391
REACTOME_REGULATION_OF_KIT_SIGNALING	0.327844875046581
REACTOME_TRAF6_MEDIATED_IRF7_ACTIVATION_IN_TLR7_8_OR_9_SIGNALING	0.330918820454038
REACTOME_PHASE1_FUNCTIONALIZATION_OF_COMPOUNDS	0.333601139302509
PID_HDAC_CLASSII_PATHWAY	0.336034857448303
REACTOME_HS_GAG_DEGRADATION	0.339733670710571
REACTOME_IMMUNOREGULATORY_INTERACTIONS_BETWEEN_A_LYMPHOID_AND_A_NON_LYMPHOID_CELL	0.339787706166542
REACTOME_ADENYLATE_CYCLASE_INHIBITORY_PATHWAY	0.339943012541608
REACTOME_ABC_FAMILY_PROTEINS_MEDIATED_TRANSPORT	0.343085391423353
KEGG_PEROXISOME	0.343745925487386
REACTOME_DOWNSTREAM_TCR_SIGNALING	0.34445704319894
PID_MAPKTRKPATHWAY	0.345164617477336
REACTOME_CHONDROITIN_SULFATE_BIOSYNTHESIS	0.34742961364546
REACTOME_SIGNALING_BY_FGFR3_MUTANTS	0.349296743528096
REACTOME_NEF_MEDIATED_DOWNREGULATION_OF_MHC_CLASS_I_COMPLEX_CELL_SURFACE_EXPRESSION	0.350166929929364
BIOCARTA_CELL2CELL_PATHWAY	0.350306744278768
REACTOME_PHASE_II_CONJUGATION	0.350708040592422
REACTOME_SIGNALING_BY_RHO_GTPASES	0.352108420406832
REACTOME_SYNTHESIS_SECRETION_AND_INACTIVATION_OF_GLP1	0.352215040788941
PID_ILK_PATHWAY	0.353462317556624
REACTOME_SIGNALING_BY_FGFR_MUTANTS	0.355034999880902
REACTOME_ACTIVATION_OF_NMDA_RECEPTOR_UPON_GLUTAMATE_BINDING_AND_POSTSYNAPTIC_EVENTS	0.355670686224794
PID_ATF2_PATHWAY	0.356125823842265
REACTOME_P53_DEPENDENT_G1_DNA_DAMAGE_RESPONSE	0.356564641028326
REACTOME_RNA_POL_III_TRANSCRIPTION_TERMINATION	0.358382283723592
REACTOME_AMINE_LIGAND_BINDING_RECEPTORS	0.358458297843219
REACTOME_CIRCADIAN_REPRESSION_OF_EXPRESSION_BY_REV_ERBA	0.358608802204723
PID_SHP2_PATHWAY	0.359618214055651
SIG_CHEMOTAXIS	0.360272636284951
PID_PS1PATHWAY	0.362207677038409
REACTOME_BIOLOGICAL_OXIDATIONS	0.362567447818231
REACTOME_MEMBRANE_BINDING_AND_TARGETTING_OF_GAG_PROTEINS	0.362770387357035
PID_GMCSF_PATHWAY	0.365929699898814
PID_P38ALPHABETADOWNSTREAMPATHWAY	0.366289528434145
REACTOME_SIGNALLING_BY_NGF	0.366449827657406
REACTOME_CELL_CYCLE_MITOTIC	0.368859222214894
BIOCARTA_PITX2_PATHWAY	0.373328062205085
REACTOME_RNA_POL_III_CHAIN_ELONGATION	0.373553338451826
REACTOME_INHIBITION_OF_INSULIN_SECRETION_BY_ADRENALINE_NORADRENALINE	0.373967144000596
BIOCARTA_NDKDYNAMIN_PATHWAY	0.375442433914116
REACTOME_HEMOSTASIS	0.37595805012679
REACTOME_G_ALPHA_Q_SIGNALLING_EVENTS	0.376676007079365
KEGG_ARRHYTHMOGENIC_RIGHT_VENTRICULAR_CARDIOMYOPATHY_ARVC	0.377719093235183
REACTOME_DOWNSTREAM_SIGNAL_TRANSDUCTION	0.379577749124182
PID_NECTIN_PATHWAY	0.380378863642651
PID_PI3KCIPATHWAY	0.380486322256652
REACTOME_SIGNALLING_TO_ERKS	0.381274678504809
REACTOME_RESPONSE_TO_ELEVATED_PLATELET_CYTOSOLIC_CA2_	0.381299417206358
BIOCARTA_SODD_PATHWAY	0.382218624657841
KEGG_THYROID_CANCER	0.382718107093556
REACTOME_CREB_PHOSPHORYLATION_THROUGH_THE_ACTIVATION_OF_RAS	0.383736391428058
PID_REG_GR_PATHWAY	0.384065884780763
PID_HIF1APATHWAY	0.384653266288047
REACTOME_G_BETA_GAMMA_SIGNALLING_THROUGH_PLC_BETA	0.384891838200547
REACTOME_RNA_POL_III_TRANSCRIPTION_INITIATION_FROM_TYPE_2_PROMOTER	0.389032409379547
REACTOME_A_TETRASACCHARIDE_LINKER_SEQUENCE_IS_REQUIRED_FOR_GAG_SYNTHESIS	0.389866273540886
REACTOME_JNK_C_JUN_KINASES_PHOSPHORYLATION_AND_ACTIVATION_MEDIATED_BY_ACTIVATED_HUMAN_TAK1	0.390843614104006
REACTOME_POTASSIUM_CHANNELS	0.391092756883809
PID_RHOA_PATHWAY	0.393285256009068
REACTOME_GABA_B_RECEPTOR_ACTIVATION	0.394625193167167
REACTOME_PI_3K_CASCADE	0.395468268201822
REACTOME_SYNTHESIS_OF_VERY_LONG_CHAIN_FATTY_ACYL_COAS	0.39563114413699
BIOCARTA_CCR5_PATHWAY	0.39752782136805
REACTOME_SIGNAL_REGULATORY_PROTEIN_SIRP_FAMILY_INTERACTIONS	0.397641817523821
REACTOME_INTEGRATION_OF_ENERGY_METABOLISM	0.400112992068898
KEGG_VASOPRESSIN_REGULATED_WATER_REABSORPTION	0.400438747609971
REACTOME_CYTOCHROME_P450_ARRANGED_BY_SUBSTRATE_TYPE	0.401308706853074
BIOCARTA_STEM_PATHWAY	0.403315663477126
KEGG_TOLL_LIKE_RECEPTOR_SIGNALING_PATHWAY	0.404821098131908
REACTOME_REGULATION_OF_COMPLEMENT_CASCADE	0.405028233456017
REACTOME_PLATELET_HOMEOSTASIS	0.405299210506475
KEGG_GLYCINE_SERINE_AND_THREONINE_METABOLISM	0.40569018582125
BIOCARTA_CALCINEURIN_PATHWAY	0.406139141731733
ST_JNK_MAPK_PATHWAY	0.406544679564616
KEGG_GLYCOSAMINOGLYCAN_BIOSYNTHESIS_KERATAN_SULFATE	0.407910218584802
REACTOME_REGULATION_OF_INSULIN_SECRETION_BY_ACETYLCHOLINE	0.408916982712022
REACTOME_MEMBRANE_TRAFFICKING	0.408924242481031
REACTOME_CYCLIN_E_ASSOCIATED_EVENTS_DURING_G1_S_TRANSITION_	0.411368537646319
REACTOME_E2F_ENABLED_INHIBITION_OF_PRE_REPLICATION_COMPLEX_FORMATION	0.412436592504097
KEGG_MELANOGENESIS	0.413065280632512
BIOCARTA_WNT_PATHWAY	0.413825758146264
PID_IL8CXCR1_PATHWAY	0.417646042385545
REACTOME_O_LINKED_GLYCOSYLATION_OF_MUCINS	0.419928332443985
REACTOME_RECRUITMENT_OF_NUMA_TO_MITOTIC_CENTROSOMES	0.420065109087972
REACTOME_GRB2_SOS_PROVIDES_LINKAGE_TO_MAPK_SIGNALING_FOR_INTERGRINS_	0.421171089951693
PID_INTEGRIN3_PATHWAY	0.421360873804472
KEGG_VIRAL_MYOCARDITIS	0.424948511358881
KEGG_NOTCH_SIGNALING_PATHWAY	0.428439898911315
PID_FRA_PATHWAY	0.428677960185904
ST_MYOCYTE_AD_PATHWAY	0.429050601021909
REACTOME_PECAM1_INTERACTIONS	0.429431965077848
KEGG_TYPE_II_DIABETES_MELLITUS	0.430956035003904
REACTOME_IRAK2_MEDIATED_ACTIVATION_OF_TAK1_COMPLEX_UPON_TLR7_8_OR_9_STIMULATION	0.433391762753083
PID_ECADHERIN_NASCENTAJ_PATHWAY	0.434219360177164
REACTOME_ANDROGEN_BIOSYNTHESIS	0.43597925676789
KEGG_MAPK_SIGNALING_PATHWAY	0.43633519166576
PID_GLYPICAN_1PATHWAY	0.437622967317802
REACTOME_MITOTIC_PROMETAPHASE	0.438657172650464
KEGG_GLYCOSAMINOGLYCAN_BIOSYNTHESIS_CHONDROITIN_SULFATE	0.443004722749619
BIOCARTA_AGR_PATHWAY	0.445959145838358
BIOCARTA_PGC1A_PATHWAY	0.447190122110243
REACTOME_HYALURONAN_UPTAKE_AND_DEGRADATION	0.452287210203778
REACTOME_REGULATORY_RNA_PATHWAYS	0.452542545534317
REACTOME_POST_NMDA_RECEPTOR_ACTIVATION_EVENTS	0.452920745236328
REACTOME_SMAD2_SMAD3_SMAD4_HETEROTRIMER_REGULATES_TRANSCRIPTION	0.453826890647507
REACTOME_G_ALPHA_I_SIGNALLING_EVENTS	0.45395681518268
REACTOME_G_ALPHA_Z_SIGNALLING_EVENTS	0.454233116995847
REACTOME_GAMMA_CARBOXYLATION_TRANSPORT_AND_AMINO_TERMINAL_CLEAVAGE_OF_PROTEINS	0.457358852124583
REACTOME_PEPTIDE_HORMONE_BIOSYNTHESIS	0.459168742765318
KEGG_LEISHMANIA_INFECTION	0.460082556264895
REACTOME_PLC_BETA_MEDIATED_EVENTS	0.460416905419206
BIOCARTA_IL12_PATHWAY	0.460841931781195
REACTOME_ALPHA_LINOLENIC_ACID_ALA_METABOLISM	0.461804702733484
BIOCARTA_SARS_PATHWAY	0.462863062379196
PID_BARD1PATHWAY	0.463229608262882
BIOCARTA_BARRESTIN_PATHWAY	0.466802672142496
BIOCARTA_RANMS_PATHWAY	0.467761805669241
BIOCARTA_NO2IL12_PATHWAY	0.467930143619279
REACTOME_CLASS_B_2_SECRETIN_FAMILY_RECEPTORS	0.4687343263052
REACTOME_FORMATION_OF_ATP_BY_CHEMIOSMOTIC_COUPLING	0.46990928855369
REACTOME_SYNTHESIS_SECRETION_AND_DEACYLATION_OF_GHRELIN	0.469912839594769
PID_ERBB1_INTERNALIZATION_PATHWAY	0.470815172528786
REACTOME_PROTEIN_FOLDING	0.470990707387525
BIOCARTA_UCALPAIN_PATHWAY	0.47160982623397
KEGG_VASCULAR_SMOOTH_MUSCLE_CONTRACTION	0.471881681192579
REACTOME_CYTOSOLIC_SULFONATION_OF_SMALL_MOLECULES	0.47266355310582
REACTOME_TIGHT_JUNCTION_INTERACTIONS	0.473113684296465
REACTOME_SULFUR_AMINO_ACID_METABOLISM	0.473612374780023
ST_STAT3_PATHWAY	0.474907811920028
KEGG_CELL_CYCLE	0.475347430542503
REACTOME_ACTIVATION_OF_CHAPERONE_GENES_BY_XBP1S	0.475483353924742
BIOCARTA_TOLL_PATHWAY	0.477278786332087
PID_ERB_GENOMIC_PATHWAY	0.478449644918749
REACTOME_DIABETES_PATHWAYS	0.478996461240758
PID_ENDOTHELINPATHWAY	0.479166267204925
BIOCARTA_PTEN_PATHWAY	0.479346913038214
REACTOME_TRYPTOPHAN_CATABOLISM	0.481620121635783
PID_AMB2_NEUTROPHILS_PATHWAY	0.481856233026803
KEGG_NEUROACTIVE_LIGAND_RECEPTOR_INTERACTION	0.483382727756504
KEGG_LIMONENE_AND_PINENE_DEGRADATION	0.483912479805268
REACTOME_SIGNALING_BY_CONSTITUTIVELY_ACTIVE_EGFR	0.484672419394773
BIOCARTA_ATRBRCA_PATHWAY	0.485421569398325
REACTOME_KINESINS	0.486755553289225
REACTOME_SIGNALING_BY_FGFR1_MUTANTS	0.490973243759799
REACTOME_SIGNALLING_TO_RAS	0.491185415537015
BIOCARTA_CBL_PATHWAY	0.491934652157028
REACTOME_G_PROTEIN_BETA_GAMMA_SIGNALLING	0.494467886658409
BIOCARTA_BLYMPHOCYTE_PATHWAY	0.495759851955362
BIOCARTA_PS1_PATHWAY	0.496418604227624
KEGG_LYSINE_DEGRADATION	0.497732717930475
PID_RAC1_REG_PATHWAY	0.500008801431297
KEGG_ALDOSTERONE_REGULATED_SODIUM_REABSORPTION	0.500928140274267
REACTOME_IONOTROPIC_ACTIVITY_OF_KAINATE_RECEPTORS	0.501365993241619
PID_P53REGULATIONPATHWAY	0.503671587540567
REACTOME_P2Y_RECEPTORS	0.50534055250684
KEGG_SELENOAMINO_ACID_METABOLISM	0.505422253815972
PID_SYNDECAN_1_PATHWAY	0.5063318286165
REACTOME_TRAFFICKING_OF_GLUR2_CONTAINING_AMPA_RECEPTORS	0.50682189771736
KEGG_INSULIN_SIGNALING_PATHWAY	0.507253726628415
SA_REG_CASCADE_OF_CYCLIN_EXPR	0.508640813738528
BIOCARTA_CDK5_PATHWAY	0.509139918867718
REACTOME_G0_AND_EARLY_G1	0.511234847015605
BIOCARTA_EIF2_PATHWAY	0.514228508634619
BIOCARTA_TOB1_PATHWAY	0.515969377564445
REACTOME_P38MAPK_EVENTS	0.516376847293106
REACTOME_THROMBIN_SIGNALLING_THROUGH_PROTEINASE_ACTIVATED_RECEPTORS_PARS	0.519110412982536
REACTOME_REGULATION_OF_INSULIN_SECRETION	0.519507598836259
KEGG_ALLOGRAFT_REJECTION	0.519843088464422
REACTOME_G_ALPHA_S_SIGNALLING_EVENTS	0.520847042900052
KEGG_ALZHEIMERS_DISEASE	0.520882051574678
PID_IL3_PATHWAY	0.521337879504957
REACTOME_GLYCOSAMINOGLYCAN_METABOLISM	0.522833741906166
REACTOME_FGFR4_LIGAND_BINDING_AND_ACTIVATION	0.524073946125433
BIOCARTA_TGFB_PATHWAY	0.524122903402757
PID_ARF6_TRAFFICKINGPATHWAY	0.525455749260623
PID_CD8TCRDOWNSTREAMPATHWAY	0.526156749461257
REACTOME_ION_TRANSPORT_BY_P_TYPE_ATPASES	0.526530689218843
BIOCARTA_ARAP_PATHWAY	0.527850457637149
KEGG_DRUG_METABOLISM_OTHER_ENZYMES	0.52941480517064
BIOCARTA_CDC42RAC_PATHWAY	0.529457109256803
REACTOME_GAB1_SIGNALOSOME	0.530223657337466
BIOCARTA_MTA3_PATHWAY	0.530558303769759
PID_SMAD2_3PATHWAY	0.531107078297242
SIG_IL4RECEPTOR_IN_B_LYPHOCYTES	0.532480197671323
BIOCARTA_IL22BP_PATHWAY	0.533009338267252
PID_CD40_PATHWAY	0.533649842563223
REACTOME_TRANSMISSION_ACROSS_CHEMICAL_SYNAPSES	0.534342846044487
REACTOME_UNFOLDED_PROTEIN_RESPONSE	0.53770626759736
REACTOME_G_PROTEIN_ACTIVATION	0.537827834525051
REACTOME_METABOLISM_OF_NON_CODING_RNA	0.538149627740566
SA_PROGRAMMED_CELL_DEATH	0.538905917492587
PID_RHODOPSIN_PATHWAY	0.53928533539928
BIOCARTA_AKT_PATHWAY	0.539294554464386
REACTOME_AQUAPORIN_MEDIATED_TRANSPORT	0.539728808191633
REACTOME_PROSTACYCLIN_SIGNALLING_THROUGH_PROSTACYCLIN_RECEPTOR	0.539762489016808
BIOCARTA_ASBCELL_PATHWAY	0.540985680369453
REACTOME_SIGNALING_BY_PDGF	0.541095918849034
SIG_CD40PATHWAYMAP	0.541703306377832
REACTOME_RNA_POL_I_TRANSCRIPTION_TERMINATION	0.543981176501456
PID_CASPASE_PATHWAY	0.544137224219258
REACTOME_GABA_RECEPTOR_ACTIVATION	0.545217059007024
REACTOME_SEMA4D_IN_SEMAPHORIN_SIGNALING	0.545559675349297
REACTOME_INWARDLY_RECTIFYING_K_CHANNELS	0.547935074948102
REACTOME_ETHANOL_OXIDATION	0.548296202108476
REACTOME_CYTOSOLIC_TRNA_AMINOACYLATION	0.549216909170063
REACTOME_PI3K_AKT_ACTIVATION	0.552641439312989
BIOCARTA_MCALPAIN_PATHWAY	0.553086695240758
BIOCARTA_HIVNEF_PATHWAY	0.554923103357453
PID_INSULIN_PATHWAY	0.555131097752154
BIOCARTA_VEGF_PATHWAY	0.558258951075014
BIOCARTA_CK1_PATHWAY	0.558973074048457
KEGG_PANTOTHENATE_AND_COA_BIOSYNTHESIS	0.559107701982033
PID_ALPHASYNUCLEIN_PATHWAY	0.559554351559638
REACTOME_FRS2_MEDIATED_CASCADE	0.560920485623466
REACTOME_SYNTHESIS_OF_GLYCOSYLPHOSPHATIDYLINOSITOL_GPI	0.561066568313658
REACTOME_EXTENSION_OF_TELOMERES	0.56252913858663
REACTOME_ASSOCIATION_OF_LICENSING_FACTORS_WITH_THE_PRE_REPLICATIVE_COMPLEX	0.56318317676949
REACTOME_LYSOSOME_VESICLE_BIOGENESIS	0.563798770679171
REACTOME_HORMONE_LIGAND_BINDING_RECEPTORS	0.565865582117778
BIOCARTA_NEUROTRANSMITTERS_PATHWAY	0.566033035784785
REACTOME_ENOS_ACTIVATION_AND_REGULATION	0.566209418400296
SIG_REGULATION_OF_THE_ACTIN_CYTOSKELETON_BY_RHO_GTPASES	0.566657207685895
REACTOME_METABOLISM_OF_STEROID_HORMONES_AND_VITAMINS_A_AND_D	0.575657288079929
REACTOME_TRANSCRIPTIONAL_ACTIVITY_OF_SMAD2_SMAD3_SMAD4_HETEROTRIMER	0.576962311614298
KEGG_HISTIDINE_METABOLISM	0.577133472076588
PID_S1P_S1P3_PATHWAY	0.579026206318381
PID_RAC1_PATHWAY	0.580008216862805
REACTOME_BMAL1_CLOCK_NPAS2_ACTIVATES_CIRCADIAN_EXPRESSION	0.58090965703727
KEGG_PRION_DISEASES	0.581126782478923
BIOCARTA_SPPA_PATHWAY	0.582733688668259
PID_S1P_S1P1_PATHWAY	0.582782999816727
BIOCARTA_BARRESTIN_SRC_PATHWAY	0.583632837499288
PID_NFAT_3PATHWAY	0.583834352740523
KEGG_N_GLYCAN_BIOSYNTHESIS	0.585495260367892
KEGG_SPHINGOLIPID_METABOLISM	0.586809113128017
REACTOME_SIGNALING_BY_ILS	0.586907497496086
REACTOME_TGF_BETA_RECEPTOR_SIGNALING_IN_EMT_EPITHELIAL_TO_MESENCHYMAL_TRANSITION	0.587179030671259
REACTOME_G2_M_DNA_DAMAGE_CHECKPOINT	0.588143396094412
REACTOME_PROTEOLYTIC_CLEAVAGE_OF_SNARE_COMPLEX_PROTEINS	0.588767792371524
BIOCARTA_SPRY_PATHWAY	0.589228508958385
PID_HNF3BPATHWAY	0.589770930133242
REACTOME_TRNA_AMINOACYLATION	0.590589997625448
REACTOME_SIGNALING_BY_INSULIN_RECEPTOR	0.590712788537589
REACTOME_PLATELET_AGGREGATION_PLUG_FORMATION	0.590829580019678
KEGG_PARKINSONS_DISEASE	0.596690369542592
REACTOME_DOPAMINE_NEUROTRANSMITTER_RELEASE_CYCLE	0.596727774212492
REACTOME_CELL_CYCLE_CHECKPOINTS	0.597801705850071
KEGG_O_GLYCAN_BIOSYNTHESIS	0.598577698313681
REACTOME_NEGATIVE_REGULATION_OF_FGFR_SIGNALING	0.598759907396947
REACTOME_SIGNALING_BY_NOTCH	0.60107848687279
REACTOME_REGULATION_OF_INSULIN_LIKE_GROWTH_FACTOR_IGF_ACTIVITY_BY_INSULIN_LIKE_GROWTH_FACTOR_BINDING_PROTEINS_IGFBPS	0.601327750711277
PID_RETINOIC_ACID_PATHWAY	0.606143181190333
KEGG_CARDIAC_MUSCLE_CONTRACTION	0.607411657156672
REACTOME_AUTODEGRADATION_OF_THE_E3_UBIQUITIN_LIGASE_COP1	0.607524276506023
PID_TCRCALCIUMPATHWAY	0.607553923972819
REACTOME_MHC_CLASS_II_ANTIGEN_PRESENTATION	0.608398980857953
KEGG_AMINO_SUGAR_AND_NUCLEOTIDE_SUGAR_METABOLISM	0.608704979151736
REACTOME_METABOLISM_OF_CARBOHYDRATES	0.609068527577134
REACTOME_SPHINGOLIPID_METABOLISM	0.609614832849409
REACTOME_NFKB_IS_ACTIVATED_AND_SIGNALS_SURVIVAL	0.610614709197582
REACTOME_METABOLISM_OF_VITAMINS_AND_COFACTORS	0.61239146749185
PID_RXR_VDR_PATHWAY	0.613150025269437
REACTOME_ADP_SIGNALLING_THROUGH_P2RY12	0.613540115657345
REACTOME_GROWTH_HORMONE_RECEPTOR_SIGNALING	0.61377333502718
REACTOME_STEROID_HORMONES	0.613891182556316
REACTOME_INITIAL_TRIGGERING_OF_COMPLEMENT	0.614574179169816
BIOCARTA_PTDINS_PATHWAY	0.61573392216444
REACTOME_PLATELET_CALCIUM_HOMEOSTASIS	0.615875354017122
REACTOME_PI3K_CASCADE	0.617128649508743
REACTOME_DSCAM_INTERACTIONS	0.617258260941838
REACTOME_ACTIVATION_OF_CHAPERONE_GENES_BY_ATF6_ALPHA	0.6189126163513
PID_INTEGRIN_A4B1_PATHWAY	0.622008505891333
KEGG_ARGININE_AND_PROLINE_METABOLISM	0.622183264731953
KEGG_JAK_STAT_SIGNALING_PATHWAY	0.62249956903745
REACTOME_PEROXISOMAL_LIPID_METABOLISM	0.623704777461313
KEGG_PHENYLALANINE_METABOLISM	0.62646650871866
REACTOME_ACTIVATION_OF_IRF3_IRF7_MEDIATED_BY_TBK1_IKK_EPSILON	0.627384936930469
REACTOME_STRIATED_MUSCLE_CONTRACTION	0.627496134627655
BIOCARTA_DEATH_PATHWAY	0.630979028178518
PID_HEDGEHOG_GLIPATHWAY	0.632978930101455
KEGG_SULFUR_METABOLISM	0.6330637250864
BIOCARTA_RHO_PATHWAY	0.633131059053278
PID_CDC42_REG_PATHWAY	0.633236210439312
KEGG_VALINE_LEUCINE_AND_ISOLEUCINE_DEGRADATION	0.633392183091221
REACTOME_ANTIVIRAL_MECHANISM_BY_IFN_STIMULATED_GENES	0.633567662767425
REACTOME_CA_DEPENDENT_EVENTS	0.634638121777897
REACTOME_EFFECTS_OF_PIP2_HYDROLYSIS	0.636970705351677
REACTOME_INTERACTIONS_OF_VPR_WITH_HOST_CELLULAR_PROTEINS	0.637124064564983
REACTOME_CD28_DEPENDENT_VAV1_PATHWAY	0.637265109770881
REACTOME_SCFSKP2_MEDIATED_DEGRADATION_OF_P27_P21	0.639063184454884
BIOCARTA_SKP2E2F_PATHWAY	0.640317419616801
REACTOME_SPHINGOLIPID_DE_NOVO_BIOSYNTHESIS	0.641487636177552
REACTOME_FATTY_ACYL_COA_BIOSYNTHESIS	0.641861029006139
BIOCARTA_GPCR_PATHWAY	0.642093163280165
REACTOME_PIP3_ACTIVATES_AKT_SIGNALING	0.64411112336287
PID_ARF_3PATHWAY	0.644386947987445
REACTOME_SYNTHESIS_OF_BILE_ACIDS_AND_BILE_SALTS_VIA_7ALPHA_HYDROXYCHOLESTEROL	0.645290241659066
REACTOME_SHC_MEDIATED_CASCADE	0.645469477391428
REACTOME_ACTIVATED_TAK1_MEDIATES_P38_MAPK_ACTIVATION	0.647246518951008
REACTOME_AKT_PHOSPHORYLATES_TARGETS_IN_THE_CYTOSOL	0.647644956774148
REACTOME_VOLTAGE_GATED_POTASSIUM_CHANNELS	0.648816522704737
REACTOME_POL_SWITCHING	0.649205648718028
KEGG_SYSTEMIC_LUPUS_ERYTHEMATOSUS	0.652025024528889
PID_ARF6DOWNSTREAMPATHWAY	0.65358142923934
REACTOME_ENDOSOMAL_SORTING_COMPLEX_REQUIRED_FOR_TRANSPORT_ESCRT	0.656388857739521
PID_VEGFR1_PATHWAY	0.656648853363838
BIOCARTA_MONOCYTE_PATHWAY	0.657129364386104
REACTOME_DOWNSTREAM_SIGNALING_EVENTS_OF_B_CELL_RECEPTOR_BCR	0.657993507635006
REACTOME_TRAF6_MEDIATED_INDUCTION_OF_TAK1_COMPLEX	0.658917688294601
REACTOME_SIGNALING_BY_BMP	0.659208246531918
REACTOME_PROCESSING_OF_INTRONLESS_PRE_MRNAS	0.659364482099568
REACTOME_HIV_LIFE_CYCLE	0.660978031644921
BIOCARTA_BARR_MAPK_PATHWAY	0.662135792130692
REACTOME_FGFR2C_LIGAND_BINDING_AND_ACTIVATION	0.662581316321677
BIOCARTA_GRANULOCYTES_PATHWAY	0.66262883510874
KEGG_HUNTINGTONS_DISEASE	0.663588045941561
PID_REELINPATHWAY	0.66420024891814
REACTOME_NCAM1_INTERACTIONS	0.664876401984027
KEGG_OOCYTE_MEIOSIS	0.666139529942314
BIOCARTA_VITCB_PATHWAY	0.66669174631659
PID_TOLL_ENDOGENOUS_PATHWAY	0.666696558056854
PID_IL1PATHWAY	0.666875370929614
BIOCARTA_STRESS_PATHWAY	0.667776956574528
KEGG_CALCIUM_SIGNALING_PATHWAY	0.667859837972701
REACTOME_RNA_POL_I_TRANSCRIPTION_INITIATION	0.668363090506486
ST_GRANULE_CELL_SURVIVAL_PATHWAY	0.66851897612516
REACTOME_SIGNALING_BY_GPCR	0.669491981220265
REACTOME_MEIOTIC_RECOMBINATION	0.669914354024247
ST_INTERLEUKIN_4_PATHWAY	0.671105522285579
PID_P38_MKK3_6PATHWAY	0.672362950564293
KEGG_CYTOKINE_CYTOKINE_RECEPTOR_INTERACTION	0.674999072044743
REACTOME_PKA_MEDIATED_PHOSPHORYLATION_OF_CREB	0.676291962306758
BIOCARTA_MCM_PATHWAY	0.676697077679815
REACTOME_PTM_GAMMA_CARBOXYLATION_HYPUSINE_FORMATION_AND_ARYLSULFATASE_ACTIVATION	0.678400831410901
REACTOME_ACTIVATED_NOTCH1_TRANSMITS_SIGNAL_TO_THE_NUCLEUS	0.679942837561735
PID_P38_MK2PATHWAY	0.680156144013574
REACTOME_SIGNALING_BY_ACTIVATED_POINT_MUTANTS_OF_FGFR1	0.680353127211102
PID_RANBP2PATHWAY	0.680703972429314
KEGG_BASAL_TRANSCRIPTION_FACTORS	0.684305447298979
REACTOME_INTERFERON_GAMMA_SIGNALING	0.684922053446321
REACTOME_INFLAMMASOMES	0.6865995178267
PID_FANCONI_PATHWAY	0.687657422123101
REACTOME_BILE_SALT_AND_ORGANIC_ANION_SLC_TRANSPORTERS	0.688072852003716
REACTOME_TRANSPORT_OF_ORGANIC_ANIONS	0.68934784560851
REACTOME_CYTOKINE_SIGNALING_IN_IMMUNE_SYSTEM	0.689750535659434
REACTOME_KERATAN_SULFATE_BIOSYNTHESIS	0.691264451062776
REACTOME_TRANSPORT_OF_MATURE_MRNA_DERIVED_FROM_AN_INTRONLESS_TRANSCRIPT	0.696751404282973
REACTOME_MICRORNA_MIRNA_BIOGENESIS	0.697345331189424
REACTOME_SIGNALING_BY_FGFR1_FUSION_MUTANTS	0.69794965776406
REACTOME_RECEPTOR_LIGAND_BINDING_INITIATES_THE_SECOND_PROTEOLYTIC_CLEAVAGE_OF_NOTCH_RECEPTOR	0.698258190193208
KEGG_HEDGEHOG_SIGNALING_PATHWAY	0.699016184561208
KEGG_ARACHIDONIC_ACID_METABOLISM	0.699890090444289
SA_G2_AND_M_PHASES	0.700120649412749
REACTOME_NUCLEOTIDE_LIKE_PURINERGIC_RECEPTORS	0.702185979334589
PID_ATR_PATHWAY	0.702323301458127
REACTOME_TANDEM_PORE_DOMAIN_POTASSIUM_CHANNELS	0.705933251680643
REACTOME_PPARA_ACTIVATES_GENE_EXPRESSION	0.706315007252853
REACTOME_TRAFFICKING_OF_AMPA_RECEPTORS	0.707708154367622
REACTOME_ASSOCIATION_OF_TRIC_CCT_WITH_TARGET_PROTEINS_DURING_BIOSYNTHESIS	0.708792518198386
REACTOME_ACYL_CHAIN_REMODELLING_OF_PC	0.708933362089744
KEGG_PATHOGENIC_ESCHERICHIA_COLI_INFECTION	0.709499164900308
KEGG_HEMATOPOIETIC_CELL_LINEAGE	0.709502915557042
REACTOME_IRAK1_RECRUITS_IKK_COMPLEX	0.709776962861187
REACTOME_REGULATION_OF_APOPTOSIS	0.710135353366706
REACTOME_SYNTHESIS_OF_BILE_ACIDS_AND_BILE_SALTS	0.710523284133456
BIOCARTA_CARM1_PATHWAY	0.71203987531074
REACTOME_SIGNALING_BY_TGF_BETA_RECEPTOR_COMPLEX	0.712133070166968
REACTOME_SIGNALING_BY_ROBO_RECEPTOR	0.714676996326486
REACTOME_REGULATION_OF_GLUCOKINASE_BY_GLUCOKINASE_REGULATORY_PROTEIN	0.714749878148139
REACTOME_ACTIVATED_POINT_MUTANTS_OF_FGFR2	0.714842363888478
KEGG_GLYCEROPHOSPHOLIPID_METABOLISM	0.715584559465231
REACTOME_CHYLOMICRON_MEDIATED_LIPID_TRANSPORT	0.716152388710535
REACTOME_LAGGING_STRAND_SYNTHESIS	0.716364331855066
REACTOME_DAG_AND_IP3_SIGNALING	0.717369930187318
REACTOME_BASIGIN_INTERACTIONS	0.721227627601874
BIOCARTA_CREB_PATHWAY	0.723495313850191
PID_UPA_UPAR_PATHWAY	0.723915539600034
REACTOME_NUCLEOTIDE_BINDING_DOMAIN_LEUCINE_RICH_REPEAT_CONTAINING_RECEPTOR_NLR_SIGNALING_PATHWAYS	0.726824786302153
PID_PI3KPLCTRKPATHWAY	0.726990572653605
KEGG_GLYCOSPHINGOLIPID_BIOSYNTHESIS_GLOBO_SERIES	0.727280314505768
ST_WNT_CA2_CYCLIC_GMP_PATHWAY	0.729654865339616
KEGG_GLYCOSAMINOGLYCAN_DEGRADATION	0.731426035099956
REACTOME_TGF_BETA_RECEPTOR_SIGNALING_ACTIVATES_SMADS	0.732087995298191
REACTOME_IRON_UPTAKE_AND_TRANSPORT	0.73308336063159
PID_IL12_STAT4PATHWAY	0.733419749506964
REACTOME_GENERATION_OF_SECOND_MESSENGER_MOLECULES	0.735248903682244
KEGG_SNARE_INTERACTIONS_IN_VESICULAR_TRANSPORT	0.736204301777711
REACTOME_GPCR_DOWNSTREAM_SIGNALING	0.736446479374562
PID_WNT_NONCANONICAL_PATHWAY	0.736862761240938
BIOCARTA_CDMAC_PATHWAY	0.737221447050874
REACTOME_HEPARAN_SULFATE_HEPARIN_HS_GAG_METABOLISM	0.737413035522818
REACTOME_DIGESTION_OF_DIETARY_CARBOHYDRATE	0.73750980055489
REACTOME_GLYCOLYSIS	0.738071323155938
BIOCARTA_PTC1_PATHWAY	0.739395267290058
REACTOME_METABOLISM_OF_NUCLEOTIDES	0.740187618751907
BIOCARTA_PARKIN_PATHWAY	0.742326386700008
REACTOME_TRIGLYCERIDE_BIOSYNTHESIS	0.743792580851873
PID_ALK2PATHWAY	0.743949080416313
REACTOME_FATTY_ACID_TRIACYLGLYCEROL_AND_KETONE_BODY_METABOLISM	0.744021032118133
BIOCARTA_P38MAPK_PATHWAY	0.745223295269907
REACTOME_SYNTHESIS_OF_SUBSTRATES_IN_N_GLYCAN_BIOSYTHESIS	0.74812475223094
REACTOME_MITOTIC_M_M_G1_PHASES	0.748752450648262
REACTOME_ABORTIVE_ELONGATION_OF_HIV1_TRANSCRIPT_IN_THE_ABSENCE_OF_TAT	0.749145222252689
REACTOME_HS_GAG_BIOSYNTHESIS	0.750316961489489
REACTOME_SIGNALING_BY_THE_B_CELL_RECEPTOR_BCR	0.751416188820742
KEGG_FATTY_ACID_METABOLISM	0.752641249074131
PID_P38GAMMADELTAPATHWAY	0.754606768601617
PID_AURORA_B_PATHWAY	0.754874998661985
PID_INTEGRIN1_PATHWAY	0.756356871717767
BIOCARTA_EGFR_SMRTE_PATHWAY	0.757394055629918
BIOCARTA_LYM_PATHWAY	0.759238090504998
BIOCARTA_SRCRPTP_PATHWAY	0.760009156095619
REACTOME_DOWNREGULATION_OF_TGF_BETA_RECEPTOR_SIGNALING	0.760055708448348
REACTOME_SIGNALING_BY_NOTCH3	0.76063434651068
PID_PLK1_PATHWAY	0.762211325173592
REACTOME_M_G1_TRANSITION	0.762670870214702
REACTOME_TRANSPORT_OF_VITAMINS_NUCLEOSIDES_AND_RELATED_MOLECULES	0.763034157620083
REACTOME_IKK_COMPLEX_RECRUITMENT_MEDIATED_BY_RIP1	0.764806272097483
BIOCARTA_VDR_PATHWAY	0.765312586214995
KEGG_PRIMARY_IMMUNODEFICIENCY	0.766319626678468
BIOCARTA_P35ALZHEIMERS_PATHWAY	0.766378085805223
PID_CIRCADIANPATHWAY	0.767959229606121
PID_HIF1_TFPATHWAY	0.76867267711001
REACTOME_DOUBLE_STRAND_BREAK_REPAIR	0.769497638427541
REACTOME_REGULATION_OF_WATER_BALANCE_BY_RENAL_AQUAPORINS	0.769900161203734
REACTOME_REGULATION_OF_THE_FANCONI_ANEMIA_PATHWAY	0.770713888608891
BIOCARTA_ALK_PATHWAY	0.771506911045118
KEGG_UBIQUITIN_MEDIATED_PROTEOLYSIS	0.771704434269145
REACTOME_RNA_POL_III_TRANSCRIPTION_INITIATION_FROM_TYPE_3_PROMOTER	0.772787374560578
BIOCARTA_NOS1_PATHWAY	0.773259966929557
KEGG_PPAR_SIGNALING_PATHWAY	0.775104414276755
REACTOME_MITOCHONDRIAL_FATTY_ACID_BETA_OXIDATION	0.775446873840007
REACTOME_NEURONAL_SYSTEM	0.776600752431323
REACTOME_DNA_REPLICATION	0.776689529549511
REACTOME_COLLAGEN_FORMATION	0.776808452168284
REACTOME_REMOVAL_OF_THE_FLAP_INTERMEDIATE_FROM_THE_C_STRAND	0.777769227138977
ST_TUMOR_NECROSIS_FACTOR_PATHWAY	0.778063933840139
REACTOME_RNA_POL_II_TRANSCRIPTION_PRE_INITIATION_AND_PROMOTER_OPENING	0.778245914136437
BIOCARTA_INTRINSIC_PATHWAY	0.779281455049884
REACTOME_GLYCEROPHOSPHOLIPID_BIOSYNTHESIS	0.780908950286233
REACTOME_SIGNALING_BY_EGFR_IN_CANCER	0.781708174967448
BIOCARTA_TID_PATHWAY	0.782234312927222
REACTOME_TRANS_GOLGI_NETWORK_VESICLE_BUDDING	0.782354699062655
REACTOME_GLYCOPROTEIN_HORMONES	0.782796510054637
REACTOME_ION_CHANNEL_TRANSPORT	0.783144629218994
REACTOME_SYNTHESIS_OF_BILE_ACIDS_AND_BILE_SALTS_VIA_24_HYDROXYCHOLESTEROL	0.783903121353286
REACTOME_FGFR_LIGAND_BINDING_AND_ACTIVATION	0.784447555400994
PID_PI3KCIAKTPATHWAY	0.784471804288335
REACTOME_BIOSYNTHESIS_OF_THE_N_GLYCAN_PRECURSOR_DOLICHOL_LIPID_LINKED_OLIGOSACCHARIDE_LLO_AND_TRANSFER_TO_A_NASCENT_PROTEIN	0.785015849320777
KEGG_GLUTATHIONE_METABOLISM	0.785103405998972
REACTOME_BRANCHED_CHAIN_AMINO_ACID_CATABOLISM	0.786123698082789
REACTOME_TRAF3_DEPENDENT_IRF_ACTIVATION_PATHWAY	0.786450758926853
REACTOME_SEMA3A_PAK_DEPENDENT_AXON_REPULSION	0.78689083982823
BIOCARTA_P27_PATHWAY	0.789003497568298
REACTOME_TRANSPORT_TO_THE_GOLGI_AND_SUBSEQUENT_MODIFICATION	0.789129682505982
BIOCARTA_LECTIN_PATHWAY	0.790325643543947
KEGG_AMINOACYL_TRNA_BIOSYNTHESIS	0.790740524499097
PID_INTEGRIN_CS_PATHWAY	0.791244372007735
REACTOME_PRE_NOTCH_TRANSCRIPTION_AND_TRANSLATION	0.792220737864491
KEGG_PROXIMAL_TUBULE_BICARBONATE_RECLAMATION	0.792392375471211
REACTOME_PROCESSING_OF_CAPPED_INTRONLESS_PRE_MRNA	0.792468119830891
REACTOME_P130CAS_LINKAGE_TO_MAPK_SIGNALING_FOR_INTEGRINS	0.792585921542751
PID_HIF2PATHWAY	0.794234879983039
REACTOME_OTHER_SEMAPHORIN_INTERACTIONS	0.794359730597756
BIOCARTA_INFLAM_PATHWAY	0.794923635194582
REACTOME_NOD1_2_SIGNALING_PATHWAY	0.794962738220338
REACTOME_ACTIVATION_OF_THE_AP1_FAMILY_OF_TRANSCRIPTION_FACTORS	0.795792125535403
PID_S1P_S1P4_PATHWAY	0.796099595999463
REACTOME_NEP_NS2_INTERACTS_WITH_THE_CELLULAR_EXPORT_MACHINERY	0.796927321075839
REACTOME_ENDOSOMAL_VACUOLAR_PATHWAY	0.797009998036665
REACTOME_OXYGEN_DEPENDENT_PROLINE_HYDROXYLATION_OF_HYPOXIA_INDUCIBLE_FACTOR_ALPHA	0.797982509270715
PID_INTEGRIN5_PATHWAY	0.799344854667698
REACTOME_GAP_JUNCTION_TRAFFICKING	0.800183088046262
KEGG_BIOSYNTHESIS_OF_UNSATURATED_FATTY_ACIDS	0.803433077163653
BIOCARTA_TH1TH2_PATHWAY	0.80349268050938
REACTOME_ACTIVATION_OF_THE_PRE_REPLICATIVE_COMPLEX	0.803619353781004
KEGG_DRUG_METABOLISM_CYTOCHROME_P450	0.804994215071156
REACTOME_AMINE_DERIVED_HORMONES	0.805583192576421
PID_P38ALPHABETAPATHWAY	0.805848597371508
REACTOME_SCF_BETA_TRCP_MEDIATED_DEGRADATION_OF_EMI1	0.806325029285446
REACTOME_MRNA_SPLICING_MINOR_PATHWAY	0.810060536150748
REACTOME_ACTIVATION_OF_NF_KAPPAB_IN_B_CELLS	0.811664759119367
BIOCARTA_NUCLEARRS_PATHWAY	0.811744240631427
REACTOME_TRANSMEMBRANE_TRANSPORT_OF_SMALL_MOLECULES	0.811803155120075
REACTOME_METABOLISM_OF_AMINO_ACIDS_AND_DERIVATIVES	0.813837058764471
BIOCARTA_NKT_PATHWAY	0.814852816281325
BIOCARTA_CTL_PATHWAY	0.816511262753485
REACTOME_ADVANCED_GLYCOSYLATION_ENDPRODUCT_RECEPTOR_SIGNALING	0.818050209441543
PID_FOXOPATHWAY	0.819744408124136
REACTOME_VIRAL_MESSENGER_RNA_SYNTHESIS	0.82027697203802
KEGG_ALPHA_LINOLENIC_ACID_METABOLISM	0.821320623378912
REACTOME_NONSENSE_MEDIATED_DECAY_ENHANCED_BY_THE_EXON_JUNCTION_COMPLEX	0.821686771355981
ST_P38_MAPK_PATHWAY	0.821796031329118
KEGG_NOD_LIKE_RECEPTOR_SIGNALING_PATHWAY	0.822513618138192
REACTOME_METABOLISM_OF_POLYAMINES	0.823700090157498
REACTOME_PREFOLDIN_MEDIATED_TRANSFER_OF_SUBSTRATE_TO_CCT_TRIC	0.823977342205241
KEGG_PURINE_METABOLISM	0.824149711953907
REACTOME_GLUCAGON_SIGNALING_IN_METABOLIC_REGULATION	0.825094380499127
PID_BETACATENIN_DEG_PATHWAY	0.825855972272038
REACTOME_TETRAHYDROBIOPTERIN_BH4_SYNTHESIS_RECYCLING_SALVAGE_AND_REGULATION	0.826122837511483
KEGG_NITROGEN_METABOLISM	0.826400031487046
REACTOME_TRAFFICKING_AND_PROCESSING_OF_ENDOSOMAL_TLR	0.826553741842209
KEGG_STEROID_BIOSYNTHESIS	0.826742806705736
REACTOME_NEF_MEDIATES_DOWN_MODULATION_OF_CELL_SURFACE_RECEPTORS_BY_RECRUITING_THEM_TO_CLATHRIN_ADAPTERS	0.826809509431109
REACTOME_GLUCOSE_TRANSPORT	0.828013353441715
REACTOME_ACTIVATION_OF_RAC	0.828096351025345
BIOCARTA_NTHI_PATHWAY	0.828098596428976
REACTOME_TRANSPORT_OF_RIBONUCLEOPROTEINS_INTO_THE_HOST_NUCLEUS	0.82815049547319
KEGG_BETA_ALANINE_METABOLISM	0.830494028373162
REACTOME_MEIOSIS	0.831225977665688
REACTOME_FGFR1_LIGAND_BINDING_AND_ACTIVATION	0.831752075892563
BIOCARTA_VIP_PATHWAY	0.833392583511341
KEGG_RIBOFLAVIN_METABOLISM	0.834659576007691
REACTOME_CIRCADIAN_CLOCK	0.835266612969879
KEGG_AUTOIMMUNE_THYROID_DISEASE	0.835370901612493
BIOCARTA_THELPER_PATHWAY	0.83600269249516
REACTOME_GLYCOGEN_BREAKDOWN_GLYCOGENOLYSIS	0.836004841833638
REACTOME_RAP1_SIGNALLING	0.836563724213139
BIOCARTA_AHSP_PATHWAY	0.836712934133841
BIOCARTA_TCYTOTOXIC_PATHWAY	0.837598455549665
KEGG_INTESTINAL_IMMUNE_NETWORK_FOR_IGA_PRODUCTION	0.838333533666822
REACTOME_SYNTHESIS_OF_PIPS_AT_THE_EARLY_ENDOSOME_MEMBRANE	0.839380047889614
BIOCARTA_FEEDER_PATHWAY	0.840095494216724
REACTOME_POST_TRANSLATIONAL_PROTEIN_MODIFICATION	0.840792581111783
REACTOME_PEPTIDE_LIGAND_BINDING_RECEPTORS	0.842532976565926
REACTOME_TRANSPORT_OF_MATURE_TRANSCRIPT_TO_CYTOPLASM	0.842623555981353
REACTOME_METABOLISM_OF_RNA	0.842796872963163
REACTOME_RNA_POL_I_RNA_POL_III_AND_MITOCHONDRIAL_TRANSCRIPTION	0.843902953889959
KEGG_FRUCTOSE_AND_MANNOSE_METABOLISM	0.84500688715618
KEGG_TYPE_I_DIABETES_MELLITUS	0.845215415069576
KEGG_ASTHMA	0.845294195595935
REACTOME_REGULATION_OF_RHEB_GTPASE_ACTIVITY_BY_AMPK	0.846046300613061
BIOCARTA_RAB_PATHWAY	0.846823464864284
REACTOME_REGULATION_OF_INSULIN_SECRETION_BY_GLUCAGON_LIKE_PEPTIDE1	0.84699321976941
REACTOME_TRANSLATION	0.847409582685037
REACTOME_BILE_ACID_AND_BILE_SALT_METABOLISM	0.849875369221988
REACTOME_DNA_STRAND_ELONGATION	0.852049130191339
REACTOME_ACTIVATION_OF_CHAPERONES_BY_ATF6_ALPHA	0.852835704407009
REACTOME_INSULIN_RECEPTOR_SIGNALLING_CASCADE	0.854895822547186
REACTOME_FORMATION_OF_THE_HIV1_EARLY_ELONGATION_COMPLEX	0.854951529622429
REACTOME_CYCLIN_A_B1_ASSOCIATED_EVENTS_DURING_G2_M_TRANSITION	0.85542648507405
REACTOME_SYNTHESIS_OF_DNA	0.857371578028234
KEGG_LYSOSOME	0.857699117563328
REACTOME_SYNTHESIS_OF_PE	0.857915516293642
REACTOME_NITRIC_OXIDE_STIMULATES_GUANYLATE_CYCLASE	0.858168146313947
BIOCARTA_FIBRINOLYSIS_PATHWAY	0.858578897558245
BIOCARTA_CYTOKINE_PATHWAY	0.859026223415859
BIOCARTA_DREAM_PATHWAY	0.859507668568139
ST_GAQ_PATHWAY	0.860073009522475
SA_CASPASE_CASCADE	0.86008918061052
REACTOME_EICOSANOID_LIGAND_BINDING_RECEPTORS	0.861469457384069
BIOCARTA_CLASSIC_PATHWAY	0.861569478486009
KEGG_TAURINE_AND_HYPOTAURINE_METABOLISM	0.861637271786284
REACTOME_LATE_PHASE_OF_HIV_LIFE_CYCLE	0.86180277306025
REACTOME_GLUCAGON_TYPE_LIGAND_RECEPTORS	0.861907852569383
KEGG_MISMATCH_REPAIR	0.8619705479198
REACTOME_CLASS_C_3_METABOTROPIC_GLUTAMATE_PHEROMONE_RECEPTORS	0.862279683281012
REACTOME_APC_CDC20_MEDIATED_DEGRADATION_OF_NEK2A	0.863998845874139
REACTOME_RNA_POL_III_TRANSCRIPTION	0.866377793909972
REACTOME_APOPTOTIC_CLEAVAGE_OF_CELLULAR_PROTEINS	0.867259309085674
KEGG_PYRUVATE_METABOLISM	0.867969144858579
BIOCARTA_PROTEASOME_PATHWAY	0.870401978758825
REACTOME_CDT1_ASSOCIATION_WITH_THE_CDC6_ORC_ORIGIN_COMPLEX	0.871092486326544
BIOCARTA_TALL1_PATHWAY	0.871092751103219
REACTOME_AMINO_ACID_SYNTHESIS_AND_INTERCONVERSION_TRANSAMINATION	0.871254028677788
REACTOME_MRNA_3_END_PROCESSING	0.871291038685426
KEGG_FOLATE_BIOSYNTHESIS	0.872807313602592
REACTOME_GENERIC_TRANSCRIPTION_PATHWAY	0.87282403377894
REACTOME_HOST_INTERACTIONS_OF_HIV_FACTORS	0.87298968239407
KEGG_OXIDATIVE_PHOSPHORYLATION	0.873991832171495
REACTOME_APOPTOTIC_CLEAVAGE_OF_CELL_ADHESION_PROTEINS	0.874062305693659
KEGG_RNA_POLYMERASE	0.874168001704927
REACTOME_DEADENYLATION_DEPENDENT_MRNA_DECAY	0.87526292209965
PID_AVB3_OPN_PATHWAY	0.876392316174645
REACTOME_DCC_MEDIATED_ATTRACTIVE_SIGNALING	0.876725629373628
REACTOME_MITOCHONDRIAL_PROTEIN_IMPORT	0.877440667675101
BIOCARTA_PLATELETAPP_PATHWAY	0.877743532823277
BIOCARTA_LAIR_PATHWAY	0.877809062517805
BIOCARTA_MITOCHONDRIA_PATHWAY	0.877912459997541
BIOCARTA_IL17_PATHWAY	0.879246152902491
KEGG_STARCH_AND_SUCROSE_METABOLISM	0.879684629037125
REACTOME_TRANSLOCATION_OF_ZAP_70_TO_IMMUNOLOGICAL_SYNAPSE	0.879688235852428
REACTOME_APC_C_CDH1_MEDIATED_DEGRADATION_OF_CDC20_AND_OTHER_APC_C_CDH1_TARGETED_PROTEINS_IN_LATE_MITOSIS_EARLY_G1	0.879851622156235
REACTOME_HOMOLOGOUS_RECOMBINATION_REPAIR_OF_REPLICATION_INDEPENDENT_DOUBLE_STRAND_BREAKS	0.879924133643376
REACTOME_RESPIRATORY_ELECTRON_TRANSPORT_ATP_SYNTHESIS_BY_CHEMIOSMOTIC_COUPLING_AND_HEAT_PRODUCTION_BY_UNCOUPLING_PROTEINS_	0.880004599169226
REACTOME_THE_ROLE_OF_NEF_IN_HIV1_REPLICATION_AND_DISEASE_PATHOGENESIS	0.880340629992511
REACTOME_VITAMIN_B5_PANTOTHENATE_METABOLISM	0.881185264182152
KEGG_PROTEASOME	0.881530110858387
KEGG_PRIMARY_BILE_ACID_BIOSYNTHESIS	0.881548900845837
REACTOME_SIGNALING_BY_NOTCH4	0.881968818357039
PID_WNT_SIGNALING_PATHWAY	0.883132962639021
KEGG_CIRCADIAN_RHYTHM_MAMMAL	0.883269371478192
REACTOME_ACTIVATED_AMPK_STIMULATES_FATTY_ACID_OXIDATION_IN_MUSCLE	0.884106343251009
KEGG_PENTOSE_PHOSPHATE_PATHWAY	0.884120904688526
REACTOME_OPSINS	0.884231539312807
REACTOME_APC_C_CDC20_MEDIATED_DEGRADATION_OF_MITOTIC_PROTEINS	0.885540124631864
REACTOME_CHOLESTEROL_BIOSYNTHESIS	0.885875886213019
REACTOME_APC_C_CDC20_MEDIATED_DEGRADATION_OF_CYCLIN_B	0.886055703901657
REACTOME_ELONGATION_ARREST_AND_RECOVERY	0.886698138763882
REACTOME_AMYLOIDS	0.88725386046215
KEGG_PYRIMIDINE_METABOLISM	0.887273102959925
BIOCARTA_IL5_PATHWAY	0.887472115300853
REACTOME_INHIBITION_OF_THE_PROTEOLYTIC_ACTIVITY_OF_APC_C_REQUIRED_FOR_THE_ONSET_OF_ANAPHASE_BY_MITOTIC_SPINDLE_CHECKPOINT_COMPONENTS	0.887792736189256
REACTOME_P53_INDEPENDENT_G1_S_DNA_DAMAGE_CHECKPOINT	0.888057862906365
REACTOME_PROCESSIVE_SYNTHESIS_ON_THE_LAGGING_STRAND	0.888848830942812
REACTOME_DESTABILIZATION_OF_MRNA_BY_KSRP	0.889027974415686
BIOCARTA_SHH_PATHWAY	0.88948752721788
SA_FAS_SIGNALING	0.889503164257612
REACTOME_THE_NLRP3_INFLAMMASOME	0.889876710779562
BIOCARTA_IL3_PATHWAY	0.890149836881353
REACTOME_ASPARAGINE_N_LINKED_GLYCOSYLATION	0.890554314847408
REACTOME_REGULATION_OF_ORNITHINE_DECARBOXYLASE_ODC	0.891212014029262
REACTOME_BASE_FREE_SUGAR_PHOSPHATE_REMOVAL_VIA_THE_SINGLE_NUCLEOTIDE_REPLACEMENT_PATHWAY	0.891796198464966
PID_BMPPATHWAY	0.891834582100593
REACTOME_ABACAVIR_TRANSPORT_AND_METABOLISM	0.892500982399654
REACTOME_GABA_A_RECEPTOR_ACTIVATION	0.893191281765898
REACTOME_TAK1_ACTIVATES_NFKB_BY_PHOSPHORYLATION_AND_ACTIVATION_OF_IKKS_COMPLEX	0.894297651570839
REACTOME_CDK_MEDIATED_PHOSPHORYLATION_AND_REMOVAL_OF_CDC6	0.894548777007884
REACTOME_POST_TRANSLATIONAL_MODIFICATION_SYNTHESIS_OF_GPI_ANCHORED_PROTEINS	0.894793381506044
REACTOME_ANTIGEN_PROCESSING_CROSS_PRESENTATION	0.895120196429771
KEGG_ETHER_LIPID_METABOLISM	0.895295095724828
BIOCARTA_ETC_PATHWAY	0.896252518624395
BIOCARTA_GLYCOLYSIS_PATHWAY	0.896528758532724
REACTOME_IL1_SIGNALING	0.896885165645314
REACTOME_PHOSPHOLIPASE_C_MEDIATED_CASCADE	0.89698346417456
PID_IGF1_PATHWAY	0.897266713969383
BIOCARTA_ARENRF2_PATHWAY	0.897287191322861
REACTOME_ACTIVATION_OF_GENES_BY_ATF4	0.89746490600393
REACTOME_KERATAN_SULFATE_KERATIN_METABOLISM	0.898073554674449
REACTOME_MTORC1_MEDIATED_SIGNALLING	0.898128939885204
REACTOME_ORC1_REMOVAL_FROM_CHROMATIN	0.898261043046109
REACTOME_EARLY_PHASE_OF_HIV_LIFE_CYCLE	0.898628295676389
REACTOME_ACYL_CHAIN_REMODELLING_OF_PE	0.899178722212676
REACTOME_SIGNAL_ATTENUATION	0.899400831013021
PID_ATM_PATHWAY	0.900429773819168
REACTOME_HORMONE_SENSITIVE_LIPASE_HSL_MEDIATED_TRIACYLGLYCEROL_HYDROLYSIS	0.900568511534901
KEGG_METABOLISM_OF_XENOBIOTICS_BY_CYTOCHROME_P450	0.900723322196174
PID_SYNDECAN_4_PATHWAY	0.90089393063592
REACTOME_REGULATION_OF_IFNG_SIGNALING	0.901339807263402
PID_IL27PATHWAY	0.901452517578327
REACTOME_CROSS_PRESENTATION_OF_SOLUBLE_EXOGENOUS_ANTIGENS_ENDOSOMES	0.901736158683456
REACTOME_FORMATION_OF_RNA_POL_II_ELONGATION_COMPLEX_	0.902639285572021
REACTOME_GOLGI_ASSOCIATED_VESICLE_BIOGENESIS	0.903967346022892
REACTOME_APOPTOTIC_EXECUTION_PHASE	0.905183870733972
REACTOME_SRP_DEPENDENT_COTRANSLATIONAL_PROTEIN_TARGETING_TO_MEMBRANE	0.905219596934397
REACTOME_GLUCURONIDATION	0.905372206716394
REACTOME_PYRIMIDINE_METABOLISM	0.905816197076992
REACTOME_INTEGRIN_ALPHAIIB_BETA3_SIGNALING	0.906582422821875
REACTOME_REGULATION_OF_GENE_EXPRESSION_IN_BETA_CELLS	0.907223851199196
KEGG_GAP_JUNCTION	0.907703270738638
KEGG_TYROSINE_METABOLISM	0.90789148774666
BIOCARTA_ERYTH_PATHWAY	0.908254933502207
REACTOME_DEADENYLATION_OF_MRNA	0.909077480419294
REACTOME_RNA_POL_II_PRE_TRANSCRIPTION_EVENTS	0.909167146610347
REACTOME_DESTABILIZATION_OF_MRNA_BY_BRF1	0.910553252904314
REACTOME_RESPIRATORY_ELECTRON_TRANSPORT	0.910788833358181
KEGG_OLFACTORY_TRANSDUCTION	0.910940521866867
KEGG_RIG_I_LIKE_RECEPTOR_SIGNALING_PATHWAY	0.911874560353897
BIOCARTA_CCR3_PATHWAY	0.912406521041573
KEGG_PROPANOATE_METABOLISM	0.912860699062449
REACTOME_CLASS_I_MHC_MEDIATED_ANTIGEN_PROCESSING_PRESENTATION	0.912870973163824
KEGG_NUCLEOTIDE_EXCISION_REPAIR	0.913253109655746
REACTOME_COPI_MEDIATED_TRANSPORT	0.914477877419727
REACTOME_SIGNALING_BY_NOTCH2	0.914595875705004
REACTOME_EXTRACELLULAR_MATRIX_ORGANIZATION	0.914976496952113
KEGG_GLYCOSPHINGOLIPID_BIOSYNTHESIS_GANGLIO_SERIES	0.915058399498192
BIOCARTA_41BB_PATHWAY	0.915465289188226
KEGG_GLYOXYLATE_AND_DICARBOXYLATE_METABOLISM	0.91662659708738
REACTOME_CASPASE_MEDIATED_CLEAVAGE_OF_CYTOSKELETAL_PROTEINS	0.916643989615623
KEGG_NICOTINATE_AND_NICOTINAMIDE_METABOLISM	0.91707170213986
KEGG_GRAFT_VERSUS_HOST_DISEASE	0.9170745281761
BIOCARTA_ETS_PATHWAY	0.917192558893228
REACTOME_VIF_MEDIATED_DEGRADATION_OF_APOBEC3G	0.918004550644823
KEGG_SPLICEOSOME	0.918356277092405
REACTOME_NRIF_SIGNALS_CELL_DEATH_FROM_THE_NUCLEUS	0.918431965242108
REACTOME_P75NTR_RECRUITS_SIGNALLING_COMPLEXES	0.919310369535638
REACTOME_MRNA_SPLICING	0.919732675523287
REACTOME_REPAIR_SYNTHESIS_FOR_GAP_FILLING_BY_DNA_POL_IN_TC_NER	0.921043918700822
REACTOME_METABOLISM_OF_MRNA	0.921200453814111
REACTOME_FORMATION_OF_INCISION_COMPLEX_IN_GG_NER	0.922356068279912
KEGG_ANTIGEN_PROCESSING_AND_PRESENTATION	0.92275180906979
REACTOME_KERATAN_SULFATE_DEGRADATION	0.924781142398005
PID_HIVNEFPATHWAY	0.924985073286163
REACTOME_DESTABILIZATION_OF_MRNA_BY_TRISTETRAPROLIN_TTP	0.925042638139934
KEGG_GLYCOLYSIS_GLUCONEOGENESIS	0.925464385799828
REACTOME_CITRIC_ACID_CYCLE_TCA_CYCLE	0.925466641314807
REACTOME_GLUTATHIONE_CONJUGATION	0.925969074083873
REACTOME_COMPLEMENT_CASCADE	0.92609712924557
REACTOME_XENOBIOTICS	0.926347454016752
REACTOME_LIGAND_GATED_ION_CHANNEL_TRANSPORT	0.926418126932608
BIOCARTA_AKAP95_PATHWAY	0.926449012476623
REACTOME_VEGF_LIGAND_RECEPTOR_INTERACTIONS	0.926858449876486
REACTOME_REGULATION_OF_MITOTIC_CELL_CYCLE	0.927505762156669
REACTOME_PASSIVE_TRANSPORT_BY_AQUAPORINS	0.927728881766841
REACTOME_RETROGRADE_NEUROTROPHIN_SIGNALLING	0.927777736826842
REACTOME_INTERFERON_ALPHA_BETA_SIGNALING	0.928143283218882
REACTOME_THE_ACTIVATION_OF_ARYLSULFATASES	0.928395819586244
BIOCARTA_ACE2_PATHWAY	0.928566413773854
REACTOME_SYNTHESIS_OF_PIPS_AT_THE_GOLGI_MEMBRANE	0.928840974561022
REACTOME_NOTCH_HLH_TRANSCRIPTION_PATHWAY	0.92925026932468
REACTOME_MRNA_CAPPING	0.930795535373511
REACTOME_REGULATION_OF_IFNA_SIGNALING	0.931113586341064
REACTOME_RIP_MEDIATED_NFKB_ACTIVATION_VIA_DAI	0.93207692613907
REACTOME_CONVERSION_FROM_APC_C_CDC20_TO_APC_C_CDH1_IN_LATE_ANAPHASE	0.93224630579664
KEGG_CYSTEINE_AND_METHIONINE_METABOLISM	0.932584983441641
BIOCARTA_KREB_PATHWAY	0.933203075142538
REACTOME_CS_DS_DEGRADATION	0.933370490793913
BIOCARTA_AKAPCENTROSOME_PATHWAY	0.934040541886961
REACTOME_TRANSCRIPTION	0.935176813341388
REACTOME_ASSEMBLY_OF_THE_PRE_REPLICATIVE_COMPLEX	0.935256690163807
BIOCARTA_DNAFRAGMENT_PATHWAY	0.935640460187149
BIOCARTA_TCRA_PATHWAY	0.935806264285027
REACTOME_PROCESSING_OF_CAPPED_INTRON_CONTAINING_PRE_MRNA	0.936048665424661
REACTOME_PRE_NOTCH_EXPRESSION_AND_PROCESSING	0.936166084996123
KEGG_VALINE_LEUCINE_AND_ISOLEUCINE_BIOSYNTHESIS	0.936361757204855
REACTOME_PRESYNAPTIC_NICOTINIC_ACETYLCHOLINE_RECEPTORS	0.937129712629521
REACTOME_DESTABILIZATION_OF_MRNA_BY_AUF1_HNRNP_D0	0.937297837460482
KEGG_ASCORBATE_AND_ALDARATE_METABOLISM	0.937452190068711
BIOCARTA_STATHMIN_PATHWAY	0.937576898116973
REACTOME_MRNA_PROCESSING	0.937723450869736
REACTOME_MRNA_DECAY_BY_5_TO_3_EXORIBONUCLEASE	0.937897829109437
BIOCARTA_SALMONELLA_PATHWAY	0.938066283816044
BIOCARTA_COMP_PATHWAY	0.938500494982399
REACTOME_CHEMOKINE_RECEPTORS_BIND_CHEMOKINES	0.938887788063335
REACTOME_ENDOGENOUS_STEROLS	0.939045036746407
REACTOME_INTERFERON_SIGNALING	0.939538845430299
BIOCARTA_SET_PATHWAY	0.940097624217334
BIOCARTA_KERATINOCYTE_PATHWAY	0.94036516588219
REACTOME_FORMATION_OF_TRANSCRIPTION_COUPLED_NER_TC_NER_REPAIR_COMPLEX	0.940425587874556
REACTOME_TCA_CYCLE_AND_RESPIRATORY_ELECTRON_TRANSPORT	0.940474820399699
REACTOME_PD1_SIGNALING	0.941065813455443
BIOCARTA_TCAPOPTOSIS_PATHWAY	0.941791633623379
REACTOME_CREATION_OF_C4_AND_C2_ACTIVATORS	0.942874972950869
BIOCARTA_NFKB_PATHWAY	0.943120605457048
REACTOME_ER_PHAGOSOME_PATHWAY	0.944108186738969
KEGG_STEROID_HORMONE_BIOSYNTHESIS	0.944303066464444
BIOCARTA_IL4_PATHWAY	0.944554743080141
REACTOME_GLOBAL_GENOMIC_NER_GG_NER	0.944683914733077
REACTOME_BINDING_AND_ENTRY_OF_HIV_VIRION	0.944749194899335
REACTOME_PROLACTIN_RECEPTOR_SIGNALING	0.946130147052236
REACTOME_SEROTONIN_RECEPTORS	0.946773653728072
KEGG_COMPLEMENT_AND_COAGULATION_CASCADES	0.947071470063505
BIOCARTA_AMI_PATHWAY	0.947250259150433
BIOCARTA_IL1R_PATHWAY	0.94739787318602
REACTOME_RNA_POL_II_TRANSCRIPTION	0.947531844414531
KEGG_OTHER_GLYCAN_DEGRADATION	0.948508288632335
REACTOME_BETA_DEFENSINS	0.948546348839598
KEGG_CITRATE_CYCLE_TCA_CYCLE	0.948678789228872
REACTOME_PYRIMIDINE_CATABOLISM	0.948881852411269
REACTOME_HIGHLY_CALCIUM_PERMEABLE_POSTSYNAPTIC_NICOTINIC_ACETYLCHOLINE_RECEPTORS	0.949279878777145
REACTOME_REVERSIBLE_HYDRATION_OF_CARBON_DIOXIDE	0.94943759633206
REACTOME_SIGNALING_BY_NODAL	0.951377103362897
KEGG_MATURITY_ONSET_DIABETES_OF_THE_YOUNG	0.951491675484417
REACTOME_GAP_JUNCTION_ASSEMBLY	0.952087241864709
KEGG_RNA_DEGRADATION	0.952322201347462
BIOCARTA_RARRXR_PATHWAY	0.953037785751666
REACTOME_HIV_INFECTION	0.953533557220368
REACTOME_ACETYLCHOLINE_BINDING_AND_DOWNSTREAM_EVENTS	0.953950450119117
REACTOME_CGMP_EFFECTS	0.954623637784268
BIOCARTA_MPR_PATHWAY	0.955198581966246
KEGG_HOMOLOGOUS_RECOMBINATION	0.955449413388807
BIOCARTA_IL10_PATHWAY	0.955791201379518
BIOCARTA_CSK_PATHWAY	0.955844064076478
BIOCARTA_HSP27_PATHWAY	0.956167827288133
REACTOME_TRANSCRIPTION_COUPLED_NER_TC_NER	0.956286332239992
KEGG_RETINOL_METABOLISM	0.956758083776562
REACTOME_AUTODEGRADATION_OF_CDH1_BY_CDH1_APC_C	0.957147156119165
REACTOME_METABOLISM_OF_PROTEINS	0.957173551735211
PID_VEGF_VEGFR_PATHWAY	0.95760480155148
REACTOME_PURINE_SALVAGE	0.957987097307186
REACTOME_G2_M_CHECKPOINTS	0.958811638156908
REACTOME_RIG_I_MDA5_MEDIATED_INDUCTION_OF_IFN_ALPHA_BETA_PATHWAYS	0.959143304567717
REACTOME_PHOSPHORYLATION_OF_CD3_AND_TCR_ZETA_CHAINS	0.959534243847451
REACTOME_P75NTR_SIGNALS_VIA_NFKB	0.959689125047354
REACTOME_FORMATION_OF_FIBRIN_CLOT_CLOTTING_CASCADE	0.959967025384719
REACTOME_PHOSPHORYLATION_OF_THE_APC_C	0.960168976045781
REACTOME_INTRINSIC_PATHWAY	0.960674594775984
REACTOME_UNWINDING_OF_DNA	0.960759413840447
KEGG_DILATED_CARDIOMYOPATHY	0.961469021313509
KEGG_PORPHYRIN_AND_CHLOROPHYLL_METABOLISM	0.962274287696949
KEGG_BUTANOATE_METABOLISM	0.965334479746897
REACTOME_TRAF6_MEDIATED_NFKB_ACTIVATION	0.965570835984696
REACTOME_SLBP_DEPENDENT_PROCESSING_OF_REPLICATION_DEPENDENT_HISTONE_PRE_MRNAS	0.965693562439547
BIOCARTA_CARDIACEGF_PATHWAY	0.96714646710591
REACTOME_NUCLEOTIDE_EXCISION_REPAIR	0.967683777860307
REACTOME_REGULATION_OF_PYRUVATE_DEHYDROGENASE_PDH_COMPLEX	0.967711042175576
REACTOME_NEGATIVE_REGULATORS_OF_RIG_I_MDA5_SIGNALING	0.968216904495974
REACTOME_GLUCONEOGENESIS	0.968558466223898
REACTOME_ANTIGEN_PROCESSING_UBIQUITINATION_PROTEASOME_DEGRADATION	0.968866014686827
KEGG_ALANINE_ASPARTATE_AND_GLUTAMATE_METABOLISM	0.969586140420931
REACTOME_ENERGY_DEPENDENT_REGULATION_OF_MTOR_BY_LKB1_AMPK	0.969723727332865
REACTOME_POST_CHAPERONIN_TUBULIN_FOLDING_PATHWAY	0.97032391142459
REACTOME_FORMATION_OF_THE_TERNARY_COMPLEX_AND_SUBSEQUENTLY_THE_43S_COMPLEX	0.970415524960376
REACTOME_PYRUVATE_METABOLISM	0.970577664315904
REACTOME_CELL_EXTRACELLULAR_MATRIX_INTERACTIONS	0.97135801606188
KEGG_LINOLEIC_ACID_METABOLISM	0.971360182412418
REACTOME_REGULATION_OF_MRNA_STABILITY_BY_PROTEINS_THAT_BIND_AU_RICH_ELEMENTS	0.972063350174414
REACTOME_PRE_NOTCH_PROCESSING_IN_GOLGI	0.972305700820865
REACTOME_ACTIVATION_OF_ATR_IN_RESPONSE_TO_REPLICATION_STRESS	0.972311619074356
REACTOME_GLYCOSPHINGOLIPID_METABOLISM	0.972628489785309
PID_ALK1PATHWAY	0.972686098179183
PID_LIS1PATHWAY	0.972763757628821
BIOCARTA_ACTINY_PATHWAY	0.972823945930982
KEGG_PROTEIN_EXPORT	0.972858185514255
REACTOME_3_UTR_MEDIATED_TRANSLATIONAL_REGULATION	0.973010842894683
REACTOME_OLFACTORY_SIGNALING_PATHWAY	0.973228264920947
BIOCARTA_NO1_PATHWAY	0.97351726561819
REACTOME_ACTIVATION_OF_THE_MRNA_UPON_BINDING_OF_THE_CAP_BINDING_COMPLEX_AND_EIFS_AND_SUBSEQUENT_BINDING_TO_43S	0.973960207562768
REACTOME_COMMON_PATHWAY	0.975184810355095
REACTOME_INSULIN_SYNTHESIS_AND_PROCESSING	0.975263129136807
KEGG_PENTOSE_AND_GLUCURONATE_INTERCONVERSIONS	0.975287769922072
REACTOME_CHROMOSOME_MAINTENANCE	0.975306885430955
BIOCARTA_AKAP13_PATHWAY	0.976607362336956
REACTOME_PURINE_RIBONUCLEOSIDE_MONOPHOSPHATE_BIOSYNTHESIS	0.977095368063338
REACTOME_HYALURONAN_METABOLISM	0.977214181139237
REACTOME_METABOLISM_OF_PORPHYRINS	0.97754259829659
BIOCARTA_D4GDI_PATHWAY	0.978458886905631
REACTOME_REGULATION_OF_AMPK_ACTIVITY_VIA_LKB1	0.978919163346989
BIOCARTA_LEPTIN_PATHWAY	0.979829951589765
PID_NFKAPPABCANONICALPATHWAY	0.980193706559069
REACTOME_DEFENSINS	0.980304648779027
KEGG_ONE_CARBON_POOL_BY_FOLATE	0.980914481911399
KEGG_DNA_REPLICATION	0.980995364211817
BIOCARTA_RELA_PATHWAY	0.982074964669118
KEGG_REGULATION_OF_AUTOPHAGY	0.982135794083243
REACTOME_SYNTHESIS_OF_PA	0.983221360901203
REACTOME_PLATELET_ADHESION_TO_EXPOSED_COLLAGEN	0.98373243396722
REACTOME_MRNA_DECAY_BY_3_TO_5_EXORIBONUCLEASE	0.984340900742027
BIOCARTA_AGPCR_PATHWAY	0.984341154639319
REACTOME_TELOMERE_MAINTENANCE	0.985060761089465
BIOCARTA_RANKL_PATHWAY	0.985136128054513
REACTOME_BASE_EXCISION_REPAIR	0.985296334292425
REACTOME_RESOLUTION_OF_AP_SITES_VIA_THE_MULTIPLE_NUCLEOTIDE_PATCH_REPLACEMENT_PATHWAY	0.985875336436477
REACTOME_RNA_POL_I_TRANSCRIPTION	0.986436735726021
REACTOME_PERK_REGULATED_GENE_EXPRESSION	0.986451428278736
BIOCARTA_CD40_PATHWAY	0.986496950639819
REACTOME_DEGRADATION_OF_THE_EXTRACELLULAR_MATRIX	0.986650586909271
BIOCARTA_EXTRINSIC_PATHWAY	0.986798492069231
REACTOME_PYRUVATE_METABOLISM_AND_CITRIC_ACID_TCA_CYCLE	0.987035193136035
REACTOME_RECYCLING_OF_BILE_ACIDS_AND_SALTS	0.987085286413289
BIOCARTA_PLCE_PATHWAY	0.987443308872953
REACTOME_CALNEXIN_CALRETICULIN_CYCLE	0.987827666483497
KEGG_ADIPOCYTOKINE_SIGNALING_PATHWAY	0.987851425015942
REACTOME_FORMATION_OF_TUBULIN_FOLDING_INTERMEDIATES_BY_CCT_TRIC	0.987883940616739
REACTOME_APOPTOSIS_INDUCED_DNA_FRAGMENTATION	0.988278892352639
REACTOME_N_GLYCAN_TRIMMING_IN_THE_ER_AND_CALNEXIN_CALRETICULIN_CYCLE	0.98877130795152
REACTOME_PEPTIDE_CHAIN_ELONGATION	0.988960251157906
REACTOME_ACYL_CHAIN_REMODELLING_OF_PI	0.989256110301037
REACTOME_INFLUENZA_VIRAL_RNA_TRANSCRIPTION_AND_REPLICATION	0.989528408190943
REACTOME_NFKB_ACTIVATION_THROUGH_FADD_RIP1_PATHWAY_MEDIATED_BY_CASPASE_8_AND10	0.989604904829
REACTOME_PURINE_METABOLISM	0.989992909153651
REACTOME_RESOLUTION_OF_AP_SITES_VIA_THE_SINGLE_NUCLEOTIDE_REPLACEMENT_PATHWAY	0.990406499947272
REACTOME_TRAF6_MEDIATED_IRF7_ACTIVATION	0.990488086309122
SA_MMP_CYTOKINE_CONNECTION	0.990873380976629
KEGG_TERPENOID_BACKBONE_BIOSYNTHESIS	0.990945514907659
BIOCARTA_CFTR_PATHWAY	0.991280758247118
REACTOME_CLEAVAGE_OF_GROWING_TRANSCRIPT_IN_THE_TERMINATION_REGION_	0.991447292588386
REACTOME_PKB_MEDIATED_EVENTS	0.992310835376961
KEGG_GALACTOSE_METABOLISM	0.992371803545662
BIOCARTA_HIF_PATHWAY	0.992429781701489
REACTOME_DEPOSITION_OF_NEW_CENPA_CONTAINING_NUCLEOSOMES_AT_THE_CENTROMERE	0.992633236579521
KEGG_NON_HOMOLOGOUS_END_JOINING	0.99300430307123
KEGG_TASTE_TRANSDUCTION	0.993082366642521
REACTOME_ACYL_CHAIN_REMODELLING_OF_PS	0.993103400711417
BIOCARTA_CACAM_PATHWAY	0.993440678569254
BIOCARTA_TNFR2_PATHWAY	0.993561794859834
REACTOME_FACILITATIVE_NA_INDEPENDENT_GLUCOSE_TRANSPORTERS	0.99361094627719
PID_INTEGRIN2_PATHWAY	0.993758218082238
KEGG_CYTOSOLIC_DNA_SENSING_PATHWAY	0.993906078437152
REACTOME_ANTIGEN_PRESENTATION_FOLDING_ASSEMBLY_AND_PEPTIDE_LOADING_OF_CLASS_I_MHC	0.994025992149133
REACTOME_DNA_REPAIR	0.994880339697286
REACTOME_REGULATION_OF_BETA_CELL_DEVELOPMENT	0.994951980397534
KEGG_BASE_EXCISION_REPAIR	0.995326561591496
REACTOME_ACYL_CHAIN_REMODELLING_OF_PG	0.995405945879709
BIOCARTA_GATA3_PATHWAY	0.995441955753665
KEGG_RIBOSOME	0.996548271863267
KEGG_HYPERTROPHIC_CARDIOMYOPATHY_HCM	0.997472027821173
REACTOME_INFLUENZA_LIFE_CYCLE	0.99784058701949
REACTOME_ORGANIC_CATION_ANION_ZWITTERION_TRANSPORT	0.997870412270527
REACTOME_MEIOTIC_SYNAPSIS	0.998348939487646
REACTOME_RNA_POL_I_PROMOTER_OPENING	0.999516296935222
REACTOME_PACKAGING_OF_TELOMERE_ENDS	0.999590054683668
