Gene Set	AUC
REACTOME_CLASS_A1_RHODOPSIN_LIKE_RECEPTORS	0.99781221
KEGG_CYTOKINE_CYTOKINE_RECEPTOR_INTERACTION	0.99761088
KEGG_PATHWAYS_IN_CANCER	0.99759808
REACTOME_PEPTIDE_LIGAND_BINDING_RECEPTORS	0.99756317
KEGG_MAPK_SIGNALING_PATHWAY	0.99745494
KEGG_JAK_STAT_SIGNALING_PATHWAY	0.99742585
REACTOME_GPCR_LIGAND_BINDING	0.99742003
REACTOME_IMMUNE_SYSTEM	0.99736417
REACTOME_METABOLISM_OF_LIPIDS_AND_LIPOPROTEINS	0.99727224
REACTOME_BIOLOGICAL_OXIDATIONS	0.99716983
REACTOME_CYTOKINE_SIGNALING_IN_IMMUNE_SYSTEM	0.99713958
REACTOME_TRANSMEMBRANE_TRANSPORT_OF_SMALL_MOLECULES	0.99704415
REACTOME_SIGNALING_BY_GPCR	0.99698364
REACTOME_GPCR_DOWNSTREAM_SIGNALING	0.99697549
REACTOME_ADAPTIVE_IMMUNE_SYSTEM	0.99696036
KEGG_NEUROACTIVE_LIGAND_RECEPTOR_INTERACTION	0.99675555
REACTOME_G_ALPHA_I_SIGNALLING_EVENTS	0.99674857
REACTOME_GASTRIN_CREB_SIGNALLING_PATHWAY_VIA_PKC_AND_MAPK	0.99646927
REACTOME_HEMOSTASIS	0.99626213
REACTOME_SLC_MEDIATED_TRANSMEMBRANE_TRANSPORT	0.99615972
REACTOME_DEVELOPMENTAL_BIOLOGY	0.99588508
REACTOME_INNATE_IMMUNE_SYSTEM	0.99588159
KEGG_FOCAL_ADHESION	0.99585017
KEGG_CELL_ADHESION_MOLECULES_CAMS	0.99550397
REACTOME_NEURONAL_SYSTEM	0.99544054
REACTOME_G_ALPHA_Q_SIGNALLING_EVENTS	0.99523107
PID_IL4_2PATHWAY	0.99522816
KEGG_REGULATION_OF_ACTIN_CYTOSKELETON	0.99518453
REACTOME_PHASE1_FUNCTIONALIZATION_OF_COMPOUNDS	0.99511703
KEGG_CHEMOKINE_SIGNALING_PATHWAY	0.99504022
KEGG_NATURAL_KILLER_CELL_MEDIATED_CYTOTOXICITY	0.994996
REACTOME_SIGNALING_BY_ILS	0.99491803
REACTOME_METABOLISM_OF_AMINO_ACIDS_AND_DERIVATIVES	0.99491571
REACTOME_CLASS_I_MHC_MEDIATED_ANTIGEN_PROCESSING_PRESENTATION	0.99487265
KEGG_LEISHMANIA_INFECTION	0.99486101
REACTOME_CELL_CYCLE	0.99484763
REACTOME_METABOLISM_OF_PROTEINS	0.99478537
KEGG_DILATED_CARDIOMYOPATHY	0.9947749
REACTOME_POTASSIUM_CHANNELS	0.99476675
KEGG_HEMATOPOIETIC_CELL_LINEAGE	0.99471089
KEGG_CALCIUM_SIGNALING_PATHWAY	0.99467598
KEGG_LEUKOCYTE_TRANSENDOTHELIAL_MIGRATION	0.9946562
REACTOME_GENERIC_TRANSCRIPTION_PATHWAY	0.99464223
REACTOME_AXON_GUIDANCE	0.99464107
KEGG_AXON_GUIDANCE	0.99462012
REACTOME_TRANSMISSION_ACROSS_CHEMICAL_SYNAPSES	0.99451539
KEGG_PPAR_SIGNALING_PATHWAY	0.99438272
REACTOME_APOPTOSIS	0.99435479
REACTOME_PHOSPHOLIPID_METABOLISM	0.99434199
REACTOME_CELL_CELL_COMMUNICATION	0.99430592
KEGG_T_CELL_RECEPTOR_SIGNALING_PATHWAY	0.99428613
REACTOME_G_ALPHA_S_SIGNALLING_EVENTS	0.99426286
REACTOME_NEUROTRANSMITTER_RECEPTOR_BINDING_AND_DOWNSTREAM_TRANSMISSION_IN_THE_POSTSYNAPTIC_CELL	0.99424773
REACTOME_FATTY_ACID_TRIACYLGLYCEROL_AND_KETONE_BODY_METABOLISM	0.99423842
WNT_SIGNALING	0.99422911
REACTOME_ANTIGEN_PROCESSING_UBIQUITINATION_PROTEASOME_DEGRADATION	0.99421515
PID_P73PATHWAY	0.99418256
KEGG_HYPERTROPHIC_CARDIOMYOPATHY_HCM	0.99405281
KEGG_DRUG_METABOLISM_CYTOCHROME_P450	0.99404757
REACTOME_SIGNALLING_BY_NGF	0.99401033
REACTOME_PLATELET_ACTIVATION_SIGNALING_AND_AGGREGATION	0.99396611
PID_P53DOWNSTREAMPATHWAY	0.99395564
REACTOME_TOLL_RECEPTOR_CASCADES	0.99385265
REACTOME_METABOLISM_OF_CARBOHYDRATES	0.99377177
KEGG_COMPLEMENT_AND_COAGULATION_CASCADES	0.99370078
KEGG_PURINE_METABOLISM	0.99367053
KEGG_WNT_SIGNALING_PATHWAY	0.99363678
REACTOME_POST_TRANSLATIONAL_PROTEIN_MODIFICATION	0.99359256
REACTOME_TRANSPORT_OF_INORGANIC_CATIONS_ANIONS_AND_AMINO_ACIDS_OLIGOPEPTIDES	0.9935815
KEGG_B_CELL_RECEPTOR_SIGNALING_PATHWAY	0.99350528
REACTOME_CELL_CYCLE_MITOTIC	0.99341974
KEGG_NEUROTROPHIN_SIGNALING_PATHWAY	0.99335632
PID_A6B1_A6B4_INTEGRIN_PATHWAY	0.99334468
REACTOME_SIGNALING_BY_ERBB4	0.9932609
REACTOME_CELL_JUNCTION_ORGANIZATION	0.9932574
KEGG_LONG_TERM_POTENTIATION	0.99320387
PID_RB_1PATHWAY	0.99311892
REACTOME_TRANSPORT_OF_GLUCOSE_AND_OTHER_SUGARS_BILE_SALTS_AND_ORGANIC_ACIDS_METAL_IONS_AND_AMINE_COMPOUNDS	0.99309565
PID_SMAD2_3NUCLEARPATHWAY	0.99298975
KEGG_INTESTINAL_IMMUNE_NETWORK_FOR_IGA_PRODUCTION	0.99290596
KEGG_CELL_CYCLE	0.99289374
PID_PDGFRBPATHWAY	0.99273489
PID_REG_GR_PATHWAY	0.99273257
REACTOME_ACTIVATED_TLR4_SIGNALLING	0.99272209
PID_CXCR4_PATHWAY	0.99272093
PID_ATF2_PATHWAY	0.99257896
PID_CMYB_PATHWAY	0.99256499
REACTOME_IMMUNOREGULATORY_INTERACTIONS_BETWEEN_A_LYMPHOID_AND_A_NON_LYMPHOID_CELL	0.99253124
REACTOME_PHASE_II_CONJUGATION	0.99250331
KEGG_PROSTATE_CANCER	0.99249226
REACTOME_INTEGRIN_CELL_SURFACE_INTERACTIONS	0.99249168
PID_BETACATENIN_NUC_PATHWAY	0.99246026
KEGG_METABOLISM_OF_XENOBIOTICS_BY_CYTOCHROME_P450	0.99242534
REACTOME_CELL_SURFACE_INTERACTIONS_AT_THE_VASCULAR_WALL	0.99239742
KEGG_VIRAL_MYOCARDITIS	0.99233283
KEGG_TOLL_LIKE_RECEPTOR_SIGNALING_PATHWAY	0.99232177
KEGG_ENDOCYTOSIS	0.99229734
KEGG_OOCYTE_MEIOSIS	0.99228337
PID_INTEGRIN1_PATHWAY	0.99222053
BIOCARTA_PPARA_PATHWAY	0.99214489
REACTOME_PPARA_ACTIVATES_GENE_EXPRESSION	0.99211812
REACTOME_GLYCOSAMINOGLYCAN_METABOLISM	0.99201513
REACTOME_SIGNALING_BY_THE_B_CELL_RECEPTOR_BCR	0.99195287
KEGG_VASCULAR_SMOOTH_MUSCLE_CONTRACTION	0.99194356
KEGG_TYROSINE_METABOLISM	0.99192902
KEGG_SMALL_CELL_LUNG_CANCER	0.99188072
PID_MYC_REPRESSPATHWAY	0.9918493
REACTOME_IL_3_5_AND_GM_CSF_SIGNALING	0.9918493
KEGG_TGF_BETA_SIGNALING_PATHWAY	0.99183301
KEGG_PANCREATIC_CANCER	0.99177017
KEGG_BLADDER_CANCER	0.99175504
REACTOME_SIGNALING_BY_RHO_GTPASES	0.99172478
KEGG_ECM_RECEPTOR_INTERACTION	0.99153161
KEGG_ARRHYTHMOGENIC_RIGHT_VENTRICULAR_CARDIOMYOPATHY_ARVC	0.99151066
REACTOME_FORMATION_OF_FIBRIN_CLOT_CLOTTING_CASCADE	0.99150368
PID_PTP1BPATHWAY	0.99149204
REACTOME_L1CAM_INTERACTIONS	0.99147982
REACTOME_INTERFERON_SIGNALING	0.99143036
PID_CD8TCRDOWNSTREAMPATHWAY	0.99139662
REACTOME_DIABETES_PATHWAYS	0.99137916
SIG_PIP3_SIGNALING_IN_B_LYMPHOCYTES	0.9913745
REACTOME_CELL_CELL_JUNCTION_ORGANIZATION	0.99135705
REACTOME_HIV_INFECTION	0.99131399
REACTOME_APOPTOTIC_EXECUTION_PHASE	0.99128257
REACTOME_MYD88_MAL_CASCADE_INITIATED_ON_PLASMA_MEMBRANE	0.99128024
KEGG_MELANOMA	0.99126628
REACTOME_FACTORS_INVOLVED_IN_MEGAKARYOCYTE_DEVELOPMENT_AND_PLATELET_PRODUCTION	0.99124999
REACTOME_SIGNALING_BY_SCF_KIT	0.99123253
PID_IL23PATHWAY	0.99122089
PID_AP1_PATHWAY	0.99114351
PID_PI3KPLCTRKPATHWAY	0.99113711
KEGG_P53_SIGNALING_PATHWAY	0.99105215
PID_AJDISS_2PATHWAY	0.99101142
PID_HIF1_TFPATHWAY	0.99093345
PID_KITPATHWAY	0.99092996
REACTOME_SIGNALING_BY_PDGF	0.99070537
PID_BCR_5PATHWAY	0.99067976
REACTOME_G_ALPHA1213_SIGNALLING_EVENTS	0.99061343
KEGG_SYSTEMIC_LUPUS_ERYTHEMATOSUS	0.99054128
REACTOME_SIGNALING_BY_FGFR_IN_DISEASE	0.99042025
KEGG_TIGHT_JUNCTION	0.9903772
REACTOME_EXTRACELLULAR_MATRIX_ORGANIZATION	0.99037487
PID_AMB2_NEUTROPHILS_PATHWAY	0.99034229
REACTOME_MITOTIC_G1_G1_S_PHASES	0.99031261
REACTOME_P75_NTR_RECEPTOR_MEDIATED_SIGNALLING	0.99026548
KEGG_APOPTOSIS	0.99023406
REACTOME_NGF_SIGNALLING_VIA_TRKA_FROM_THE_PLASMA_MEMBRANE	0.99019217
REACTOME_MEMBRANE_TRAFFICKING	0.99018751
PID_TCR_PATHWAY	0.99018053
KEGG_ARACHIDONIC_ACID_METABOLISM	0.9901782
PID_PS1PATHWAY	0.99013514
PID_NFAT_TFPATHWAY	0.99012409
KEGG_INSULIN_SIGNALING_PATHWAY	0.99011769
PID_LYSOPHOSPHOLIPID_PATHWAY	0.9901142
PID_FRA_PATHWAY	0.99009907
KEGG_LYSOSOME	0.99006183
KEGG_GLYCEROLIPID_METABOLISM	0.99005019
REACTOME_MEIOSIS	0.99005019
KEGG_LONG_TERM_DEPRESSION	0.99004903
KEGG_PHOSPHATIDYLINOSITOL_SIGNALING_SYSTEM	0.99003506
PID_IL2_1PATHWAY	0.98999782
REACTOME_SIGNALING_BY_TGF_BETA_RECEPTOR_COMPLEX	0.98990938
REACTOME_ION_CHANNEL_TRANSPORT	0.98990531
REACTOME_CYTOCHROME_P450_ARRANGED_BY_SUBSTRATE_TYPE	0.98990065
REACTOME_IL_2_SIGNALING	0.98988378
KEGG_CHRONIC_MYELOID_LEUKEMIA	0.98981745
PID_FOXM1PATHWAY	0.98981163
KEGG_GLYCOLYSIS_GLUCONEOGENESIS	0.9898093
KEGG_FC_EPSILON_RI_SIGNALING_PATHWAY	0.98974646
PID_GMCSF_PATHWAY	0.98970224
KEGG_PROGESTERONE_MEDIATED_OOCYTE_MATURATION	0.9896906
KEGG_NON_SMALL_CELL_LUNG_CANCER	0.98967606
REACTOME_INWARDLY_RECTIFYING_K_CHANNELS	0.98965104
PID_AR_PATHWAY	0.98961729
REACTOME_LIPID_DIGESTION_MOBILIZATION_AND_TRANSPORT	0.98955154
PID_ERA_GENOMIC_PATHWAY	0.98953874
KEGG_FC_GAMMA_R_MEDIATED_PHAGOCYTOSIS	0.98950557
KEGG_ALZHEIMERS_DISEASE	0.9894532
PID_AVB3_INTEGRIN_PATHWAY	0.98941829
KEGG_ADIPOCYTOKINE_SIGNALING_PATHWAY	0.98936825
KEGG_GNRH_SIGNALING_PATHWAY	0.98936243
PID_HIF2PATHWAY	0.98930541
REACTOME_CLASS_B_2_SECRETIN_FAMILY_RECEPTORS	0.9892705
KEGG_MELANOGENESIS	0.98926584
PID_TCPTP_PATHWAY	0.98921988
REACTOME_PLATELET_HOMEOSTASIS	0.98919253
KEGG_RETINOL_METABOLISM	0.98917973
REACTOME_SIGNALING_BY_INSULIN_RECEPTOR	0.98917856
KEGG_GLIOMA	0.98917158
REACTOME_VOLTAGE_GATED_POTASSIUM_CHANNELS	0.98915296
REACTOME_DOWNSTREAM_SIGNALING_OF_ACTIVATED_FGFR	0.98912969
REACTOME_INSULIN_RECEPTOR_SIGNALLING_CASCADE	0.98911805
PID_VEGFR1_2_PATHWAY	0.98911223
REACTOME_ION_TRANSPORT_BY_P_TYPE_ATPASES	0.98910176
PID_ANGIOPOIETINRECEPTOR_PATHWAY	0.98906452
REACTOME_SEMAPHORIN_INTERACTIONS	0.98905696
REACTOME_GABA_RECEPTOR_ACTIVATION	0.98905521
PID_IL12_2PATHWAY	0.9889144
REACTOME_SIGNALING_BY_FGFR	0.98887949
REACTOME_AQUAPORIN_MEDIATED_TRANSPORT	0.9888504
SIG_PIP3_SIGNALING_IN_CARDIAC_MYOCTES	0.98882712
BIOCARTA_MAPK_PATHWAY	0.98874624
PID_TRKRPATHWAY	0.98870028
REACTOME_HOST_INTERACTIONS_OF_HIV_FACTORS	0.98869562
REACTOME_SIGNALING_BY_NOTCH	0.98867584
REACTOME_CHEMOKINE_RECEPTORS_BIND_CHEMOKINES	0.98865373
REACTOME_AMYLOIDS	0.98863743
REACTOME_INTEGRATION_OF_ENERGY_METABOLISM	0.98863045
PID_FCER1PATHWAY	0.98860951
KEGG_ALDOSTERONE_REGULATED_SODIUM_REABSORPTION	0.98857052
KEGG_GAP_JUNCTION	0.98849837
REACTOME_TRANSCRIPTIONAL_REGULATION_OF_WHITE_ADIPOCYTE_DIFFERENTIATION	0.98847917
REACTOME_PI3K_CASCADE	0.98847859
PID_SHP2_PATHWAY	0.98841982
KEGG_COLORECTAL_CANCER	0.98838491
KEGG_ENDOMETRIAL_CANCER	0.98836454
PID_TAP63PATHWAY	0.98834825
PID_INTEGRIN2_PATHWAY	0.98833487
REACTOME_PI_3K_CASCADE	0.98827785
REACTOME_RIG_I_MDA5_MEDIATED_INDUCTION_OF_IFN_ALPHA_BETA_PATHWAYS	0.98825108
KEGG_ANTIGEN_PROCESSING_AND_PRESENTATION	0.98821151
KEGG_OXIDATIVE_PHOSPHORYLATION	0.98818591
PID_TELOMERASEPATHWAY	0.98818475
KEGG_GLUTATHIONE_METABOLISM	0.98818009
PID_HNF3BPATHWAY	0.9881766
PID_NOTCH_PATHWAY	0.98817544
KEGG_TYPE_I_DIABETES_MELLITUS	0.98817078
REACTOME_SPHINGOLIPID_METABOLISM	0.98811434
REACTOME_COSTIMULATION_BY_THE_CD28_FAMILY	0.98806256
KEGG_HUNTINGTONS_DISEASE	0.98805557
KEGG_EPITHELIAL_CELL_SIGNALING_IN_HELICOBACTER_PYLORI_INFECTION	0.98803579
REACTOME_RESPONSE_TO_ELEVATED_PLATELET_CYTOSOLIC_CA2_	0.98800903
PID_UPA_UPAR_PATHWAY	0.98792116
REACTOME_MHC_CLASS_II_ANTIGEN_PRESENTATION	0.98790545
BIOCARTA_HIVNEF_PATHWAY	0.98788567
BIOCARTA_CARM_ER_PATHWAY	0.98782865
PID_CD8TCRPATHWAY	0.98781934
REACTOME_CIRCADIAN_CLOCK	0.98777861
KEGG_TASTE_TRANSDUCTION	0.98777628
KEGG_NOD_LIKE_RECEPTOR_SIGNALING_PATHWAY	0.98768551
REACTOME_ABC_FAMILY_PROTEINS_MEDIATED_TRANSPORT	0.98768318
REACTOME_NUCLEOTIDE_BINDING_DOMAIN_LEUCINE_RICH_REPEAT_CONTAINING_RECEPTOR_NLR_SIGNALING_PATHWAYS	0.98766166
KEGG_PRION_DISEASES	0.98764362
REACTOME_TRANSCRIPTION	0.98748302
BIOCARTA_WNT_PATHWAY	0.98747721
KEGG_CARDIAC_MUSCLE_CONTRACTION	0.98745277
REACTOME_CHROMOSOME_MAINTENANCE	0.98738527
SIG_INSULIN_RECEPTOR_PATHWAY_IN_CARDIAC_MYOCYTES	0.98726774
PID_HES_HEYPATHWAY	0.98725144
PID_ERBB1_DOWNSTREAM_PATHWAY	0.98718977
REACTOME_REGULATION_OF_INSULIN_SECRETION	0.98713856
REACTOME_SIGNALING_BY_ERBB2	0.98710249
PID_TXA2PATHWAY	0.98703674
KEGG_GLYCEROPHOSPHOLIPID_METABOLISM	0.98702161
KEGG_OLFACTORY_TRANSDUCTION	0.98696982
KEGG_ADHERENS_JUNCTION	0.98692153
KEGG_ERBB_SIGNALING_PATHWAY	0.98690698
PID_E2F_PATHWAY	0.98690291
KEGG_ACUTE_MYELOID_LEUKEMIA	0.98679992
REACTOME_O_LINKED_GLYCOSYLATION_OF_MUCINS	0.98678945
KEGG_RIG_I_LIKE_RECEPTOR_SIGNALING_PATHWAY	0.98678596
REACTOME_SIGNALING_BY_EGFR_IN_CANCER	0.98674988
REACTOME_INTERFERON_GAMMA_SIGNALING	0.98670682
KEGG_HISTIDINE_METABOLISM	0.98667424
KEGG_RENAL_CELL_CARCINOMA	0.9866242
REACTOME_STRIATED_MUSCLE_CONTRACTION	0.98655088
REACTOME_FRS2_MEDIATED_CASCADE	0.98649037
REACTOME_CELL_DEATH_SIGNALLING_VIA_NRAGE_NRIF_AND_NADE	0.9864607
PID_FGF_PATHWAY	0.98637807
PID_P75NTRPATHWAY	0.98623552
REACTOME_IL_RECEPTOR_SHC_SIGNALING	0.98621631
KEGG_STEROID_HORMONE_BIOSYNTHESIS	0.98621108
REACTOME_MEIOTIC_SYNAPSIS	0.98619828
ST_ADRENERGIC	0.98619711
REACTOME_DEGRADATION_OF_THE_EXTRACELLULAR_MATRIX	0.98617268
PID_EPHRINBREVPATHWAY	0.98615871
REACTOME_NUCLEAR_RECEPTOR_TRANSCRIPTION_PATHWAY	0.98615347
REACTOME_DOWNSTREAM_SIGNAL_TRANSDUCTION	0.9861366
PID_PI3KCIPATHWAY	0.98610169
REACTOME_NCAM_SIGNALING_FOR_NEURITE_OUT_GROWTH	0.98605281
REACTOME_GABA_B_RECEPTOR_ACTIVATION	0.98605165
BIOCARTA_LAIR_PATHWAY	0.98603012
REACTOME_LIPOPROTEIN_METABOLISM	0.98599812
REACTOME_AMINO_ACID_AND_OLIGOPEPTIDE_SLC_TRANSPORTERS	0.9859539
PID_HNF3APATHWAY	0.98594924
KEGG_AMYOTROPHIC_LATERAL_SCLEROSIS_ALS	0.98584451
BIOCARTA_NFAT_PATHWAY	0.98577352
REACTOME_NUCLEAR_SIGNALING_BY_ERBB4	0.98574093
KEGG_ARGININE_AND_PROLINE_METABOLISM	0.98574093
REACTOME_SIGNALING_BY_FGFR_MUTANTS	0.98565598
REACTOME_DOWNSTREAM_SIGNALING_EVENTS_OF_B_CELL_RECEPTOR_BCR	0.98548492
REACTOME_METABOLISM_OF_RNA	0.98544011
KEGG_GRAFT_VERSUS_HOST_DISEASE	0.98534527
REACTOME_SHC_MEDIATED_CASCADE	0.98532083
REACTOME_MUSCLE_CONTRACTION	0.98528068
REACTOME_TRIF_MEDIATED_TLR3_SIGNALING	0.98524112
BIOCARTA_DC_PATHWAY	0.98520911
KEGG_VEGF_SIGNALING_PATHWAY	0.98520039
PID_CASPASE_PATHWAY	0.9851486
PID_AR_TF_PATHWAY	0.98514395
SIG_BCR_SIGNALING_PATHWAY	0.98514162
REACTOME_CHYLOMICRON_MEDIATED_LIPID_TRANSPORT	0.98507878
PID_DELTANP63PATHWAY	0.98507645
PID_CERAMIDE_PATHWAY	0.98501594
REACTOME_DNA_REPAIR	0.98498801
REACTOME_NEGATIVE_REGULATION_OF_FGFR_SIGNALING	0.98498684
KEGG_MTOR_SIGNALING_PATHWAY	0.98494844
REACTOME_GROWTH_HORMONE_RECEPTOR_SIGNALING	0.98494728
REACTOME_S_PHASE	0.98487164
BIOCARTA_G1_PATHWAY	0.9848472
REACTOME_G1_PHASE	0.98471686
BIOCARTA_CELLCYCLE_PATHWAY	0.98464238
REACTOME_NRAGE_SIGNALS_DEATH_THROUGH_JNK	0.98451554
ST_DIFFERENTIATION_PATHWAY_IN_PC12_CELLS	0.9844527
KEGG_STARCH_AND_SUCROSE_METABOLISM	0.98444688
REACTOME_ACTIVATION_OF_NMDA_RECEPTOR_UPON_GLUTAMATE_BINDING_AND_POSTSYNAPTIC_EVENTS	0.98442186
BIOCARTA_TOLL_PATHWAY	0.98439858
PID_MET_PATHWAY	0.984398
REACTOME_REGULATION_OF_WATER_BALANCE_BY_RENAL_AQUAPORINS	0.98438869
BIOCARTA_GSK3_PATHWAY	0.98438287
PID_ILK_PATHWAY	0.98431247
REACTOME_PHOSPHOLIPASE_C_MEDIATED_CASCADE	0.98427814
REACTOME_COLLAGEN_FORMATION	0.98420832
KEGG_INOSITOL_PHOSPHATE_METABOLISM	0.98419784
REACTOME_TRAF6_MEDIATED_INDUCTION_OF_NFKB_AND_MAP_KINASES_UPON_TLR7_8_OR_9_ACTIVATION	0.98416118
PID_EPHBFWDPATHWAY	0.98409078
REACTOME_METABOLISM_OF_NUCLEOTIDES	0.98408903
BIOCARTA_BCR_PATHWAY	0.98406692
BIOCARTA_INFLAM_PATHWAY	0.98406401
REACTOME_PRE_NOTCH_EXPRESSION_AND_PROCESSING	0.98405296
BIOCARTA_GH_PATHWAY	0.98398837
REACTOME_FGFR_LIGAND_BINDING_AND_ACTIVATION	0.98397324
PID_EPOPATHWAY	0.9838976
KEGG_ABC_TRANSPORTERS	0.98389586
BIOCARTA_ALK_PATHWAY	0.98387316
REACTOME_HEPARAN_SULFATE_HEPARIN_HS_GAG_METABOLISM	0.98381032
KEGG_VIBRIO_CHOLERAE_INFECTION	0.98379519
REACTOME_HIV_LIFE_CYCLE	0.98379054
REACTOME_TRANSPORT_OF_VITAMINS_NUCLEOSIDES_AND_RELATED_MOLECULES	0.98376377
REACTOME_DEFENSINS	0.98376028
PID_RHOA_REG_PATHWAY	0.98373352
REACTOME_PI_METABOLISM	0.98373003
BIOCARTA_MET_PATHWAY	0.98372421
KEGG_PEROXISOME	0.98360667
REACTOME_RECRUITMENT_OF_MITOTIC_CENTROSOME_PROTEINS_AND_COMPLEXES	0.983577
KEGG_CYTOSOLIC_DNA_SENSING_PATHWAY	0.98355547
REACTOME_DNA_REPLICATION	0.98352463
REACTOME_LOSS_OF_NLP_FROM_MITOTIC_CENTROSOMES	0.98346062
REACTOME_NUCLEOTIDE_LIKE_PURINERGIC_RECEPTORS	0.98339255
REACTOME_ADHERENS_JUNCTIONS_INTERACTIONS	0.98336578
PID_IL1PATHWAY	0.98330352
KEGG_GLYCINE_SERINE_AND_THREONINE_METABOLISM	0.98317144
KEGG_UBIQUITIN_MEDIATED_PROTEOLYSIS	0.98317086
REACTOME_APOPTOTIC_CLEAVAGE_OF_CELLULAR_PROTEINS	0.98309405
PID_RAC1_REG_PATHWAY	0.98306554
REACTOME_INTERFERON_ALPHA_BETA_SIGNALING	0.98306089
KEGG_PARKINSONS_DISEASE	0.98304518
REACTOME_MITOTIC_G2_G2_M_PHASES	0.9830027
REACTOME_G_ALPHA_Z_SIGNALLING_EVENTS	0.98286131
BIOCARTA_IL1R_PATHWAY	0.98285374
REACTOME_COMPLEMENT_CASCADE	0.98278509
PID_ER_NONGENOMIC_PATHWAY	0.98278334
BIOCARTA_FCER1_PATHWAY	0.98272806
REACTOME_PRE_NOTCH_TRANSCRIPTION_AND_TRANSLATION	0.98260529
REACTOME_MRNA_PROCESSING	0.98257329
REACTOME_NEUROTRANSMITTER_RELEASE_CYCLE	0.98250463
PID_WNT_SIGNALING_PATHWAY	0.98237662
PID_RET_PATHWAY	0.98228876
ST_MYOCYTE_AD_PATHWAY	0.98220904
REACTOME_TRANSLATION	0.9821206
REACTOME_CHONDROITIN_SULFATE_DERMATAN_SULFATE_METABOLISM	0.98211362
REACTOME_METABOLISM_OF_MRNA	0.98207405
PID_FAK_PATHWAY	0.98206183
REACTOME_PI3K_EVENTS_IN_ERBB2_SIGNALING	0.98205427
REACTOME_SYNTHESIS_OF_PIPS_AT_THE_PLASMA_MEMBRANE	0.98204263
REACTOME_INHIBITION_OF_VOLTAGE_GATED_CA2_CHANNELS_VIA_GBETA_GAMMA_SUBUNITS	0.98201005
REACTOME_ACTIVATION_OF_KAINATE_RECEPTORS_UPON_GLUTAMATE_BINDING	0.9819571
PID_MYC_ACTIVPATHWAY	0.98194721
PID_ARF6_PATHWAY	0.98189658
ST_INTEGRIN_SIGNALING_PATHWAY	0.98187855
PID_HDAC_CLASSI_PATHWAY	0.98186167
BIOCARTA_TID_PATHWAY	0.98185644
PID_THROMBIN_PAR1_PATHWAY	0.98177381
REACTOME_INFLUENZA_LIFE_CYCLE	0.98176858
PID_ARF6_TRAFFICKINGPATHWAY	0.98173774
KEGG_TYPE_II_DIABETES_MELLITUS	0.98162486
REACTOME_BMAL1_CLOCK_NPAS2_ACTIVATES_CIRCADIAN_EXPRESSION	0.98158296
PID_SYNDECAN_1_PATHWAY	0.98158296
BIOCARTA_TNFR1_PATHWAY	0.98156027
REACTOME_NCAM1_INTERACTIONS	0.98153409
KEGG_THYROID_CANCER	0.98150499
SA_B_CELL_RECEPTOR_COMPLEXES	0.98146601
KEGG_VASOPRESSIN_REGULATED_WATER_REABSORPTION	0.98136418
KEGG_MATURITY_ONSET_DIABETES_OF_THE_YOUNG	0.98130251
REACTOME_OPIOID_SIGNALLING	0.98123443
PID_INTEGRIN3_PATHWAY	0.98122745
BIOCARTA_EGF_PATHWAY	0.98120708
REACTOME_ABCA_TRANSPORTERS_IN_LIPID_HOMEOSTASIS	0.98119312
REACTOME_GLUCOSE_METABOLISM	0.98114191
KEGG_SPHINGOLIPID_METABOLISM	0.98100285
PID_SYNDECAN_4_PATHWAY	0.98099528
REACTOME_TCA_CYCLE_AND_RESPIRATORY_ELECTRON_TRANSPORT	0.98098772
REACTOME_TRANS_GOLGI_NETWORK_VESICLE_BUDDING	0.98093942
REACTOME_LATENT_INFECTION_OF_HOMO_SAPIENS_WITH_MYCOBACTERIUM_TUBERCULOSIS	0.98091731
KEGG_ALLOGRAFT_REJECTION	0.98091266
REACTOME_TRAFFICKING_OF_AMPA_RECEPTORS	0.98089171
PID_ENDOTHELINPATHWAY	0.98086844
REACTOME_MITOTIC_M_M_G1_PHASES	0.98081607
KEGG_SPLICEOSOME	0.98080967
REACTOME_AMINO_ACID_TRANSPORT_ACROSS_THE_PLASMA_MEMBRANE	0.98080385
KEGG_BASAL_CELL_CARCINOMA	0.98078174
PID_P53REGULATIONPATHWAY	0.98073403
PID_ALPHASYNUCLEIN_PATHWAY	0.98048208
KEGG_DRUG_METABOLISM_OTHER_ENZYMES	0.98041226
BIOCARTA_GRANULOCYTES_PATHWAY	0.98039422
KEGG_PRIMARY_IMMUNODEFICIENCY	0.98032382
REACTOME_ANTIGEN_PROCESSING_CROSS_PRESENTATION	0.98031509
REACTOME_INTRINSIC_PATHWAY	0.98029705
PID_CONE_PATHWAY	0.98029472
REACTOME_NFKB_AND_MAP_KINASES_ACTIVATION_MEDIATED_BY_TLR4_SIGNALING_REPERTOIRE	0.98019348
REACTOME_PLATELET_AGGREGATION_PLUG_FORMATION	0.9801609
REACTOME_TCR_SIGNALING	0.98014228
KEGG_PYRIMIDINE_METABOLISM	0.98004569
REACTOME_3_UTR_MEDIATED_TRANSLATIONAL_REGULATION	0.98002765
ST_PHOSPHOINOSITIDE_3_KINASE_PATHWAY	0.98002707
REACTOME_LATE_PHASE_OF_HIV_LIFE_CYCLE	0.97999448
PID_INSULIN_PATHWAY	0.97994328
REACTOME_SIGNALING_BY_FGFR1_MUTANTS	0.97986124
PID_ERBB2ERBB3PATHWAY	0.97975825
REACTOME_MEIOTIC_RECOMBINATION	0.9797437
ST_GA12_PATHWAY	0.97967912
PID_HIVNEFPATHWAY	0.97960231
BIOCARTA_BIOPEPTIDES_PATHWAY	0.97955925
PID_CXCR3PATHWAY	0.97950223
PID_NCADHERINPATHWAY	0.9794423
KEGG_ASTHMA	0.97940913
PID_ECADHERIN_NASCENTAJ_PATHWAY	0.97933
PID_INTEGRIN_A4B1_PATHWAY	0.979298
REACTOME_GAP_JUNCTION_TRAFFICKING	0.97918453
BIOCARTA_NKT_PATHWAY	0.97914497
KEGG_FATTY_ACID_METABOLISM	0.97913391
PID_MTOR_4PATHWAY	0.97913159
BIOCARTA_PAR1_PATHWAY	0.97904023
KEGG_AMINO_SUGAR_AND_NUCLEOTIDE_SUGAR_METABOLISM	0.97903325
PID_ECADHERIN_STABILIZATION_PATHWAY	0.97901114
BIOCARTA_ERK_PATHWAY	0.97894714
REACTOME_IRON_UPTAKE_AND_TRANSPORT	0.97889477
PID_RAS_PATHWAY	0.97882029
REACTOME_ASPARAGINE_N_LINKED_GLYCOSYLATION	0.97879934
REACTOME_ACTIVATED_POINT_MUTANTS_OF_FGFR2	0.97876443
REACTOME_AMINE_LIGAND_BINDING_RECEPTORS	0.97875512
REACTOME_SIGNAL_TRANSDUCTION_BY_L1	0.97874872
BIOCARTA_FAS_PATHWAY	0.97871032
KEGG_PHENYLALANINE_METABOLISM	0.97861548
PID_IL12_STAT4PATHWAY	0.97860617
PID_IFNGPATHWAY	0.9785858
PID_IL2_STAT5PATHWAY	0.97856544
REACTOME_ANTIGEN_ACTIVATES_B_CELL_RECEPTOR_LEADING_TO_GENERATION_OF_SECOND_MESSENGERS	0.97853169
PID_RAC1_PATHWAY	0.97850318
REACTOME_PROCESSING_OF_CAPPED_INTRON_CONTAINING_PRE_MRNA	0.97845139
KEGG_PORPHYRIN_AND_CHLOROPHYLL_METABOLISM	0.97835131
BIOCARTA_STEM_PATHWAY	0.97818723
REACTOME_ORGANIC_CATION_ANION_ZWITTERION_TRANSPORT	0.97816977
REACTOME_BETA_DEFENSINS	0.97810111
REACTOME_FGFR1_LIGAND_BINDING_AND_ACTIVATION	0.97808366
PID_INTEGRIN4_PATHWAY	0.97805223
REACTOME_NETRIN1_SIGNALING	0.97805223
PID_IL27PATHWAY	0.97803245
REACTOME_GLUCAGON_SIGNALING_IN_METABOLIC_REGULATION	0.97801209
REACTOME_GPVI_MEDIATED_ACTIVATION_CASCADE	0.97793412
REACTOME_UNFOLDED_PROTEIN_RESPONSE	0.97792946
KEGG_ALANINE_ASPARTATE_AND_GLUTAMATE_METABOLISM	0.97787651
PID_GLYPICAN_1PATHWAY	0.97784975
REACTOME_THROMBIN_SIGNALLING_THROUGH_PROTEINASE_ACTIVATED_RECEPTORS_PARS	0.97783462
REACTOME_POST_NMDA_RECEPTOR_ACTIVATION_EVENTS	0.97783171
REACTOME_IL1_SIGNALING	0.97783113
ST_WNT_BETA_CATENIN_PATHWAY	0.97772988
BIOCARTA_CASPASE_PATHWAY	0.97771126
REACTOME_TRIGLYCERIDE_BIOSYNTHESIS	0.97763562
REACTOME_G1_S_TRANSITION	0.97754136
REACTOME_REGULATION_OF_APOPTOSIS	0.97753671
REACTOME_HDL_MEDIATED_LIPID_TRANSPORT	0.97748318
BIOCARTA_IL2RB_PATHWAY	0.97743779
BIOCARTA_ERYTH_PATHWAY	0.97740753
KEGG_NOTCH_SIGNALING_PATHWAY	0.97739299
PID_AURORA_B_PATHWAY	0.97738368
PID_RHODOPSIN_PATHWAY	0.97730978
BIOCARTA_RACCYCD_PATHWAY	0.97729698
REACTOME_BASIGIN_INTERACTIONS	0.97718701
REACTOME_G_PROTEIN_ACTIVATION	0.97708169
PID_ERBB1_RECEPTOR_PROXIMAL_PATHWAY	0.97705027
KEGG_AUTOIMMUNE_THYROID_DISEASE	0.97702816
REACTOME_REGULATION_OF_BETA_CELL_DEVELOPMENT	0.97700256
SA_REG_CASCADE_OF_CYCLIN_EXPR	0.97699209
PID_TCRCALCIUMPATHWAY	0.97698743
BIOCARTA_MPR_PATHWAY	0.97695717
BIOCARTA_P53_PATHWAY	0.97680938
REACTOME_TIGHT_JUNCTION_INTERACTIONS	0.97680589
ST_B_CELL_ANTIGEN_RECEPTOR	0.97670348
BIOCARTA_INTRINSIC_PATHWAY	0.97668719
KEGG_GLYCOSPHINGOLIPID_BIOSYNTHESIS_LACTO_AND_NEOLACTO_SERIES	0.97662668
REACTOME_GLUTATHIONE_CONJUGATION	0.97657547
ST_ERK1_ERK2_MAPK_PATHWAY	0.97654231
PID_IL8CXCR2_PATHWAY	0.97650681
REACTOME_RNA_POL_I_RNA_POL_III_AND_MITOCHONDRIAL_TRANSCRIPTION	0.97648005
BIOCARTA_TCR_PATHWAY	0.97633575
BIOCARTA_DEATH_PATHWAY	0.97627523
REACTOME_SEMA4D_IN_SEMAPHORIN_SIGNALING	0.97626185
REACTOME_SIGNALING_BY_NOTCH1	0.97619552
BIOCARTA_IL17_PATHWAY	0.97607624
PID_P38ALPHABETADOWNSTREAMPATHWAY	0.97601805
REACTOME_CD28_CO_STIMULATION	0.97571898
REACTOME_GLYCEROPHOSPHOLIPID_BIOSYNTHESIS	0.97565497
PID_INTEGRIN_A9B1_PATHWAY	0.97563286
REACTOME_CREB_PHOSPHORYLATION_THROUGH_THE_ACTIVATION_OF_RAS	0.9756317
KEGG_NITROGEN_METABOLISM	0.9755258
BIOCARTA_COMP_PATHWAY	0.97547459
REACTOME_REGULATION_OF_INSULIN_SECRETION_BY_GLUCAGON_LIKE_PEPTIDE1	0.97544317
ST_G_ALPHA_I_PATHWAY	0.97543794
PID_IL2_PI3KPATHWAY	0.97538964
BIOCARTA_KERATINOCYTE_PATHWAY	0.97538441
KEGG_PYRUVATE_METABOLISM	0.975346
PID_CDC42_PATHWAY	0.97521974
SA_G1_AND_S_PHASES	0.97512781
REACTOME_AMINE_COMPOUND_SLC_TRANSPORTERS	0.97510104
PID_RETINOIC_ACID_PATHWAY	0.97504984
REACTOME_GLUCAGON_TYPE_LIGAND_RECEPTORS	0.9749003
PID_SYNDECAN_2_PATHWAY	0.97478858
REACTOME_KERATAN_SULFATE_KERATIN_METABOLISM	0.97477753
KEGG_TRYPTOPHAN_METABOLISM	0.9745698
REACTOME_PURINE_METABOLISM	0.97456456
BIOCARTA_FMLP_PATHWAY	0.97455467
REACTOME_INFLUENZA_VIRAL_RNA_TRANSCRIPTION_AND_REPLICATION	0.97453547
REACTOME_SIGNALING_BY_WNT	0.97453198
REACTOME_PEPTIDE_CHAIN_ELONGATION	0.97451103
PID_EPHA_FWDPATHWAY	0.97444761
BIOCARTA_PDGF_PATHWAY	0.97442725
ST_WNT_CA2_CYCLIC_GMP_PATHWAY	0.97440979
PID_IGF1_PATHWAY	0.97437371
KEGG_ASCORBATE_AND_ALDARATE_METABOLISM	0.97436324
KEGG_PROXIMAL_TUBULE_BICARBONATE_RECLAMATION	0.97433531
KEGG_LYSINE_DEGRADATION	0.97425269
REACTOME_SRP_DEPENDENT_COTRANSLATIONAL_PROTEIN_TARGETING_TO_MEMBRANE	0.97424396
BIOCARTA_NO1_PATHWAY	0.97423058
REACTOME_NOD1_2_SIGNALING_PATHWAY	0.97421138
REACTOME_ACTIVATION_OF_CHAPERONE_GENES_BY_XBP1S	0.97410257
REACTOME_REGULATION_OF_GENE_EXPRESSION_IN_BETA_CELLS	0.97407871
BIOCARTA_NTHI_PATHWAY	0.97404787
PID_ERBB4_PATHWAY	0.97404555
REACTOME_TERMINATION_OF_O_GLYCAN_BIOSYNTHESIS	0.9740246
PID_S1P_S1P2_PATHWAY	0.97401762
REACTOME_GLYCOSPHINGOLIPID_METABOLISM	0.97399551
REACTOME_DOWNSTREAM_TCR_SIGNALING	0.97398969
REACTOME_PLC_BETA_MEDIATED_EVENTS	0.97397398
ST_FAS_SIGNALING_PATHWAY	0.97395361
REACTOME_PLATELET_ADHESION_TO_EXPOSED_COLLAGEN	0.97389252
PID_TOLL_ENDOGENOUS_PATHWAY	0.97387797
KEGG_SELENOAMINO_ACID_METABOLISM	0.97385353
PID_LKB1_PATHWAY	0.97384073
REACTOME_NONSENSE_MEDIATED_DECAY_ENHANCED_BY_THE_EXON_JUNCTION_COMPLEX	0.97366268
PID_RXR_VDR_PATHWAY	0.97363068
REACTOME_PI3K_EVENTS_IN_ERBB4_SIGNALING	0.97362253
BIOCARTA_GCR_PATHWAY	0.97361846
REACTOME_GOLGI_ASSOCIATED_VESICLE_BIOGENESIS	0.97357075
REACTOME_ACETYLCHOLINE_BINDING_AND_DOWNSTREAM_EVENTS	0.97347183
PID_INTEGRIN_CS_PATHWAY	0.9733444
REACTOME_RECYCLING_PATHWAY_OF_L1	0.97333102
REACTOME_IONOTROPIC_ACTIVITY_OF_KAINATE_RECEPTORS	0.97326585
KEGG_CYSTEINE_AND_METHIONINE_METABOLISM	0.97325305
BIOCARTA_SPPA_PATHWAY	0.97324549
PID_HDAC_CLASSII_PATHWAY	0.97312504
REACTOME_METABOLISM_OF_STEROID_HORMONES_AND_VITAMINS_A_AND_D	0.97305987
REACTOME_SEMA4D_INDUCED_CELL_MIGRATION_AND_GROWTH_CONE_COLLAPSE	0.97302089
KEGG_PENTOSE_AND_GLUCURONATE_INTERCONVERSIONS	0.9729243
REACTOME_REGULATION_OF_HYPOXIA_INDUCIBLE_FACTOR_HIF_BY_OXYGEN	0.97282364
PID_S1P_S1P3_PATHWAY	0.97268865
REACTOME_RNA_POL_II_TRANSCRIPTION	0.97266828
REACTOME_GAB1_SIGNALOSOME	0.97265315
BIOCARTA_IL2_PATHWAY	0.97257111
BIOCARTA_CSK_PATHWAY	0.97233546
BIOCARTA_CYTOKINE_PATHWAY	0.97232789
REACTOME_TRANSFERRIN_ENDOCYTOSIS_AND_RECYCLING	0.9721545
KEGG_HEDGEHOG_SIGNALING_PATHWAY	0.97213355
REACTOME_SIGNALING_BY_NODAL	0.97211726
REACTOME_KERATAN_SULFATE_BIOSYNTHESIS	0.97210271
REACTOME_PASSIVE_TRANSPORT_BY_AQUAPORINS	0.97190197
PID_IL6_7PATHWAY	0.97187404
PID_NFAT_3PATHWAY	0.97185659
SIG_REGULATION_OF_THE_ACTIN_CYTOSKELETON_BY_RHO_GTPASES	0.97184146
PID_INSULIN_GLUCOSE_PATHWAY	0.97184088
REACTOME_NITRIC_OXIDE_STIMULATES_GUANYLATE_CYCLASE	0.97173091
REACTOME_MAP_KINASE_ACTIVATION_IN_TLR_CASCADE	0.97167214
PID_P38GAMMADELTAPATHWAY	0.97151213
REACTOME_TELOMERE_MAINTENANCE	0.97148245
PID_FOXOPATHWAY	0.971298
REACTOME_MRNA_SPLICING	0.97113915
BIOCARTA_HDAC_PATHWAY	0.97110133
BIOCARTA_BLYMPHOCYTE_PATHWAY	0.97101289
REACTOME_PRESYNAPTIC_NICOTINIC_ACETYLCHOLINE_RECEPTORS	0.97100707
KEGG_BUTANOATE_METABOLISM	0.97100067
REACTOME_VIF_MEDIATED_DEGRADATION_OF_APOBEC3G	0.9709838
REACTOME_INTERACTION_BETWEEN_L1_AND_ANKYRINS	0.97082437
PID_HEDGEHOG_GLIPATHWAY	0.97077666
SIG_CHEMOTAXIS	0.97075047
PID_BMPPATHWAY	0.97061955
ST_T_CELL_SIGNAL_TRANSDUCTION	0.97039612
KEGG_RIBOSOME	0.97037866
BIOCARTA_MITOCHONDRIA_PATHWAY	0.97002315
PID_IL8CXCR1_PATHWAY	0.96997427
REACTOME_INSULIN_RECEPTOR_RECYCLING	0.96989921
BIOCARTA_CARDIACEGF_PATHWAY	0.96976655
BIOCARTA_AGR_PATHWAY	0.96975549
REACTOME_RNA_POL_II_PRE_TRANSCRIPTION_EVENTS	0.96968334
REACTOME_REGULATION_OF_MITOTIC_CELL_CYCLE	0.96965774
BIOCARTA_TCYTOTOXIC_PATHWAY	0.9696269
REACTOME_CYCLIN_E_ASSOCIATED_EVENTS_DURING_G1_S_TRANSITION_	0.96959199
PID_S1P_META_PATHWAY	0.96953846
REACTOME_RNA_POL_I_TRANSCRIPTION	0.96948493
REACTOME_MITOTIC_PROMETAPHASE	0.96945409
REACTOME_FGFR4_LIGAND_BINDING_AND_ACTIVATION	0.96945234
REACTOME_EFFECTS_OF_PIP2_HYDROLYSIS	0.96943954
SA_MMP_CYTOKINE_CONNECTION	0.96943081
REACTOME_SYNTHESIS_OF_DNA	0.96929931
PID_CDC42_REG_PATHWAY	0.96925451
PID_FASPATHWAY	0.96921669
REACTOME_INTRINSIC_PATHWAY_FOR_APOPTOSIS	0.96915443
PID_AR_NONGENOMIC_PATHWAY	0.96914163
REACTOME_OLFACTORY_SIGNALING_PATHWAY	0.96911952
REACTOME_GAP_JUNCTION_ASSEMBLY	0.96894554
REACTOME_REGULATION_OF_INSULIN_LIKE_GROWTH_FACTOR_IGF_ACTIVITY_BY_INSULIN_LIKE_GROWTH_FACTOR_BINDING_PROTEINS_IGFBPS	0.96893565
REACTOME_TRANSCRIPTIONAL_ACTIVITY_OF_SMAD2_SMAD3_SMAD4_HETEROTRIMER	0.96887455
REACTOME_A_TETRASACCHARIDE_LINKER_SEQUENCE_IS_REQUIRED_FOR_GAG_SYNTHESIS	0.96872967
SIG_IL4RECEPTOR_IN_B_LYPHOCYTES	0.96865752
REACTOME_PLATELET_CALCIUM_HOMEOSTASIS	0.96861912
REACTOME_ORC1_REMOVAL_FROM_CHROMATIN	0.96851438
BIOCARTA_IL7_PATHWAY	0.96829677
PID_P38ALPHABETAPATHWAY	0.96825371
REACTOME_ACTIVATION_OF_NF_KAPPAB_IN_B_CELLS	0.9682444
ST_P38_MAPK_PATHWAY	0.96824207
PID_THROMBIN_PAR4_PATHWAY	0.96818912
REACTOME_REGULATION_OF_IFNA_SIGNALING	0.96813268
REACTOME_REGULATION_OF_IFNG_SIGNALING	0.96813268
REACTOME_DIGESTION_OF_DIETARY_CARBOHYDRATE	0.9680873
KEGG_FRUCTOSE_AND_MANNOSE_METABOLISM	0.96804715
REACTOME_PI3K_AKT_ACTIVATION	0.96804657
REACTOME_CELL_CYCLE_CHECKPOINTS	0.96801282
REACTOME_PYRUVATE_METABOLISM_AND_CITRIC_ACID_TCA_CYCLE	0.96794067
BIOCARTA_AMI_PATHWAY	0.96792787
BIOCARTA_BAD_PATHWAY	0.96785048
PID_NECTIN_PATHWAY	0.96779346
REACTOME_STEROID_HORMONES	0.96777658
KEGG_VALINE_LEUCINE_AND_ISOLEUCINE_DEGRADATION	0.96762414
REACTOME_FGFR2C_LIGAND_BINDING_AND_ACTIVATION	0.96761366
REACTOME_BILE_ACID_AND_BILE_SALT_METABOLISM	0.96747634
BIOCARTA_MYOSIN_PATHWAY	0.96737394
REACTOME_PROTEIN_FOLDING	0.96731924
BIOCARTA_INTEGRIN_PATHWAY	0.96722498
BIOCARTA_ARF_PATHWAY	0.96714061
PID_TNFPATHWAY	0.96713188
KEGG_GALACTOSE_METABOLISM	0.96701667
BIOCARTA_THELPER_PATHWAY	0.96700387
PID_RHOA_PATHWAY	0.9669742
PID_ERBB1_INTERNALIZATION_PATHWAY	0.96693056
REACTOME_NOTCH1_INTRACELLULAR_DOMAIN_REGULATES_TRANSCRIPTION	0.96692474
REACTOME_CHONDROITIN_SULFATE_BIOSYNTHESIS	0.96688227
BIOCARTA_VEGF_PATHWAY	0.96684677
REACTOME_FANCONI_ANEMIA_PATHWAY	0.9667944
PID_TRAIL_PATHWAY	0.9667688
REACTOME_M_G1_TRANSITION	0.96673738
BIOCARTA_AT1R_PATHWAY	0.96673156
REACTOME_CIRCADIAN_REPRESSION_OF_EXPRESSION_BY_REV_ERBA	0.96668909
REACTOME_EXTRINSIC_PATHWAY_FOR_APOPTOSIS	0.96666989
REACTOME_INCRETIN_SYNTHESIS_SECRETION_AND_INACTIVATION	0.96653257
REACTOME_INFLAMMASOMES	0.96650697
REACTOME_SIGNALLING_TO_ERKS	0.96650522
REACTOME_SMAD2_SMAD3_SMAD4_HETEROTRIMER_REGULATES_TRANSCRIPTION	0.96649475
REACTOME_MAPK_TARGETS_NUCLEAR_EVENTS_MEDIATED_BY_MAP_KINASES	0.96646507
REACTOME_SIGNALING_BY_ACTIVATED_POINT_MUTANTS_OF_FGFR1	0.96642725
REACTOME_TRANSPORT_TO_THE_GOLGI_AND_SUBSEQUENT_MODIFICATION	0.96641736
BIOCARTA_TPO_PATHWAY	0.96625153
REACTOME_INTEGRIN_ALPHAIIB_BETA3_SIGNALING	0.96622302
REACTOME_METABOLISM_OF_VITAMINS_AND_COFACTORS	0.96621487
REACTOME_TGF_BETA_RECEPTOR_SIGNALING_ACTIVATES_SMADS	0.96619334
PID_REELINPATHWAY	0.96608977
PID_HDAC_CLASSIII_PATHWAY	0.96604555
PID_IL3_PATHWAY	0.96602868
BIOCARTA_TGFB_PATHWAY	0.96601878
BIOCARTA_IL10_PATHWAY	0.96600657
REACTOME_REGULATION_OF_KIT_SIGNALING	0.96588205
SA_TRKA_RECEPTOR	0.96586343
BIOCARTA_CREB_PATHWAY	0.96580757
ST_INTERLEUKIN_4_PATHWAY	0.96575869
REACTOME_REGULATION_OF_SIGNALING_BY_CBL	0.96571447
REACTOME_REGULATION_OF_MRNA_STABILITY_BY_PROTEINS_THAT_BIND_AU_RICH_ELEMENTS	0.96571098
BIOCARTA_GPCR_PATHWAY	0.96547707
PID_NETRIN_PATHWAY	0.9654346
PID_PLK1_PATHWAY	0.96542354
KEGG_PATHOGENIC_ESCHERICHIA_COLI_INFECTION	0.96521349
BIOCARTA_IL22BP_PATHWAY	0.96515938
KEGG_GLYCOSAMINOGLYCAN_DEGRADATION	0.96486961
BIOCARTA_IGF1_PATHWAY	0.96486845
REACTOME_PYRIMIDINE_METABOLISM	0.9647963
REACTOME_NA_CL_DEPENDENT_NEUROTRANSMITTER_TRANSPORTERS	0.96478291
REACTOME_SIGNALING_BY_FGFR3_MUTANTS	0.96478233
REACTOME_CGMP_EFFECTS	0.96473462
BIOCARTA_INSULIN_PATHWAY	0.96472589
REACTOME_LIGAND_GATED_ION_CHANNEL_TRANSPORT	0.96471833
BIOCARTA_EXTRINSIC_PATHWAY	0.96462174
BIOCARTA_CTLA4_PATHWAY	0.964517
BIOCARTA_CBL_PATHWAY	0.96447976
REACTOME_ACTIVATION_OF_THE_MRNA_UPON_BINDING_OF_THE_CAP_BINDING_COMPLEX_AND_EIFS_AND_SUBSEQUENT_BINDING_TO_43S	0.96447976
KEGG_REGULATION_OF_AUTOPHAGY	0.96447918
BIOCARTA_D4GDI_PATHWAY	0.96447627
REACTOME_COMMON_PATHWAY	0.9644658
REACTOME_DEPOSITION_OF_NEW_CENPA_CONTAINING_NUCLEOSOMES_AT_THE_CENTROMERE	0.96444951
REACTOME_NUCLEAR_EVENTS_KINASE_AND_TRANSCRIPTION_FACTOR_ACTIVATION	0.96429473
PID_HIF1APATHWAY	0.96424877
REACTOME_PROSTACYCLIN_SIGNALLING_THROUGH_PROSTACYCLIN_RECEPTOR	0.9642284
PID_MAPKTRKPATHWAY	0.96421444
REACTOME_DOWNREGULATION_OF_ERBB2_ERBB3_SIGNALING	0.96419
REACTOME_GLUCOSE_TRANSPORT	0.9641772
REACTOME_GENERATION_OF_SECOND_MESSENGER_MOLECULES	0.96384961
REACTOME_FORMATION_OF_THE_TERNARY_COMPLEX_AND_SUBSEQUENTLY_THE_43S_COMPLEX	0.96383855
BIOCARTA_CCR3_PATHWAY	0.96381994
ST_TUMOR_NECROSIS_FACTOR_PATHWAY	0.96380539
KEGG_ONE_CARBON_POOL_BY_FOLATE	0.96364712
BIOCARTA_PML_PATHWAY	0.96357555
BIOCARTA_CHREBP2_PATHWAY	0.96351039
REACTOME_RNA_POL_I_PROMOTER_OPENING	0.96337539
REACTOME_PACKAGING_OF_TELOMERE_ENDS	0.96337074
REACTOME_SIGNALLING_TO_RAS	0.9632951
REACTOME_PD1_SIGNALING	0.9632951
REACTOME_RORA_ACTIVATES_CIRCADIAN_EXPRESSION	0.96321364
REACTOME_HS_GAG_BIOSYNTHESIS	0.96317407
PID_FANCONI_PATHWAY	0.96317174
PID_AVB3_OPN_PATHWAY	0.96310425
PID_PRLSIGNALINGEVENTSPATHWAY	0.96303675
KEGG_RENIN_ANGIOTENSIN_SYSTEM	0.96285405
REACTOME_GLUCONEOGENESIS	0.96284474
REACTOME_TRAF6_MEDIATED_IRF7_ACTIVATION	0.96280575
PID_IL5_PATHWAY	0.96262479
REACTOME_TRAF6_MEDIATED_IRF7_ACTIVATION_IN_TLR7_8_OR_9_SIGNALING	0.96252122
PID_PDGFRAPATHWAY	0.96246944
BIOCARTA_RHO_PATHWAY	0.96240369
PID_ALK1PATHWAY	0.96235947
REACTOME_SCFSKP2_MEDIATED_DEGRADATION_OF_P27_P21	0.96226811
REACTOME_CTLA4_INHIBITORY_SIGNALING	0.962214
REACTOME_FORMATION_OF_RNA_POL_II_ELONGATION_COMPLEX_	0.96210694
REACTOME_ANTIVIRAL_MECHANISM_BY_IFN_STIMULATED_GENES	0.96198417
PID_CD40_PATHWAY	0.96198417
REACTOME_CYTOSOLIC_SULFONATION_OF_SMALL_MOLECULES	0.96194635
PID_BETACATENIN_DEG_PATHWAY	0.9618835
BIOCARTA_PS1_PATHWAY	0.96179623
BIOCARTA_CERAMIDE_PATHWAY	0.96178342
REACTOME_SMOOTH_MUSCLE_CONTRACTION	0.96178052
REACTOME_SIGNALING_BY_CONSTITUTIVELY_ACTIVE_EGFR	0.96168393
REACTOME_DAG_AND_IP3_SIGNALING	0.96159723
REACTOME_RESPIRATORY_ELECTRON_TRANSPORT_ATP_SYNTHESIS_BY_CHEMIOSMOTIC_COUPLING_AND_HEAT_PRODUCTION_BY_UNCOUPLING_PROTEINS_	0.96150122
PID_WNT_CANONICAL_PATHWAY	0.96147271
KEGG_O_GLYCAN_BIOSYNTHESIS	0.96144245
BIOCARTA_P38MAPK_PATHWAY	0.96144071
REACTOME_G0_AND_EARLY_G1	0.96143024
REACTOME_GRB2_EVENTS_IN_ERBB2_SIGNALING	0.96126673
KEGG_N_GLYCAN_BIOSYNTHESIS	0.96124346
REACTOME_CROSS_PRESENTATION_OF_SOLUBLE_EXOGENOUS_ANTIGENS_ENDOSOMES	0.96118876
PID_ECADHERIN_KERATINOCYTE_PATHWAY	0.96116607
PID_LIS1PATHWAY	0.96110614
BIOCARTA_EDG1_PATHWAY	0.96099675
PID_AURORA_A_PATHWAY	0.9609374
REACTOME_APC_C_CDC20_MEDIATED_DEGRADATION_OF_MITOTIC_PROTEINS	0.96085594
BIOCARTA_CLASSIC_PATHWAY	0.96083732
REACTOME_SPHINGOLIPID_DE_NOVO_BIOSYNTHESIS	0.96083383
REACTOME_ERK_MAPK_TARGETS	0.9607675
KEGG_SNARE_INTERACTIONS_IN_VESICULAR_TRANSPORT	0.96067033
REACTOME_INTERACTIONS_OF_VPR_WITH_HOST_CELLULAR_PROTEINS	0.96061912
REACTOME_KINESINS	0.96055221
BIOCARTA_CTCF_PATHWAY	0.96034041
REACTOME_HIGHLY_CALCIUM_PERMEABLE_POSTSYNAPTIC_NICOTINIC_ACETYLCHOLINE_RECEPTORS	0.96016003
ST_GA13_PATHWAY	0.96012629
KEGG_GLYCOSYLPHOSPHATIDYLINOSITOL_GPI_ANCHOR_BIOSYNTHESIS	0.9600297
REACTOME_PRE_NOTCH_PROCESSING_IN_GOLGI	0.96002272
PID_LYMPHANGIOGENESIS_PATHWAY	0.95994649
REACTOME_PIP3_ACTIVATES_AKT_SIGNALING	0.95990402
REACTOME_PTM_GAMMA_CARBOXYLATION_HYPUSINE_FORMATION_AND_ARYLSULFATASE_ACTIVATION	0.95988656
BIOCARTA_MTA3_PATHWAY	0.95987958
REACTOME_LYSOSOME_VESICLE_BIOGENESIS	0.95980976
SA_FAS_SIGNALING	0.95974342
BIOCARTA_MCALPAIN_PATHWAY	0.95965091
REACTOME_G_PROTEIN_BETA_GAMMA_SIGNALLING	0.95958516
BIOCARTA_EPO_PATHWAY	0.95948159
REACTOME_P75NTR_SIGNALS_VIA_NFKB	0.95943736
KEGG_PENTOSE_PHOSPHATE_PATHWAY	0.95940478
REACTOME_SIGNAL_AMPLIFICATION	0.95920695
REACTOME_ASSEMBLY_OF_THE_PRE_REPLICATIVE_COMPLEX	0.95916738
BIOCARTA_HER2_PATHWAY	0.95913712
REACTOME_SCF_BETA_TRCP_MEDIATED_DEGRADATION_OF_EMI1	0.95885201
REACTOME_E2F_MEDIATED_REGULATION_OF_DNA_REPLICATION	0.95882641
REACTOME_REGULATION_OF_COMPLEMENT_CASCADE	0.95878801
BIOCARTA_HCMV_PATHWAY	0.95876415
REACTOME_THE_ROLE_OF_NEF_IN_HIV1_REPLICATION_AND_DISEASE_PATHOGENESIS	0.95875717
REACTOME_CA_DEPENDENT_EVENTS	0.95869898
KEGG_NUCLEOTIDE_EXCISION_REPAIR	0.95861752
KEGG_GLYCOSAMINOGLYCAN_BIOSYNTHESIS_CHONDROITIN_SULFATE	0.95858552
REACTOME_CDK_MEDIATED_PHOSPHORYLATION_AND_REMOVAL_OF_CDC6	0.95857854
BIOCARTA_CXCR4_PATHWAY	0.95839467
BIOCARTA_IL6_PATHWAY	0.95825153
BIOCARTA_MAL_PATHWAY	0.95819218
BIOCARTA_NFKB_PATHWAY	0.95815436
PID_S1P_S1P1_PATHWAY	0.95814447
REACTOME_P2Y_RECEPTORS	0.95813691
KEGG_TAURINE_AND_HYPOTAURINE_METABOLISM	0.9580409
KEGG_GLYCOSAMINOGLYCAN_BIOSYNTHESIS_HEPARAN_SULFATE	0.95781863
PID_ARF6DOWNSTREAMPATHWAY	0.95781048
BIOCARTA_TOB1_PATHWAY	0.95776277
REACTOME_FATTY_ACYL_COA_BIOSYNTHESIS	0.95768131
REACTOME_GABA_SYNTHESIS_RELEASE_REUPTAKE_AND_DEGRADATION	0.95767782
SA_CASPASE_CASCADE	0.95767084
BIOCARTA_RAS_PATHWAY	0.95751723
BIOCARTA_TEL_PATHWAY	0.95750093
KEGG_DORSO_VENTRAL_AXIS_FORMATION	0.95748348
REACTOME_REVERSIBLE_HYDRATION_OF_CARBON_DIOXIDE	0.95743926
KEGG_BETA_ALANINE_METABOLISM	0.95742064
BIOCARTA_MONOCYTE_PATHWAY	0.95738863
REACTOME_NFKB_IS_ACTIVATED_AND_SIGNALS_SURVIVAL	0.95734209
REACTOME_OXYGEN_DEPENDENT_PROLINE_HYDROXYLATION_OF_HYPOXIA_INDUCIBLE_FACTOR_ALPHA	0.95717917
PID_NEPHRIN_NEPH1_PATHWAY	0.95717393
BIOCARTA_STATHMIN_PATHWAY	0.95716636
REACTOME_CDT1_ASSOCIATION_WITH_THE_CDC6_ORC_ORIGIN_COMPLEX	0.95713902
REACTOME_HS_GAG_DEGRADATION	0.95707152
REACTOME_SULFUR_AMINO_ACID_METABOLISM	0.95705057
BIOCARTA_ACH_PATHWAY	0.95703661
REACTOME_P53_DEPENDENT_G1_DNA_DAMAGE_RESPONSE	0.9570145
PID_PI3KCIAKTPATHWAY	0.95699646
REACTOME_NEGATIVE_REGULATORS_OF_RIG_I_MDA5_SIGNALING	0.9569406
REACTOME_ER_PHAGOSOME_PATHWAY	0.95654145
BIOCARTA_ECM_PATHWAY	0.95642042
BIOCARTA_STRESS_PATHWAY	0.95616033
REACTOME_CELL_EXTRACELLULAR_MATRIX_INTERACTIONS	0.95608527
REACTOME_DESTABILIZATION_OF_MRNA_BY_AUF1_HNRNP_D0	0.95587522
REACTOME_NOTCH_HLH_TRANSCRIPTION_PATHWAY	0.9556256
REACTOME_AUTODEGRADATION_OF_CDH1_BY_CDH1_APC_C	0.9555453
REACTOME_THE_NLRP3_INFLAMMASOME	0.95540275
REACTOME_APC_C_CDH1_MEDIATED_DEGRADATION_OF_CDC20_AND_OTHER_APC_C_CDH1_TARGETED_PROTEINS_IN_LATE_MITOSIS_EARLY_G1	0.95526077
REACTOME_SYNTHESIS_OF_BILE_ACIDS_AND_BILE_SALTS	0.95511763
PID_ANTHRAXPATHWAY	0.95507341
REACTOME_RESPIRATORY_ELECTRON_TRANSPORT	0.95499719
REACTOME_MYOGENESIS	0.95486394
REACTOME_ELONGATION_ARREST_AND_RECOVERY	0.954843
REACTOME_INHIBITION_OF_INSULIN_SECRETION_BY_ADRENALINE_NORADRENALINE	0.95475339
BIOCARTA_G2_PATHWAY	0.95455032
REACTOME_DOUBLE_STRAND_BREAK_REPAIR	0.95451017
REACTOME_P75NTR_RECRUITS_SIGNALLING_COMPLEXES	0.95448981
REACTOME_SYNTHESIS_OF_VERY_LONG_CHAIN_FATTY_ACYL_COAS	0.95440486
PID_VEGFR1_PATHWAY	0.95433445
REACTOME_REGULATION_OF_ORNITHINE_DECARBOXYLASE_ODC	0.95426463
REACTOME_PKA_MEDIATED_PHOSPHORYLATION_OF_CREB	0.9539865
PID_WNT_NONCANONICAL_PATHWAY	0.9539545
REACTOME_G_BETA_GAMMA_SIGNALLING_THROUGH_PI3KGAMMA	0.95388525
REACTOME_AUTODEGRADATION_OF_THE_E3_UBIQUITIN_LIGASE_COP1	0.95385849
REACTOME_SIGNALLING_TO_P38_VIA_RIT_AND_RIN	0.953823
SIG_CD40PATHWAYMAP	0.95379623
BIOCARTA_TH1TH2_PATHWAY	0.95377645
KEGG_BASAL_TRANSCRIPTION_FACTORS	0.95377354
REACTOME_INITIAL_TRIGGERING_OF_COMPLEMENT	0.95369731
BIOCARTA_IGF1R_PATHWAY	0.95368277
PID_LPA4_PATHWAY	0.95363796
PID_ERBB_NETWORK_PATHWAY	0.95348494
REACTOME_BILE_SALT_AND_ORGANIC_ANION_SLC_TRANSPORTERS	0.95313116
BIOCARTA_RB_PATHWAY	0.95310323
REACTOME_AMINE_DERIVED_HORMONES	0.95300199
REACTOME_METABOLISM_OF_PORPHYRINS	0.9528862
PID_BARD1PATHWAY	0.95288096
ST_JNK_MAPK_PATHWAY	0.95279718
REACTOME_P53_INDEPENDENT_G1_S_DNA_DAMAGE_CHECKPOINT	0.95274481
REACTOME_ROLE_OF_DCC_IN_REGULATING_APOPTOSIS	0.95269942
REACTOME_PYRUVATE_METABOLISM	0.95262495
REACTOME_PHOSPHORYLATION_OF_CD3_AND_TCR_ZETA_CHAINS	0.95262262
REACTOME_ENDOGENOUS_STEROLS	0.95249112
KEGG_PROPANOATE_METABOLISM	0.95235089
ST_GRANULE_CELL_SURVIVAL_PATHWAY	0.95233285
REACTOME_PKB_MEDIATED_EVENTS	0.95222521
REACTOME_THROMBOXANE_SIGNALLING_THROUGH_TP_RECEPTOR	0.95221415
BIOCARTA_PROTEASOME_PATHWAY	0.95216411
REACTOME_TAK1_ACTIVATES_NFKB_BY_PHOSPHORYLATION_AND_ACTIVATION_OF_IKKS_COMPLEX	0.9521612
REACTOME_RNA_POL_III_TRANSCRIPTION	0.95214782
KEGG_ETHER_LIPID_METABOLISM	0.952078
BIOCARTA_CTL_PATHWAY	0.95206869
REACTOME_ADENYLATE_CYCLASE_INHIBITORY_PATHWAY	0.95196221
KEGG_GLYCOSAMINOGLYCAN_BIOSYNTHESIS_KERATAN_SULFATE	0.95193428
REACTOME_N_GLYCAN_ANTENNAE_ELONGATION_IN_THE_MEDIAL_TRANS_GOLGI	0.95179405
KEGG_BIOSYNTHESIS_OF_UNSATURATED_FATTY_ACIDS	0.95170153
REACTOME_GLYCOLYSIS	0.95160494
REACTOME_CD28_DEPENDENT_PI3K_AKT_SIGNALING	0.95149963
BIOCARTA_P53HYPOXIA_PATHWAY	0.95149963
REACTOME_NEPHRIN_INTERACTIONS	0.95146239
REACTOME_ADP_SIGNALLING_THROUGH_P2RY1	0.95136347
REACTOME_ADP_SIGNALLING_THROUGH_P2RY12	0.95128085
REACTOME_CS_DS_DEGRADATION	0.9512471
REACTOME_EICOSANOID_LIGAND_BINDING_RECEPTORS	0.95121277
KEGG_RNA_DEGRADATION	0.95102774
REACTOME_SYNTHESIS_SECRETION_AND_INACTIVATION_OF_GIP	0.95090031
BIOCARTA_NO2IL12_PATHWAY	0.95066291
REACTOME_SIGNAL_ATTENUATION	0.95029285
BIOCARTA_HSP27_PATHWAY	0.9502591
PID_TGFBRPATHWAY	0.95023001
BIOCARTA_NKCELLS_PATHWAY	0.95022419
BIOCARTA_TALL1_PATHWAY	0.95019684
PID_ATM_PATHWAY	0.95008222
REACTOME_CASPASE_MEDIATED_CLEAVAGE_OF_CYTOSKELETAL_PROTEINS	0.9500764
REACTOME_PROLONGED_ERK_ACTIVATION_EVENTS	0.95005836
PID_INTEGRIN5_PATHWAY	0.94996061
REACTOME_PECAM1_INTERACTIONS	0.94985529
REACTOME_TRAFFICKING_OF_GLUR2_CONTAINING_AMPA_RECEPTORS	0.94982736
REACTOME_POST_TRANSLATIONAL_MODIFICATION_SYNTHESIS_OF_GPI_ANCHORED_PROTEINS	0.94974939
BIOCARTA_RAC1_PATHWAY	0.94972845
REACTOME_APOPTOTIC_CLEAVAGE_OF_CELL_ADHESION_PROTEINS	0.94968655
REACTOME_ARMS_MEDIATED_ACTIVATION	0.94968422
REACTOME_TRANSPORT_OF_MATURE_TRANSCRIPT_TO_CYTOPLASM	0.94931242
BIOCARTA_SKP2E2F_PATHWAY	0.94926005
REACTOME_YAP1_AND_WWTR1_TAZ_STIMULATED_GENE_EXPRESSION	0.94915648
REACTOME_GLUCURONIDATION	0.94914135
KEGG_HOMOLOGOUS_RECOMBINATION	0.94905116
REACTOME_DSCAM_INTERACTIONS	0.94873812
BIOCARTA_ATRBRCA_PATHWAY	0.94863106
KEGG_CITRATE_CYCLE_TCA_CYCLE	0.94853505
BIOCARTA_TFF_PATHWAY	0.94851585
BIOCARTA_NGF_PATHWAY	0.94844137
BIOCARTA_CFTR_PATHWAY	0.94839249
BIOCARTA_FREE_PATHWAY	0.94812484
REACTOME_TIE2_SIGNALING	0.94805676
BIOCARTA_LYM_PATHWAY	0.94792526
KEGG_PROTEASOME	0.94785078
REACTOME_RECEPTOR_LIGAND_BINDING_INITIATES_THE_SECOND_PROTEOLYTIC_CLEAVAGE_OF_NOTCH_RECEPTOR	0.94779143
BIOCARTA_PTDINS_PATHWAY	0.94770823
REACTOME_EGFR_DOWNREGULATION	0.94763433
REACTOME_MITOCHONDRIAL_PROTEIN_IMPORT	0.94758545
REACTOME_PEROXISOMAL_LIPID_METABOLISM	0.94747781
REACTOME_SHC1_EVENTS_IN_ERBB4_SIGNALING	0.94728987
KEGG_PANTOTHENATE_AND_COA_BIOSYNTHESIS	0.9470228
REACTOME_TANDEM_PORE_DOMAIN_POTASSIUM_CHANNELS	0.94700883
REACTOME_KERATAN_SULFATE_DEGRADATION	0.94690759
REACTOME_METAL_ION_SLC_TRANSPORTERS	0.94689479
BIOCARTA_PITX2_PATHWAY	0.94683369
BIOCARTA_AKT_PATHWAY	0.94675572
REACTOME_HYALURONAN_METABOLISM	0.94657767
KEGG_DNA_REPLICATION	0.94653578
BIOCARTA_AKAP13_PATHWAY	0.94652996
REACTOME_NUCLEOTIDE_EXCISION_REPAIR	0.94626056
PID_ATR_PATHWAY	0.94622565
ST_GAQ_PATHWAY	0.94620703
KEGG_GLYCOSPHINGOLIPID_BIOSYNTHESIS_GANGLIO_SERIES	0.94588235
REACTOME_G_BETA_GAMMA_SIGNALLING_THROUGH_PLC_BETA	0.94572408
REACTOME_TRANSLOCATION_OF_ZAP_70_TO_IMMUNOLOGICAL_SYNAPSE	0.94556349
BIOCARTA_EPHA4_PATHWAY	0.94551985
BIOCARTA_EIF4_PATHWAY	0.94550181
PID_MYC_PATHWAY	0.94549716
REACTOME_ACTIVATION_OF_BH3_ONLY_PROTEINS	0.94544014
REACTOME_ASSOCIATION_OF_TRIC_CCT_WITH_TARGET_PROTEINS_DURING_BIOSYNTHESIS	0.94536682
PID_HEDGEHOG_2PATHWAY	0.94529351
REACTOME_N_GLYCAN_ANTENNAE_ELONGATION	0.94515153
BIOCARTA_ARAP_PATHWAY	0.94504156
PID_TCRRASPATHWAY	0.94503167
BIOCARTA_TRKA_PATHWAY	0.94495312
REACTOME_METABOLISM_OF_NON_CODING_RNA	0.94468255
REACTOME_PROLACTIN_RECEPTOR_SIGNALING	0.9444149
BIOCARTA_PGC1A_PATHWAY	0.94423219
REACTOME_CTNNB1_PHOSPHORYLATION_CASCADE	0.94421241
REACTOME_PLATELET_SENSITIZATION_BY_LDL	0.94414783
REACTOME_RIP_MEDIATED_NFKB_ACTIVATION_VIA_DAI	0.94402796
KEGG_NICOTINATE_AND_NICOTINAMIDE_METABOLISM	0.94402447
BIOCARTA_BARRESTIN_SRC_PATHWAY	0.94390461
REACTOME_IRAK1_RECRUITS_IKK_COMPLEX	0.94380976
REACTOME_RNA_POL_III_TRANSCRIPTION_INITIATION_FROM_TYPE_2_PROMOTER	0.94366721
REACTOME_SYNTHESIS_OF_PC	0.94356422
REACTOME_OTHER_SEMAPHORIN_INTERACTIONS	0.94344494
BIOCARTA_PLCE_PATHWAY	0.94338152
KEGG_LINOLEIC_ACID_METABOLISM	0.94315692
REACTOME_SIGNALING_BY_FGFR1_FUSION_MUTANTS	0.94266699
REACTOME_BOTULINUM_NEUROTOXICITY	0.94238712
REACTOME_TRANSCRIPTION_COUPLED_NER_TC_NER	0.94231846
REACTOME_CRMPS_IN_SEMA3A_SIGNALING	0.94231555
REACTOME_SYNTHESIS_SECRETION_AND_INACTIVATION_OF_GLP1	0.94230275
BIOCARTA_ATM_PATHWAY	0.94217474
BIOCARTA_CD40_PATHWAY	0.94204324
REACTOME_AKT_PHOSPHORYLATES_TARGETS_IN_THE_CYTOSOL	0.94176394
BIOCARTA_SODD_PATHWAY	0.94168656
BIOCARTA_ERK5_PATHWAY	0.94166852
REACTOME_G1_S_SPECIFIC_TRANSCRIPTION	0.94164466
BIOCARTA_TCRA_PATHWAY	0.94139039
BIOCARTA_TNFR2_PATHWAY	0.94119023
REACTOME_HYALURONAN_UPTAKE_AND_DEGRADATION	0.94118907
KEGG_SULFUR_METABOLISM	0.94110993
REACTOME_SHC1_EVENTS_IN_EGFR_SIGNALING	0.94099938
REACTOME_TRANSPORT_OF_RIBONUCLEOPROTEINS_INTO_THE_HOST_NUCLEUS	0.94069099
PID_EPHA2_FWDPATHWAY	0.9404792
REACTOME_SYNTHESIS_OF_PA	0.94046058
BIOCARTA_RELA_PATHWAY	0.94036399
REACTOME_DARPP_32_EVENTS	0.94032326
BIOCARTA_ETS_PATHWAY	0.94032035
BIOCARTA_RANKL_PATHWAY	0.94020107
REACTOME_TRAF6_MEDIATED_NFKB_ACTIVATION	0.94014055
REACTOME_ACTIVATION_OF_IRF3_IRF7_MEDIATED_BY_TBK1_IKK_EPSILON	0.93988163
BIOCARTA_DREAM_PATHWAY	0.93985719
BIOCARTA_BCELLSURVIVAL_PATHWAY	0.93981529
REACTOME_RNA_POL_II_TRANSCRIPTION_PRE_INITIATION_AND_PROMOTER_OPENING	0.93971696
BIOCARTA_IL12_PATHWAY	0.93960117
KEGG_RIBOFLAVIN_METABOLISM	0.9395488
REACTOME_SYNTHESIS_OF_BILE_ACIDS_AND_BILE_SALTS_VIA_7ALPHA_HYDROXYCHOLESTEROL	0.93928347
BIOCARTA_VIP_PATHWAY	0.93914092
BIOCARTA_EPONFKB_PATHWAY	0.93911648
BIOCARTA_PTEN_PATHWAY	0.93907691
REACTOME_SHC_RELATED_EVENTS	0.93883137
REACTOME_SIGNAL_REGULATORY_PROTEIN_SIRP_FAMILY_INTERACTIONS	0.93881508
REACTOME_ROLE_OF_SECOND_MESSENGERS_IN_NETRIN1_SIGNALING	0.93868823
BIOCARTA_AGPCR_PATHWAY	0.93859979
KEGG_TERPENOID_BACKBONE_BIOSYNTHESIS	0.93854684
REACTOME_EARLY_PHASE_OF_HIV_LIFE_CYCLE	0.9384584
BIOCARTA_CHEMICAL_PATHWAY	0.93823962
REACTOME_ADENYLATE_CYCLASE_ACTIVATING_PATHWAY	0.9381471
REACTOME_SYNTHESIS_AND_INTERCONVERSION_OF_NUCLEOTIDE_DI_AND_TRIPHOSPHATES	0.93811277
REACTOME_RNA_POL_III_TRANSCRIPTION_INITIATION_FROM_TYPE_3_PROMOTER	0.93806157
REACTOME_PROTEOLYTIC_CLEAVAGE_OF_SNARE_COMPLEX_PROTEINS	0.93793181
BIOCARTA_MTOR_PATHWAY	0.93779449
REACTOME_CHOLESTEROL_BIOSYNTHESIS	0.93774329
PID_SYNDECAN_3_PATHWAY	0.93769209
BIOCARTA_IGF1MTOR_PATHWAY	0.93764088
REACTOME_PURINE_RIBONUCLEOSIDE_MONOPHOSPHATE_BIOSYNTHESIS	0.93762692
REACTOME_TRANSPORT_OF_MATURE_MRNA_DERIVED_FROM_AN_INTRONLESS_TRANSCRIPT	0.93757921
BIOCARTA_SET_PATHWAY	0.93754197
BIOCARTA_BARR_MAPK_PATHWAY	0.93726558
REACTOME_REGULATION_OF_GLUCOKINASE_BY_GLUCOKINASE_REGULATORY_PROTEIN	0.93725045
REACTOME_ENDOSOMAL_SORTING_COMPLEX_REQUIRED_FOR_TRANSPORT_ESCRT	0.9370404
BIOCARTA_PYK2_PATHWAY	0.9366843
REACTOME_TRAF3_DEPENDENT_IRF_ACTIVATION_PATHWAY	0.93627817
REACTOME_OPSINS	0.93626944
REACTOME_DOWNREGULATION_OF_TGF_BETA_RECEPTOR_SIGNALING	0.93619496
REACTOME_TRNA_AMINOACYLATION	0.93612979
REACTOME_RETROGRADE_NEUROTROPHIN_SIGNALLING	0.9361135
BIOCARTA_ASBCELL_PATHWAY	0.93611292
BIOCARTA_NDKDYNAMIN_PATHWAY	0.93587552
REACTOME_RAS_ACTIVATION_UOPN_CA2_INFUX_THROUGH_NMDA_RECEPTOR	0.93555026
BIOCARTA_CACAM_PATHWAY	0.93554677
PID_S1P_S1P4_PATHWAY	0.9353949
BIOCARTA_P27_PATHWAY	0.93535999
REACTOME_ELEVATION_OF_CYTOSOLIC_CA2_LEVELS	0.93525467
PID_NFKAPPABATYPICALPATHWAY	0.93519358
BIOCARTA_GLEEVEC_PATHWAY	0.93517961
PID_CIRCADIANPATHWAY	0.93511328
BIOCARTA_UCALPAIN_PATHWAY	0.93507604
REACTOME_AMINO_ACID_SYNTHESIS_AND_INTERCONVERSION_TRANSAMINATION	0.93488403
BIOCARTA_41BB_PATHWAY	0.93472925
ST_G_ALPHA_S_PATHWAY	0.93460299
KEGG_PROTEIN_EXPORT	0.93413925
REACTOME_PYRIMIDINE_CATABOLISM	0.93407292
REACTOME_UNBLOCKING_OF_NMDA_RECEPTOR_GLUTAMATE_BINDING_AND_ACTIVATION	0.93400542
REACTOME_INSULIN_SYNTHESIS_AND_PROCESSING	0.93389894
REACTOME_TGF_BETA_RECEPTOR_SIGNALING_IN_EMT_EPITHELIAL_TO_MESENCHYMAL_TRANSITION	0.93370111
REACTOME_DEADENYLATION_DEPENDENT_MRNA_DECAY	0.93360219
REACTOME_EXTENSION_OF_TELOMERES	0.93354575
REACTOME_SYNTHESIS_OF_PIPS_AT_THE_GOLGI_MEMBRANE	0.93347709
BIOCARTA_EGFR_SMRTE_PATHWAY	0.93338283
REACTOME_SIGNALING_BY_NOTCH4	0.9332426
REACTOME_NEP_NS2_INTERACTS_WITH_THE_CELLULAR_EXPORT_MACHINERY	0.93323155
KEGG_PRIMARY_BILE_ACID_BIOSYNTHESIS	0.93322631
REACTOME_BIOSYNTHESIS_OF_THE_N_GLYCAN_PRECURSOR_DOLICHOL_LIPID_LINKED_OLIGOSACCHARIDE_LLO_AND_TRANSFER_TO_A_NASCENT_PROTEIN	0.93316172
REACTOME_GLOBAL_GENOMIC_NER_GG_NER	0.9326846
REACTOME_BRANCHED_CHAIN_AMINO_ACID_CATABOLISM	0.93257172
PID_ERB_GENOMIC_PATHWAY	0.93224238
SA_PTEN_PATHWAY	0.93218769
REACTOME_ZINC_TRANSPORTERS	0.93192352
PID_VEGF_VEGFR_PATHWAY	0.93184905
REACTOME_G2_M_CHECKPOINTS	0.93172569
REACTOME_PURINE_CATABOLISM	0.93162561
SA_PROGRAMMED_CELL_DEATH	0.93158605
REACTOME_NEF_MEDIATES_DOWN_MODULATION_OF_CELL_SURFACE_RECEPTORS_BY_RECRUITING_THEM_TO_CLATHRIN_ADAPTERS	0.93147607
BIOCARTA_SPRY_PATHWAY	0.93144116
REACTOME_SYNTHESIS_OF_BILE_ACIDS_AND_BILE_SALTS_VIA_24_HYDROXYCHOLESTEROL	0.93097742
REACTOME_GAMMA_CARBOXYLATION_TRANSPORT_AND_AMINO_TERMINAL_CLEAVAGE_OF_PROTEINS	0.93073537
REACTOME_INHIBITION_OF_REPLICATION_INITIATION_OF_DAMAGED_DNA_BY_RB1_E2F1	0.93072373
REACTOME_CLEAVAGE_OF_GROWING_TRANSCRIPT_IN_THE_TERMINATION_REGION_	0.93058757
REACTOME_MRNA_SPLICING_MINOR_PATHWAY	0.93051659
REACTOME_HORMONE_LIGAND_BINDING_RECEPTORS	0.93031119
REACTOME_RNA_POL_III_TRANSCRIPTION_TERMINATION	0.93024137
BIOCARTA_EIF_PATHWAY	0.93020006
REACTOME_SIGNALING_BY_ROBO_RECEPTOR	0.93013605
PID_P38_MK2PATHWAY	0.93002899
REACTOME_SIGNALING_BY_HIPPO	0.92994986
REACTOME_DCC_MEDIATED_ATTRACTIVE_SIGNALING	0.92986723
BIOCARTA_PLATELETAPP_PATHWAY	0.9297206
REACTOME_FORMATION_OF_THE_HIV1_EARLY_ELONGATION_COMPLEX	0.92941804
BIOCARTA_CDK5_PATHWAY	0.9293709
REACTOME_P38MAPK_EVENTS	0.92935519
ST_STAT3_PATHWAY	0.92929584
REACTOME_HOMOLOGOUS_RECOMBINATION_REPAIR_OF_REPLICATION_INDEPENDENT_DOUBLE_STRAND_BREAKS	0.92919402
REACTOME_TRAFFICKING_AND_PROCESSING_OF_ENDOSOMAL_TLR	0.92904914
KEGG_GLYCOSPHINGOLIPID_BIOSYNTHESIS_GLOBO_SERIES	0.92899968
BIOCARTA_NUCLEARRS_PATHWAY	0.92897
KEGG_AMINOACYL_TRNA_BIOSYNTHESIS	0.92868722
REACTOME_ACTIVATION_OF_ATR_IN_RESPONSE_TO_REPLICATION_STRESS	0.92857957
KEGG_STEROID_BIOSYNTHESIS	0.92846029
REACTOME_SYNTHESIS_OF_GLYCOSYLPHOSPHATIDYLINOSITOL_GPI	0.92842945
REACTOME_ANDROGEN_BIOSYNTHESIS	0.9282066
REACTOME_ENERGY_DEPENDENT_REGULATION_OF_MTOR_BY_LKB1_AMPK	0.92811467
PID_TCRJNKPATHWAY	0.92811234
REACTOME_FACILITATIVE_NA_INDEPENDENT_GLUCOSE_TRANSPORTERS	0.92802855
BIOCARTA_VDR_PATHWAY	0.92791684
BIOCARTA_IL3_PATHWAY	0.92789065
REACTOME_RNA_POL_III_CHAIN_ELONGATION	0.92781501
REACTOME_CYCLIN_A_B1_ASSOCIATED_EVENTS_DURING_G2_M_TRANSITION	0.92767129
REACTOME_ACYL_CHAIN_REMODELLING_OF_PC	0.92764918
BIOCARTA_LONGEVITY_PATHWAY	0.92707547
BIOCARTA_CARM1_PATHWAY	0.9270167
BIOCARTA_FIBRINOLYSIS_PATHWAY	0.92688927
REACTOME_APOPTOSIS_INDUCED_DNA_FRAGMENTATION	0.92684389
REACTOME_NFKB_ACTIVATION_THROUGH_FADD_RIP1_PATHWAY_MEDIATED_BY_CASPASE_8_AND10	0.92669784
REACTOME_ACTIVATED_NOTCH1_TRANSMITS_SIGNAL_TO_THE_NUCLEUS	0.92669493
REACTOME_MRNA_CAPPING	0.92666467
BIOCARTA_CDMAC_PATHWAY	0.92648081
REACTOME_XENOBIOTICS	0.92647673
KEGG_FOLATE_BIOSYNTHESIS	0.92634349
REACTOME_ADVANCED_GLYCOSYLATION_ENDPRODUCT_RECEPTOR_SIGNALING	0.92615031
REACTOME_TRAF6_MEDIATED_INDUCTION_OF_TAK1_COMPLEX	0.92612994
BIOCARTA_AHSP_PATHWAY	0.92608863
BIOCARTA_BARRESTIN_PATHWAY	0.92607467
KEGG_BASE_EXCISION_REPAIR	0.92591407
KEGG_NON_HOMOLOGOUS_END_JOINING	0.92586287
REACTOME_SOS_MEDIATED_SIGNALLING	0.92573079
REACTOME_ACTIVATED_AMPK_STIMULATES_FATTY_ACID_OXIDATION_IN_MUSCLE	0.92562198
BIOCARTA_ACE2_PATHWAY	0.9254352
BIOCARTA_CDC42RAC_PATHWAY	0.9250727
REACTOME_PREFOLDIN_MEDIATED_TRANSFER_OF_SUBSTRATE_TO_CCT_TRIC	0.92503197
KEGG_MISMATCH_REPAIR	0.92498717
REACTOME_NOREPINEPHRINE_NEUROTRANSMITTER_RELEASE_CYCLE	0.92487487
REACTOME_SEMA3A_PAK_DEPENDENT_AXON_REPULSION	0.92476199
PID_NFKAPPABCANONICALPATHWAY	0.92462933
REACTOME_RECYCLING_OF_BILE_ACIDS_AND_SALTS	0.92430581
BIOCARTA_CK1_PATHWAY	0.92430465
KEGG_CIRCADIAN_RHYTHM_MAMMAL	0.92377981
KEGG_ALPHA_LINOLENIC_ACID_METABOLISM	0.92367857
REACTOME_SYNTHESIS_OF_PIPS_AT_THE_EARLY_ENDOSOME_MEMBRANE	0.92355463
REACTOME_ABACAVIR_TRANSPORT_AND_METABOLISM	0.92341906
REACTOME_NRIF_SIGNALS_CELL_DEATH_FROM_THE_NUCLEUS	0.9233888
REACTOME_IL_6_SIGNALING	0.9231642
REACTOME_DOPAMINE_NEUROTRANSMITTER_RELEASE_CYCLE	0.92300885
REACTOME_PROSTANOID_LIGAND_RECEPTORS	0.9230071
REACTOME_ENOS_ACTIVATION_AND_REGULATION	0.92270744
BIOCARTA_IL5_PATHWAY	0.92251194
REACTOME_SHC_MEDIATED_SIGNALLING	0.9224008
BIOCARTA_NOS1_PATHWAY	0.92232341
REACTOME_PEPTIDE_HORMONE_BIOSYNTHESIS	0.92209707
BIOCARTA_CALCINEURIN_PATHWAY	0.92190331
REACTOME_PROCESSING_OF_CAPPED_INTRONLESS_PRE_MRNA	0.92183814
REACTOME_REGULATION_OF_AMPK_ACTIVITY_VIA_LKB1	0.92180963
REACTOME_PURINE_SALVAGE	0.92177821
BIOCARTA_GATA3_PATHWAY	0.92166068
REACTOME_ACETYLCHOLINE_NEUROTRANSMITTER_RELEASE_CYCLE	0.92141746
REACTOME_CREB_PHOSPHORYLATION_THROUGH_THE_ACTIVATION_OF_CAMKII	0.92139535
REACTOME_RNA_POL_I_TRANSCRIPTION_INITIATION	0.92093219
BIOCARTA_HIF_PATHWAY	0.92063486
REACTOME_DOWNREGULATION_OF_SMAD2_3_SMAD4_TRANSCRIPTIONAL_ACTIVITY	0.91985109
REACTOME_FORMATION_OF_TRANSCRIPTION_COUPLED_NER_TC_NER_REPAIR_COMPLEX	0.91940539
KEGG_RNA_POLYMERASE	0.91899925
REACTOME_REGULATED_PROTEOLYSIS_OF_P75NTR	0.91889102
REACTOME_ACTIVATION_OF_GENES_BY_ATF4	0.9187153
BIOCARTA_TCAPOPTOSIS_PATHWAY	0.9186478
REACTOME_SEMA3A_PLEXIN_REPULSION_SIGNALING_BY_INHIBITING_INTEGRIN_ADHESION	0.91858613
REACTOME_FORMATION_OF_INCISION_COMPLEX_IN_GG_NER	0.9179391
REACTOME_CYTOSOLIC_TRNA_AMINOACYLATION	0.91781807
REACTOME_APC_CDC20_MEDIATED_DEGRADATION_OF_NEK2A	0.917782
REACTOME_PERK_REGULATED_GENE_EXPRESSION	0.91773719
REACTOME_GAP_JUNCTION_DEGRADATION	0.91771799
REACTOME_SYNTHESIS_OF_PE	0.91722225
REACTOME_GLYCOGEN_BREAKDOWN_GLYCOGENOLYSIS	0.91720595
REACTOME_ABORTIVE_ELONGATION_OF_HIV1_TRANSCRIPT_IN_THE_ABSENCE_OF_TAT	0.91710355
REACTOME_GLUTAMATE_NEUROTRANSMITTER_RELEASE_CYCLE	0.91709482
BIOCARTA_LEPTIN_PATHWAY	0.91708144
REACTOME_ACTIVATED_TAK1_MEDIATES_P38_MAPK_ACTIVATION	0.91699765
REACTOME_CREATION_OF_C4_AND_C2_ACTIVATORS	0.91697845
REACTOME_GABA_A_RECEPTOR_ACTIVATION	0.91674512
BIOCARTA_CELL2CELL_PATHWAY	0.91651354
REACTOME_P130CAS_LINKAGE_TO_MAPK_SIGNALING_FOR_INTEGRINS	0.91630407
REACTOME_REGULATION_OF_PYRUVATE_DEHYDROGENASE_PDH_COMPLEX	0.91625287
REACTOME_SEROTONIN_RECEPTORS	0.91525265
BIOCARTA_SARS_PATHWAY	0.9148052
REACTOME_SPRY_REGULATION_OF_FGF_SIGNALING	0.91414653
REACTOME_DNA_STRAND_ELONGATION	0.91390099
REACTOME_ACYL_CHAIN_REMODELLING_OF_PE	0.91368279
REACTOME_ACTIVATION_OF_THE_PRE_REPLICATIVE_COMPLEX	0.91356351
REACTOME_RAF_MAP_KINASE_CASCADE	0.91350765
BIOCARTA_ACTINY_PATHWAY	0.91313584
REACTOME_JNK_C_JUN_KINASES_PHOSPHORYLATION_AND_ACTIVATION_MEDIATED_BY_ACTIVATED_HUMAN_TAK1	0.91264533
BIOCARTA_LECTIN_PATHWAY	0.91263486
REACTOME_POST_CHAPERONIN_TUBULIN_FOLDING_PATHWAY	0.9122904
REACTOME_HORMONE_SENSITIVE_LIPASE_HSL_MEDIATED_TRIACYLGLYCEROL_HYDROLYSIS	0.91219847
BIOCARTA_PARKIN_PATHWAY	0.91200587
REACTOME_RNA_POL_I_TRANSCRIPTION_TERMINATION	0.91200412
BIOCARTA_RARRXR_PATHWAY	0.91180862
REACTOME_METABOLISM_OF_POLYAMINES	0.91127156
KEGG_LIMONENE_AND_PINENE_DEGRADATION	0.91116159
REACTOME_MITOCHONDRIAL_TRNA_AMINOACYLATION	0.91074323
REACTOME_MRNA_3_END_PROCESSING	0.90978898
REACTOME_MICRORNA_MIRNA_BIOGENESIS	0.90943521
REACTOME_REGULATORY_RNA_PATHWAYS	0.90943521
PID_ALK2PATHWAY	0.9090797
REACTOME_ACTIVATION_OF_RAC	0.90871312
REACTOME_THE_ACTIVATION_OF_ARYLSULFATASES	0.90863399
REACTOME_REGULATION_OF_RHEB_GTPASE_ACTIVITY_BY_AMPK	0.90803467
REACTOME_VEGF_LIGAND_RECEPTOR_INTERACTIONS	0.90759595
REACTOME_LAGGING_STRAND_SYNTHESIS	0.90730328
PID_DNAPK_PATHWAY	0.90722007
REACTOME_NEGATIVE_REGULATION_OF_THE_PI3K_AKT_NETWORK	0.90609824
REACTOME_IL_7_SIGNALING	0.90584804
REACTOME_FORMATION_OF_TUBULIN_FOLDING_INTERMEDIATES_BY_CCT_TRIC	0.90546518
REACTOME_RAP1_SIGNALLING	0.90520567
REACTOME_SLBP_DEPENDENT_PROCESSING_OF_REPLICATION_DEPENDENT_HISTONE_PRE_MRNAS	0.90518472
REACTOME_CITRIC_ACID_CYCLE_TCA_CYCLE	0.9046593
REACTOME_SYNTHESIS_SECRETION_AND_DEACYLATION_OF_GHRELIN	0.90452955
REACTOME_DEADENYLATION_OF_MRNA	0.90420603
BIOCARTA_CCR5_PATHWAY	0.90372018
ST_INTERLEUKIN_13_PATHWAY	0.90365734
ST_IL_13_PATHWAY	0.90365734
REACTOME_DESTABILIZATION_OF_MRNA_BY_KSRP	0.90346358
REACTOME_VIRAL_MESSENGER_RNA_SYNTHESIS	0.90247267
REACTOME_INHIBITION_OF_THE_PROTEOLYTIC_ACTIVITY_OF_APC_C_REQUIRED_FOR_THE_ONSET_OF_ANAPHASE_BY_MITOTIC_SPINDLE_CHECKPOINT_COMPONENTS	0.9020613
BIOCARTA_GLYCOLYSIS_PATHWAY	0.90150097
BIOCARTA_ARENRF2_PATHWAY	0.90113381
REACTOME_ALPHA_LINOLENIC_ACID_ALA_METABOLISM	0.90108494
REACTOME_APC_C_CDC20_MEDIATED_DEGRADATION_OF_CYCLIN_B	0.90083939
REACTOME_ACYL_CHAIN_REMODELLING_OF_PG	0.90021796
REACTOME_ACTIVATION_OF_CHAPERONES_BY_ATF6_ALPHA	0.90016676
BIOCARTA_VITCB_PATHWAY	0.89913105
REACTOME_GRB2_SOS_PROVIDES_LINKAGE_TO_MAPK_SIGNALING_FOR_INTERGRINS_	0.89912407
REACTOME_PROCESSIVE_SYNTHESIS_ON_THE_LAGGING_STRAND	0.89814014
BIOCARTA_P35ALZHEIMERS_PATHWAY	0.89787307
REACTOME_SIGNALING_BY_BMP	0.89771538
PID_ARF_3PATHWAY	0.89733427
REACTOME_SIGNALING_BY_NOTCH3	0.89653828
REACTOME_COPI_MEDIATED_TRANSPORT	0.89590638
REACTOME_FORMATION_OF_ATP_BY_CHEMIOSMOTIC_COUPLING	0.89474615
REACTOME_SYNTHESIS_OF_SUBSTRATES_IN_N_GLYCAN_BIOSYTHESIS	0.89468797
REACTOME_CD28_DEPENDENT_VAV1_PATHWAY	0.89398857
REACTOME_ACYL_CHAIN_REMODELLING_OF_PS	0.89172921
PID_SMAD2_3PATHWAY	0.89100246
REACTOME_SYNTHESIS_OF_PIPS_AT_THE_LATE_ENDOSOME_MEMBRANE	0.89057363
REACTOME_ANTIGEN_PRESENTATION_FOLDING_ASSEMBLY_AND_PEPTIDE_LOADING_OF_CLASS_I_MHC	0.89055734
BIOCARTA_RAB_PATHWAY	0.88937675
REACTOME_CONVERSION_FROM_APC_C_CDC20_TO_APC_C_CDH1_IN_LATE_ANAPHASE	0.88905323
ST_INTERFERON_GAMMA_PATHWAY	0.88890311
PID_P38_MKK3_6PATHWAY	0.88877627
BIOCARTA_MEF2D_PATHWAY	0.88802741
BIOCARTA_MCM_PATHWAY	0.88664084
REACTOME_PHOSPHORYLATION_OF_THE_APC_C	0.8858018
REACTOME_REPAIR_SYNTHESIS_FOR_GAP_FILLING_BY_DNA_POL_IN_TC_NER	0.88568833
REACTOME_RESOLUTION_OF_AP_SITES_VIA_THE_MULTIPLE_NUCLEOTIDE_PATCH_REPLACEMENT_PATHWAY	0.88568193
REACTOME_MEMBRANE_BINDING_AND_TARGETTING_OF_GAG_PROTEINS	0.88472652
BIOCARTA_ETC_PATHWAY	0.88470848
REACTOME_BASE_EXCISION_REPAIR	0.8844449
REACTOME_TRANSPORT_OF_ORGANIC_ANIONS	0.88273772
BIOCARTA_SALMONELLA_PATHWAY	0.88122954
REACTOME_TETRAHYDROBIOPTERIN_BH4_SYNTHESIS_RECYCLING_SALVAGE_AND_REGULATION	0.88018917
ST_PAC1_RECEPTOR_PATHWAY	0.88009724
REACTOME_MRNA_DECAY_BY_5_TO_3_EXORIBONUCLEASE	0.88007338
BIOCARTA_RNA_PATHWAY	0.87920932
REACTOME_MITOCHONDRIAL_FATTY_ACID_BETA_OXIDATION	0.87862746
REACTOME_REGULATION_OF_INSULIN_SECRETION_BY_ACETYLCHOLINE	0.87824343
REACTOME_PROCESSING_OF_INTRONLESS_PRE_MRNAS	0.87760979
BIOCARTA_PTC1_PATHWAY	0.87702735
REACTOME_DESTABILIZATION_OF_MRNA_BY_BRF1	0.87700931
REACTOME_REMOVAL_OF_THE_FLAP_INTERMEDIATE_FROM_THE_C_STRAND	0.87653102
BIOCARTA_FEEDER_PATHWAY	0.87598
REACTOME_REGULATION_OF_THE_FANCONI_ANEMIA_PATHWAY	0.87590203
BIOCARTA_IL4_PATHWAY	0.87515376
BIOCARTA_SHH_PATHWAY	0.87418438
REACTOME_POL_SWITCHING	0.87388297
BIOCARTA_EIF2_PATHWAY	0.87378057
REACTOME_DESTABILIZATION_OF_MRNA_BY_TRISTETRAPROLIN_TTP	0.87355946
REACTOME_ACYL_CHAIN_REMODELLING_OF_PI	0.87248884
KEGG_GLYOXYLATE_AND_DICARBOXYLATE_METABOLISM	0.87188836
REACTOME_ACTIVATION_OF_CHAPERONE_GENES_BY_ATF6_ALPHA	0.87045233
REACTOME_IKK_COMPLEX_RECRUITMENT_MEDIATED_BY_RIP1	0.87010554
KEGG_VALINE_LEUCINE_AND_ISOLEUCINE_BIOSYNTHESIS	0.86904073
REACTOME_GLYCOPROTEIN_HORMONES	0.86829653
REACTOME_SIGNALING_BY_NOTCH2	0.86796837
REACTOME_N_GLYCAN_TRIMMING_IN_THE_ER_AND_CALNEXIN_CALRETICULIN_CYCLE	0.86572239
REACTOME_MTORC1_MEDIATED_SIGNALLING	0.86436374
REACTOME_ERKS_ARE_INACTIVATED	0.86297077
BIOCARTA_DNAFRAGMENT_PATHWAY	0.86250644
BIOCARTA_KREB_PATHWAY	0.86236156
REACTOME_CALNEXIN_CALRETICULIN_CYCLE	0.86149226
REACTOME_RECRUITMENT_OF_NUMA_TO_MITOTIC_CENTROSOMES	0.86079345
BIOCARTA_AKAPCENTROSOME_PATHWAY	0.85839793
ST_JAK_STAT_PATHWAY	0.85819486
REACTOME_ASSOCIATION_OF_LICENSING_FACTORS_WITH_THE_PRE_REPLICATIVE_COMPLEX	0.85816286
PID_RANBP2PATHWAY	0.85784691
BIOCARTA_SRCRPTP_PATHWAY	0.85543975
ST_TYPE_I_INTERFERON_PATHWAY	0.85392924
BIOCARTA_RANMS_PATHWAY	0.85257235
REACTOME_ETHANOL_OXIDATION	0.85229829
REACTOME_MRNA_DECAY_BY_3_TO_5_EXORIBONUCLEASE	0.85148485
REACTOME_INTEGRATION_OF_PROVIRUS	0.84892292
REACTOME_CLASS_C_3_METABOTROPIC_GLUTAMATE_PHEROMONE_RECEPTORS	0.84771672
REACTOME_BASE_FREE_SUGAR_PHOSPHATE_REMOVAL_VIA_THE_SINGLE_NUCLEOTIDE_REPLACEMENT_PATHWAY	0.84768239
BIOCARTA_GABA_PATHWAY	0.84733851
REACTOME_RESOLUTION_OF_AP_SITES_VIA_THE_SINGLE_NUCLEOTIDE_REPLACEMENT_PATHWAY	0.84448158
REACTOME_IRAK2_MEDIATED_ACTIVATION_OF_TAK1_COMPLEX_UPON_TLR7_8_OR_9_STIMULATION	0.84362508
KEGG_OTHER_GLYCAN_DEGRADATION	0.84302169
REACTOME_CDC6_ASSOCIATION_WITH_THE_ORC_ORIGIN_COMPLEX	0.84246253
BIOCARTA_AKAP95_PATHWAY	0.84068378
REACTOME_VITAMIN_B5_PANTOTHENATE_METABOLISM	0.83599224
REACTOME_APOBEC3G_MEDIATED_RESISTANCE_TO_HIV1_INFECTION	0.83368109
REACTOME_NEF_MEDIATED_DOWNREGULATION_OF_MHC_CLASS_I_COMPLEX_CELL_SURFACE_EXPRESSION	0.8313554
REACTOME_ACTIVATION_OF_THE_AP1_FAMILY_OF_TRANSCRIPTION_FACTORS	0.82989085
REACTOME_G2_M_DNA_DAMAGE_CHECKPOINT	0.82615822
REACTOME_TRYPTOPHAN_CATABOLISM	0.82115248
SA_G2_AND_M_PHASES	0.80576053
REACTOME_UNWINDING_OF_DNA	0.80234094
REACTOME_ENDOSOMAL_VACUOLAR_PATHWAY	0.79850765
REACTOME_BINDING_AND_ENTRY_OF_HIV_VIRION	0.75465052
BIOCARTA_NEUROTRANSMITTERS_PATHWAY	0.74328097
REACTOME_E2F_ENABLED_INHIBITION_OF_PRE_REPLICATION_COMPLEX_FORMATION	0.67351419
