Gene Set	AUC
chrYq11	0.99607843
chrY	0.98039216
chrYp11	0.97254902
chr3p26	0.75882353
chrDR52	0.74509804
chrXp22	0.74117647
chr15q11	0.6745098
chrXq23	0.67058824
chr3q28	0.66862745
chr18	0.66666667
chr12q12	0.64313725
chr4q35	0.6254902
chr2q21	0.61568627
chr9q34	0.60588235
chr6p23	0.6
chr4p14	0.59803922
chr21p11	0.59411765
chr4q28	0.59019608
chr15q14	0.58627451
chr8p22	0.57647059
chr4p13	0.57254902
chr5p13	0.57254902
chr12q15	0.56666667
chr12p12	0.56470588
chr4q24	0.56470588
chr10p12	0.5627451
chr5q34	0.5627451
chr19q12	0.56078431
chr6q13	0.56078431
chr1q23	0.55686275
chr1p34	0.54509804
chr7q33	0.54509804
chr2q35	0.54117647
chr3q13	0.54117647
chr1q41	0.52941176
chr18q22	0.52156863
chr16p12	0.52156863
chr22	0.51960784
chr3p24	0.51960784
chr11p12	0.51764706
chr11p13	0.50196078
chr3p11	0.50196078
chr10p13	0.50196078
chr2q34	0.50196078
chr4q33	0.50196078
chr1p35	0.49803922
chr6q24	0.49607843
chr9p22	0.49411765
chr5q33	0.49411765
chr7p12	0.49411765
chr8p11	0.49411765
chr20q12	0.49215686
chrXp21	0.49215686
chr4q27	0.49019608
chr2p24	0.49019608
chr6p24	0.49019608
chr4q21	0.48823529
chr1q43	0.48627451
chr4q22	0.48627451
chr19p13	0.48431373
chrYq28	0.48235294
chr16q12	0.48039216
chr11q22	0.48039216
chr15q13	0.47647059
chr3q26	0.4745098
chr4q11	0.4745098
chr5q15	0.47254902
chr8q13	0.47058824
chr3p12	0.47058824
chr21q11	0.47058824
chr16q22	0.46862745
chr9p23	0.46862745
chrXq27	0.46666667
chr7p13	0.4627451
chrYp22	0.4627451
chr9p13	0.46078431
chrXp11	0.46078431
chr2q36	0.45882353
chr20	0.45686275
chr6p21	0.45490196
chr17q12	0.45490196
chr17p13	0.45294118
chr7p22	0.45294118
chrXq22	0.45098039
chr20p12	0.45098039
chrXq28	0.45098039
chr5q12	0.44901961
chrX	0.44705882
chr1p12	0.44705882
chr13q12	0.44117647
chr2p21	0.44117647
chr4p16	0.44117647
chrXq12	0.43921569
chr3q24	0.4372549
chr17p11	0.43137255
chr4q25	0.43137255
chr6q11	0.42941176
chr13q21	0.42745098
chr3q25	0.42745098
chr14q21	0.42745098
chr10q24	0.4254902
chr15q24	0.42352941
chr2p14	0.42352941
chr6q25	0.42352941
chr3p25	0.42352941
chr5p15	0.42156863
chr8q12	0.42156863
chr12q22	0.42156863
chr1q24	0.41960784
chr7q35	0.41960784
chr4q26	0.41960784
chr13q33	0.41960784
chr8p23	0.41960784
chrXq25	0.41568627
chr18q23	0.41568627
chr5p14	0.41372549
chr11p11	0.40980392
chr5	0.40980392
chr12p13	0.40784314
chr9q22	0.40784314
chr2p11	0.40784314
chr6q23	0.40588235
chrXq11	0.40588235
chr11q12	0.40392157
chr4q23	0.40392157
chr14q32	0.40392157
chr17q22	0.40196078
chr16q23	0.40196078
chr6q16	0.4
chr2q32	0.4
chr6q22	0.39803922
chr8q21	0.39803922
chr14	0.39803922
chr7q34	0.39803922
chr2p22	0.39607843
chr12q13	0.39607843
chr2q24	0.39607843
chrXq24	0.39411765
chr4p12	0.39411765
chr2q22	0.39411765
chr2p12	0.39215686
chr21q22	0.39215686
chr14q24	0.39215686
chr5q11	0.39019608
chr6q21	0.38823529
chr6q15	0.38627451
chr5p12	0.38431373
chr12q23	0.38431373
chr16q11	0.38431373
chr3q12	0.38431373
chr18q11	0.38431373
chr10q23	0.38235294
chr3q11	0.38039216
chr12q14	0.37843137
chr18q21	0.37647059
chr9q21	0.37647059
chr4q12	0.37647059
chr9p24	0.3745098
chr2q37	0.3745098
chr7p14	0.3745098
chr19q13	0.37254902
chr15q15	0.37254902
chr16q21	0.37254902
chr1q21	0.37058824
chr2q23	0.37058824
chr8q24	0.36862745
chr4p15	0.36862745
chr18p11	0.36862745
chr20q13	0.36470588
chr22q13	0.36470588
chr9q33	0.36470588
chr16p11	0.36470588
chr3q22	0.3627451
chr14q22	0.3627451
chr11q11	0.35882353
chr4q34	0.35490196
chr11q14	0.35490196
chr20p11	0.35490196
chr15q21	0.35490196
chr1q31	0.35490196
chr10q11	0.35294118
chr14q31	0.35294118
chr13q31	0.35098039
chr11q23	0.35098039
chr11q21	0.34901961
chr3p21	0.34901961
chr4q31	0.34901961
chr17q21	0.34901961
chrXq21	0.34509804
chr7q21	0.34509804
chr2p15	0.34509804
chr15q12	0.34313725
chr5q14	0.34313725
chr1p13	0.34313725
chr7p21	0.34313725
chr1q22	0.34313725
chr15q23	0.34117647
chr13q22	0.34117647
chr4	0.34117647
chr6q14	0.34117647
chr17p12	0.34117647
chr12	0.33921569
chr9q13	0.33921569
chr12q21	0.33921569
chr2q13	0.33921569
chr7p11	0.3372549
chr16q24	0.33529412
chr8	0.33529412
chr1p22	0.33333333
chr7	0.33333333
chr15q26	0.33137255
chr11q13	0.33137255
chr22q11	0.32941176
chr17q24	0.32941176
chr9p21	0.32745098
chr12p11	0.32745098
chr13q34	0.32745098
chr11p15	0.32745098
chr11q24	0.32745098
chr7q36	0.32745098
chr3	0.3254902
chr1q32	0.32352941
chr1p33	0.32352941
chr20q11	0.32352941
chr3q27	0.31960784
chr6p12	0.31960784
chr6q12	0.31764706
chr15q25	0.31764706
chr7p15	0.31764706
chr15	0.31764706
chr21	0.31568627
chr18q12	0.31568627
chr11p14	0.31568627
chr11q25	0.31372549
chr1p36	0.31372549
chr2q11	0.31372549
chr1p31	0.31372549
chr5q21	0.31372549
chr2q31	0.31176471
chr6p22	0.31176471
chr6q26	0.31176471
chr5q35	0.30980392
chr22q12	0.30980392
chr1p21	0.30784314
chr14q23	0.30588235
chr13	0.30588235
chr4q32	0.30588235
chr2q14	0.30196078
chr19	0.30196078
chr5q31	0.30196078
chr10p11	0.30196078
chr8q11	0.29803922
chr11	0.29803922
chr19p12	0.29803922
chr20p13	0.29803922
chr15q22	0.29607843
chr2p16	0.29607843
chr12q24	0.29607843
chr10	0.29019608
chr3p22	0.29019608
chr17q11	0.28823529
chr10p14	0.28823529
chr14q13	0.28823529
chrXq26	0.28823529
chr2p23	0.28431373
chr2	0.27647059
chr21q21	0.27647059
chr5q23	0.27647059
chr5q22	0.2745098
chr5q13	0.2745098
chr7q31	0.27254902
chr4q13	0.27254902
chr16q13	0.27058824
chr3p13	0.26862745
chr3p14	0.26862745
chr8p21	0.26470588
chr6p25	0.2627451
chr1	0.2627451
chr17q25	0.25882353
chr16p13	0.25686275
chr5q32	0.25490196
chr16	0.25490196
chr10q22	0.25490196
chr8q23	0.25294118
chr2q12	0.25098039
chr3q23	0.24705882
chr1q44	0.24705882
chr8p12	0.24705882
chr10q26	0.24509804
chr2p25	0.24313725
chr14q11	0.24313725
chr3q29	0.24313725
chr1p32	0.24313725
chr10q25	0.2372549
chr7q22	0.2372549
chr13q14	0.23529412
chr7q32	0.23529412
chr13q13	0.23137255
chr17q23	0.23137255
chr1q42	0.22941176
chr2p13	0.22941176
chr2q33	0.22352941
chr9	0.21960784
chrXq13	0.21568627
chr1q25	0.21372549
chr9q31	0.21372549
chr7q11	0.21372549
chr8q22	0.20392157
chr13q32	0.20196078
chr10q21	0.20196078
chr10p15	0.2
chr3q21	0.18823529
chr6q27	0.18627451
chr3p23	0.17647059
chr17	0.16078431
chr6	0.16078431
chr9q32	0.15098039
chr14q12	0.13137255
