Gene Set	AUC
cacamPathway	0.95294118
fbw7Pathway	0.92941176
argininecPathway	0.92941176
crebPathway	0.90980392
skp2e2fPathway	0.90196078
ST_STAT3_Pathway	0.89803922
erythPathway	0.89803922
p27Pathway	0.88823529
MAP00450_Selenoamino_acid_metabolism	0.88627451
ST_G_alpha_i_Pathway_	0.88235294
mapkPathway	0.88235294
MAP00720_Reductive_carboxylate_cycle_CO2_fixation	0.87843137
XINACT_MERGED	0.86666667
FA	0.86666667
cftrPathway	0.86666667
agpcrPathway	0.85882353
cell_cycle_arrest	0.85882353
il6Pathway	0.85882353
MAP00251_Glutamate_metabolism	0.85098039
mRNA_binding_activity	0.84705882
raccycdPathway	0.84705882
betaoxidationPathway	0.83921569
pelp1Pathway	0.83921569
MAP00561_Glycerolipid_metabolism	0.83921569
DOWNREG_BY_HOXA9	0.8372549
stat3Pathway	0.83529412
dreamPathway	0.83529412
chrebpPathway	0.83529412
TCA	0.83137255
myosinPathway	0.83137255
MAP00190_Oxidative_phosphorylation	0.83137255
ST_Jak_STAT_Pathway	0.82352941
shhPathway	0.82352941
gcrPathway	0.82352941
HOXA9_DOWN	0.81960784
MAP00020_Citrate_cycle_TCA_cycle	0.81568627
cellcyclePathway	0.81568627
tnfr2Pathway	0.81176471
MAP00512_O_Glycans_biosynthesis	0.81176471
SA_B_CELL_RECEPTOR_COMPLEXES	0.80784314
MAP00630_Glyoxylate_and_dicarboxylate_metabolism	0.80784314
cell_adhesion_receptor_activity	0.80784314
SIG_PIP3_signaling_in_B_lymphocytes	0.80392157
TGF_Beta_Signaling_Pathway	0.80392157
appPathway	0.8
MAP00710_Carbon_fixation	0.8
CR_CELL_CYCLE	0.8
Fatty_Acid_Degradation	0.8
GO_ROS	0.8
ST_Phosphoinositide_3_Kinase_Pathway	0.8
MAP00100_Sterol_biosynthesis	0.79607843
MAP00590_Prostaglandin_and_leukotriene_metabolism	0.79607843
human_mitoDB_6_2002	0.79607843
pgc1aPathway	0.79215686
eea1Pathway	0.79215686
DNA_DAMAGE_SIGNALLING	0.78823529
TESTIS_GENES_FROM_XHX_AND_NETAFFX	0.78823529
MAP00271_Methionine_metabolism	0.78431373
setPathway	0.78431373
GLUCOSE_UP	0.78235294
aktPathway	0.78039216
monocytePathway	0.78039216
shh_lisa	0.78039216
badPathway	0.77647059
parkinPathway	0.77647059
CR_TRANSCRIPTION_FACTORS	0.77254902
MAP00330_Arginine_and_proline_metabolism	0.77254902
plcePathway	0.77254902
krebPathway	0.77254902
tidPathway	0.77254902
MAP00562_Inositol_phosphate_metabolism	0.77254902
fxrPathway	0.77254902
atrbrcaPathway	0.76862745
SA_REG_CASCADE_OF_CYCLIN_EXPR	0.76862745
mtorPathway	0.76862745
GO_0005739	0.76862745
p38mapkPathway	0.76470588
mitrPathway	0.76470588
no1Pathway	0.76078431
hcmvPathway	0.76078431
pparaPathway	0.75686275
CBF_LEUKEMIA_DOWNING_AML	0.75686275
ST_B_Cell_Antigen_Receptor	0.75686275
il10Pathway	0.75686275
HUMAN_CD34_ENRICHED_TF_JP	0.75294118
ADULT_LIVER_vs_FETAL_LIVER_GNF2	0.75294118
ctla4Pathway	0.75294118
p53_signalling	0.75294118
mitochondr	0.75294118
MAP00603_Globoside_metabolism	0.75294118
INS	0.75294118
MAP00120_Bile_acid_biosynthesis	0.74901961
mcalpainPathway	0.74901961
lymphocytePathway	0.74901961
rasPathway	0.74901961
slrpPathway	0.74509804
MAP00790_Folate_biosynthesis	0.74509804
cell_motility	0.74509804
cell_growth_and_or_maintenance	0.74509804
ptenPathway	0.74509804
MAPK_Cascade	0.74313725
edg1Pathway	0.74117647
ST_Integrin_Signaling_Pathway	0.74117647
freePathway	0.74117647
deathPathway	0.74117647
ST_ERK1_ERK2_MAPK_Pathway	0.73921569
Krebs-TCA_Cycle	0.7372549
neutrophilPathway	0.7372549
acetaminophenPathway	0.7372549
MAP00030_Pentose_phosphate_pathway	0.7372549
ST_Fas_Signaling_Pathway	0.7372549
rnaPathway	0.7372549
SIG_InsulinReceptorPathwayInCardiacMyocytes	0.7372549
ureacyclePathway	0.73333333
MAP00361_gamma_Hexachlorocyclohexane_degradation	0.73333333
RAP_UP	0.73333333
ST_Interleukin_4_Pathway	0.73333333
tnfr1Pathway	0.73333333
Glycogen_Metabolism	0.73333333
CR_SIGNALLING	0.73333333
GLUCO	0.73333333
MAP00480_Glutathione_metabolism	0.73333333
PGC	0.73137255
carm1Pathway	0.72941176
ST_p38_MAPK_Pathway	0.72941176
nos1Pathway	0.72941176
SIG_PIP3SIGINCARDIACMYOCTES	0.72941176
muscle_myosin	0.72941176
ST_ADRENERGIC	0.72941176
MAP00970_Aminoacyl_tRNA_biosynthesis	0.7254902
atmPathway	0.7254902
GLUT_UP	0.7254902
CR_REPAIR	0.7254902
pkcPathway	0.7254902
il22bpPathway	0.72156863
caspasePathway	0.72156863
MAP00620_Pyruvate_metabolism	0.72156863
insulinPathway	0.72156863
hivnefPathway	0.71764706
Fatty_Acid_Synthesis	0.71764706
nktPathway	0.71764706
Wnt_Signaling	0.71764706
FRASOR_ER_DOWN	0.71764706
chemicalPathway	0.71764706
ANDROGEN_UP_GENES	0.71568627
MAP00240_Pyrimidine_metabolism	0.71372549
LEU_UP	0.71372549
RAP_DOWN	0.71372549
igf1Pathway	0.71372549
arfPathway	0.71372549
metPathway	0.71372549
reelinPathway	0.71372549
MAP00600_Sphingoglycolipid_metabolism	0.70980392
mprPathway	0.70980392
akap96Pathway	0.70980392
PROLIF_GENES	0.70980392
il17Pathway	0.70784314
ANTI_CD44_UP	0.70588235
nfkbPathway	0.70588235
hbxPathway	0.70196078
vitcbPathway	0.70196078
erkPathway	0.70196078
INSULIN_2F_UP	0.70196078
MAPKKK_cascade	0.70196078
MAP00195_Photosynthesis	0.69803922
drug_resistance_and_metabolism	0.69803922
eif4Pathway	0.69803922
MAP00640_Propanoate_metabolism	0.69803922
GLUCOSE_DOWN	0.69803922
cell_cycle_checkpointII	0.69803922
hdacPathway	0.69803922
MAP00740_Riboflavin_metabolism	0.69803922
pentosePathway	0.69803922
radiation_sensitivity	0.69607843
tpoPathway	0.69411765
cell_cycle_checkpoint	0.69411765
achPathway	0.69411765
EGF_receptor_signaling_pathway	0.69019608
il1rPathway	0.69019608
Electron_Transport_Chain	0.69019608
Matrix_Metalloproteinases	0.69019608
HEMO_TF_LIST_JP	0.69019608
tsp1Pathway	0.68627451
tertPathway	0.68235294
ndkDynaminPathway	0.68235294
ST_Differentiation_Pathway_in_PC12_Cells	0.68235294
dnafragmentPathway	0.68235294
gpcrPathway	0.67843137
MAP00230_Purine_metabolism	0.67843137
ccr3Pathway	0.6745098
GPCRs_Class_A_Rhodopsin-like	0.6745098
MAP00272_Cysteine_metabolism	0.6745098
electron_transporter_activity	0.6745098
cell_adhesion_molecule_activity	0.6745098
ghPathway	0.6745098
pepiPathway	0.6745098
MAP00632_Benzoate_degradation	0.6745098
biopeptidesPathway	0.6745098
MAP00310_Lysine_degradation	0.6745098
CR_TRANSPORT_OF_VESICLES	0.67058824
stressPathway	0.67058824
FRASOR_ER_UP	0.67058824
GLUT_DOWN	0.67058824
par1Pathway	0.67058824
igf1mtorPathway	0.66862745
ST_Type_I_Interferon_Pathway	0.66862745
ST_G_Protein_Independent_7_Transmembrane_Receptor_Signaling	0.66666667
gsk3Pathway	0.66666667
ace2Pathway	0.66666667
longevityPathway	0.66666667
ST_G_Protein_Independent_7_Transmembrane	0.66666667
ifnaPathway	0.66666667
nfatPathway	0.6627451
il2rbPathway	0.6627451
SA_TRKA_RECEPTOR	0.6627451
tRNA_Synthetases	0.65882353
SA_PTEN_PATHWAY	0.65882353
ca_nf_at_signalling	0.65882353
telPathway	0.65882353
MAP00220_Urea_cycle_and_metabolism_of_amino_groups	0.65882353
cdmacPathway	0.65490196
plcdPathway	0.65490196
MAP00010_Glycolysis_Gluconeogenesis	0.65490196
MAP_kinase_kinase_activity	0.65490196
cd40Pathway	0.65490196
CR_PROTEIN_MOD	0.65490196
il3Pathway	0.65490196
no2il12Pathway	0.65490196
torPathway	0.65098039
RAR_UP	0.65098039
CR_ANGIOG	0.65098039
cell_proliferation	0.65098039
SIG_BCR_Signaling_Pathway	0.65098039
MAP03020_RNA_polymerase	0.64901961
igf1rPathway	0.64705882
MAP03070_Type_III_secretion_system	0.64705882
arapPathway	0.64705882
MAP00193_ATP_synthesis	0.64705882
keratinocytePathway	0.64705882
g1Pathway	0.64705882
MAP00071_Fatty_acid_metabolism	0.64313725
CR_CAM	0.64313725
tollPathway	0.64313725
cskPathway	0.63921569
lairPathway	0.63921569
amiPathway	0.63921569
sppaPathway	0.6372549
SA_DAG1	0.63529412
hsp27Pathway	0.63529412
CR_TRANSPORT	0.63529412
MAP00531_Glycosaminoglycan_degradation	0.63529412
UPREG_BY_HOXA9	0.63529412
ST_Interferon_gamma_Pathway	0.63333333
pmlPathway	0.63137255
HOX_LIST_JP	0.63137255
Pentose_Phosphate_Pathway	0.63137255
ifngPathway	0.63137255
MAP00350_Tyrosine_metabolism	0.63137255
stemPathway	0.63137255
insulin_signalling	0.63137255
VOXPHOS	0.63137255
Eicosanoid_Synthesis	0.63137255
malatexPathway	0.62745098
ST_Wnt_beta_catenin_Pathway	0.62745098
breast_cancer_estrogen_signalling	0.62745098
ST_Ga12_Pathway	0.6254902
il18Pathway	0.6254902
cxcr4Pathway	0.62352941
fcer1Pathway	0.62352941
SA_CASPASE_CASCADE	0.62352941
ps1Pathway	0.62352941
GLYCOGEN	0.62352941
il2Pathway	0.62352941
tcytotoxicPathway	0.62352941
ANTI_CD44_DOWN	0.62352941
fmlppathway	0.62156863
AR_MOUSE_PLUS_TESTO_FROM_NETAFFX	0.62156863
alternativePathway	0.61960784
rhoPathway	0.61960784
ST_Dictyostelium_discoideum_cAMP_Chemotaxis_Pathway	0.61960784
methioninePathway	0.61960784
MAP00860_Porphyrin_and_chlorophyll_metabolism	0.61960784
mitochondriaPathway	0.61960784
d4gdiPathway	0.61960784
intrinsicPathway	0.61764706
mRNA_processing	0.61568627
CR_IMMUNE_FUNCTION	0.61568627
ck1Pathway	0.61176471
MAP00670_One_carbon_pool_by_folate	0.61176471
MAP00340_Histidine_metabolism	0.60784314
BRCA_DOWN	0.60784314
notchPathway	0.60784314
actinYPathway	0.60784314
etcPathway	0.60784314
LEU_DOWN	0.60588235
CR_CANCER_TESTIS	0.60392157
MAP00062_Fatty_acid_biosynthesis_path_2	0.60392157
ST_G_alpha_5_Pathway	0.60392157
MAP00500_Starch_and_sucrose_metabolism	0.6
MAP00410_beta_Alanine_metabolism	0.6
cell_adhesion	0.6
tubbyPathway	0.6
arenrf2Pathway	0.6
HTERT_UP	0.59607843
ngfPathway	0.59607843
tcraPathway	0.59215686
cblPathway	0.59215686
ST_Tumor_Necrosis_Factor_Pathway	0.59215686
HTERT_DOWN	0.59215686
MAP00051_Fructose_and_mannose_metabolism	0.59215686
thelperPathway	0.59215686
gleevecPathway	0.59215686
ranklPathway	0.59215686
inflamPathway	0.59215686
MAP00280_Valine_leucine_and_isoleucine_degradation	0.59019608
soddPathway	0.58823529
spryPathway	0.58823529
SIG_CHEMOTAXIS	0.58823529
MAP00680_Methane_metabolism	0.58823529
huntingtonPathway	0.58823529
erk5Pathway	0.58823529
rac1Pathway	0.58823529
MAP00380_Tryptophan_metabolism	0.58823529
tumor_supressor	0.58627451
plcPathway	0.58431373
tob1Pathway	0.58431373
CR_HORMONAL_FUNCTIONS	0.58431373
NFKB_REDUCED	0.58431373
MAP_kinase_activity	0.58039216
lechtinPathway	0.58039216
relaPathway	0.58039216
G13_Signaling_Pathway	0.58039216
il4Pathway	0.58039216
alkPathway	0.58039216
bcl2family_and_reg_network	0.57647059
SIG_CD40PATHWAYMAP	0.57647059
ST_Wnt_Ca2_cyclic_GMP_Pathway	0.57254902
akapCentrosomePathway	0.57254902
GPCRs_Class_B_Secretin-like	0.57254902
dcPathway	0.57254902
fosbPathway	0.57254902
pitx2Pathway	0.57058824
ccr5Pathway	0.56862745
ecmPathway	0.56862745
at1rPathway	0.56862745
integrinPathway	0.56666667
neurotransmittersPathway	0.56470588
ceramidePathway	0.56078431
ptdinsPathway	0.56078431
bcrPathway	0.56078431
wntPathway	0.55686275
P53_UP	0.55686275
eosinophilsPathway	0.55490196
vipPathway	0.55294118
egfr_smrtePathway	0.55294118
srcRPTPPathway	0.55294118
leptinPathway	0.55294118
EMT_DOWN	0.55098039
NFKB_INDUCED	0.54901961
tnf_and_fas_network	0.54901961
nthiPathway	0.54509804
s1pPathway	0.54509804
ST_MONOCYTE_AD_PATHWAY	0.54117647
CR_DEATH	0.54117647
ST_Dictyostelium_discoideum_cAMP_Receptor_G_Protein_Independent_Pathways	0.54117647
p53Pathway	0.54117647
tall1Pathway	0.54117647
SIG_IL4RECEPTOR_IN_B_LYPHOCYTES	0.53921569
ST_JNK_MAPK_Pathway	0.5372549
BRCA_UP	0.5372549
proteasomePathway	0.53333333
cell_surface_receptor_linked_signal_transduction	0.53333333
MAP00532_Chondroitin_Heparan_sulfate_biosynthesis	0.53333333
ST_T_Cell_Signal_Transduction	0.53333333
ctlPathway	0.53333333
mRNA_splicing	0.53137255
mef2dPathway	0.52941176
nkcellsPathway	0.52941176
P53_DOWN	0.52941176
carm-erPathway	0.52941176
MAP00400_Phenylalanine_tyrosine_and_tryptophan_biosynthesis	0.52941176
S1P_Signaling	0.52941176
ldlPathway	0.5254902
ucalpainPathway	0.5254902
fasPathway	0.52352941
ranPathway	0.52156863
41bbPathway	0.52156863
ionPathway	0.52156863
egfPathway	0.51764706
Inflammatory_Response_Pathway	0.51764706
compPathway	0.51764706
MYC_MUT	0.51372549
tgfbPathway	0.50980392
il7Pathway	0.50980392
MAP00650_Butanoate_metabolism	0.50980392
aifPathway	0.50980392
extrinsicPathway	0.50784314
salmonellaPathway	0.50588235
circadianPathway	0.50588235
reckPathway	0.50196078
ox40Pathway	0.50196078
vobesityPathway	0.50196078
pparPathway	0.50196078
calcineurinPathway	0.50196078
ST_Gaq_Pathway	0.50196078
FETAL_LIVER_HS_ENRICHED_TF_JP	0.49803922
MAP00602_Blood_group_glycolipid_biosynthesis_neolact_series	0.49803922
AR_ORTHOS_MAPPED_TO_U133_VIA_NETAFFX	0.49411765
AR_MOUSE	0.49411765
SA_BONE_MORPHOGENETIC	0.49019608
feederPathway	0.49019608
electron_transport	0.49019608
fatty_acid_metabolism	0.49019608
cell_cycle_regulator	0.48627451
parkinsonsPathway	0.48627451
MAP00533_Keratan_sulfate_biosynthesis	0.48431373
rarrxrPathway	0.48431373
cremPathway	0.48235294
MAP00260_Glycine_serine_and_threonine_metabolism	0.48235294
GNF_FEMALE_GENES	0.48235294
Cell_Cycle	0.47843137
MAP00460_Cyanoamino_acid_metabolism	0.47843137
epoPathway	0.47843137
KRAS_TOP100_KNOCKDOWN	0.4745098
ephA4Pathway	0.4745098
tcapoptosisPathway	0.4745098
bbcellPathway	0.4745098
pyk2Pathway	0.47254902
MAP00510_N_Glycans_biosynthesis	0.47058824
p53hypoxiaPathway	0.47058824
vifPathway	0.47058824
cell_death	0.46666667
ST_Ga13_Pathway	0.46666667
GPCRs_Class_A_Rhodopsin-like_2	0.46666667
vegfPathway	0.46666667
akap13Pathway	0.46666667
GATA1_WEISS	0.46470588
MAP00052_Galactose_metabolism	0.4627451
SA_G1_AND_S_PHASES	0.4627451
ketonebodiesPathway	0.45882353
SIG_Regulation_of_the_actin_cytoskeleton_by_Rho_GTPases	0.45882353
cptPathway	0.45882353
Complement_Activation_Classical	0.45882353
glycolysisPathway	0.45882353
mspPathway	0.45490196
ST_PAC1_RECEPTOR_PATHWAY	0.45490196
g2Pathway	0.45490196
asbcellPathway	0.45490196
EMT_UP	0.45294118
ST_GRANULE_CELL_SURVIVAL_PATHWAY	0.45098039
ppargPathway	0.44313725
cdc25Pathway	0.43921569
dbpbPathway	0.43921569
MAP00360_Phenylalanine_metabolism	0.43921569
MAP00760_Nicotinate_and_nicotinamide_metabolism	0.4372549
CR_CYTOSKELETON	0.43529412
rabPathway	0.43529412
malatePathway	0.43137255
blymphocytePathway	0.43137255
classicPathway	0.42745098
MAP00252_Alanine_and_aspartate_metabolism	0.42745098
gata3Pathway	0.42745098
th1th2Pathway	0.42352941
etsPathway	0.42352941
cdk5Pathway	0.41568627
ST_IL_13_PATHWAY	0.41568627
ST_Interleukin_13_Pathway	0.41568627
tercPathway	0.41372549
Il12Pathway	0.41176471
GPCRs_Class_C_Metabotropic_glutamate_pheromone	0.41176471
tcrPathway	0.40392157
gsPathway	0.40392157
botulinPathway	0.40392157
PYR	0.40392157
Proteasome_Degradation	0.40196078
p35alzheimersPathway	0.39803922
anthraxPathway	0.39607843
ahspPathway	0.39607843
trkaPathway	0.39215686
gabaPathway	0.38823529
ANDROGEN_GENES_FROM_NETAFFX	0.38823529
MYC_WT	0.38823529
GLYCOL	0.38823529
cell2cellPathway	0.38627451
SA_PROGRAMMED_CELL_DEATH	0.38627451
g1pPathway	0.38039216
MAP00601_Blood_group_glycolipid_biosynthesis_lact_series	0.38039216
cdc42racPathway	0.37647059
flumazenilPathway	0.37254902
MAP00530_Aminosugars_metabolism	0.37058824
KRAS_TOP100_CONTROL	0.36470588
il5Pathway	0.36470588
hifPathway	0.36470588
caspase_activity	0.3627451
mta3Pathway	0.35490196
cardiacegfPathway	0.35490196
ROS	0.35294118
SA_G2_AND_M_PHASES	0.34901961
MAP00430_Taurine_and_hypotaurine_metabolism	0.34901961
SA_MMP_CYTOKINE_CONNECTION	0.34901961
MAP00150_Androgen_and_estrogen_metabolism	0.34901961
eif2Pathway	0.34509804
mrpPathway	0.34509804
sarsPathway	0.34117647
plk3Pathway	0.34117647
SA_FAS_SIGNALLING	0.3372549
tcrMoleculePathway	0.3372549
slrp2Pathway	0.33333333
erbb4Pathway	0.32941176
fibrinolysisPathway	0.32941176
cytokinePathway	0.32941176
ptc1Pathway	0.3254902
pdgfPathway	0.32352941
MAP00910_Nitrogen_metabolism	0.30980392
erbb3Pathway	0.30980392
INSULIN_2F_DOWN	0.30196078
KET	0.29019608
MAP00140_C21_Steroid_hormone_metabolism	0.2745098
rarPathway	0.2627451
eponfkbPathway	0.25098039
rbPathway	0.23529412
CR_DNA_MET_AND_MOD	0.12941176
