Gene Set	AUC
chr10	1.0
chr22	1.0
chr19	1.0
chr1p36	1.0
chr12p13	1.0
chr11p15	1.0
chr12	1.0
chr11	1.0
chr19q13	1.0
chr3q26	1.0
chr16	1.0
chr3	1.0
chr1	1.0
chr16p13	1.0
chr13q14	1.0
chr9	1.0
chr14q11	1.0
chr7p15	1.0
chr8p11	1.0
chr22q13	1.0
chr7	1.0
chr5	1.0
chr1q22	1.0
chr11q13	1.0
chrXp11	1.0
chr9q22	1.0
chr16p11	1.0
chr16p12	1.0
chr8	1.0
chr17q21	1.0
chr2	0.99826389
chr11q12	0.99826389
chr1q25	0.99826389
chr13	0.99826389
chrX	0.99826389
chr12q13	0.99826389
chr4	0.99826389
chr17q25	0.99826389
chr1q23	0.99826389
chr20q13	0.99826389
chr2p14	0.99826389
chr20	0.99826389
chr3q21	0.99826389
chr14	0.99826389
chr19p13	0.99826389
chr15	0.99826389
chr4q13	0.99826389
chr9q34	0.99652778
chr11p11	0.99652778
chr8p21	0.99652778
chr10q24	0.99652778
chr1p35	0.99652778
chr9q21	0.99652778
chr9q31	0.99652778
chr3p21	0.99652778
chr15q24	0.99652778
chr14q32	0.99652778
chr4p16	0.99652778
chrXq28	0.99652778
chr2q33	0.99652778
chr22q11	0.99479167
chr22q12	0.99479167
chr17p13	0.99479167
chr11q23	0.99479167
chr6p21	0.99479167
chr7q31	0.99479167
chr17	0.99479167
chr6	0.99479167
chr15q25	0.99305556
chr10p12	0.99305556
chr21	0.99305556
chr2q11	0.99305556
chr3p14	0.99305556
chr12q24	0.99305556
chr1p31	0.99305556
chr3p25	0.99305556
chr3q13	0.99305556
chr11q22	0.99305556
chr18q21	0.99131944
chr1p34	0.99131944
chr2p13	0.99131944
chr10q21	0.99131944
chr1q21	0.98958333
chr1q24	0.98958333
chr1q32	0.98958333
chr21q22	0.98958333
chrXp22	0.98958333
chr2q35	0.98958333
chr7p21	0.98958333
chr12p12	0.98958333
chr2p24	0.98958333
chr17q12	0.98958333
chr5q35	0.98784722
chr5q31	0.98784722
chr10q22	0.98784722
chr15q15	0.98784722
chrYq11	0.98784722
chr6q24	0.98784722
chr18p11	0.98784722
chr16q22	0.98611111
chr2p23	0.98611111
chr18	0.98611111
chr2q31	0.98611111
chr7q21	0.98611111
chrY	0.98611111
chr6q22	0.984375
chr5q22	0.984375
chr12q14	0.984375
chr10q25	0.984375
chr16q23	0.984375
chrXq26	0.984375
chr6p22	0.984375
chr1p32	0.984375
chr7q11	0.984375
chr5p15	0.98263889
chr5q23	0.98263889
chr8q24	0.98263889
chr1p13	0.98263889
chrXq24	0.98263889
chr6q14	0.98263889
chr13q32	0.98263889
chr6q21	0.98263889
chr7q22	0.98090278
chr3q22	0.97916667
chr14q23	0.97916667
chr5q13	0.97916667
chr4q25	0.97916667
chr1q42	0.97916667
chr11q24	0.97916667
chr5q15	0.97916667
chr5q32	0.97743056
chr13q34	0.97743056
chr2p22	0.97743056
chr1q31	0.97743056
chr20p13	0.97743056
chr6p25	0.97569444
chr4q31	0.97569444
chr9q33	0.97569444
chr20q11	0.97569444
chr17q11	0.97395833
chr2p25	0.97395833
chr3p22	0.97395833
chr3p24	0.97395833
chr10q23	0.97395833
chr9p21	0.97222222
chr17p11	0.97222222
chr12q23	0.97222222
chr8q21	0.97222222
chr10q26	0.97222222
chr3q27	0.97048611
chr11p13	0.97048611
chr10p13	0.97048611
chr4q12	0.97048611
chr6q25	0.96875
chr7q36	0.96875
chr6q27	0.96875
chr16q24	0.96875
chr7q34	0.96875
chrXq13	0.96701389
chr4q35	0.96701389
chr6q23	0.96527778
chr2q37	0.96527778
chr7q32	0.96527778
chr2p16	0.96354167
chr2q24	0.96354167
chr10q11	0.96180556
chr17q24	0.96180556
chr4p14	0.96180556
chr2q13	0.96180556
chr15q26	0.96180556
chr18q11	0.96180556
chr6p12	0.96180556
chr1p22	0.96006944
chr15q23	0.96006944
chr8q13	0.96006944
chr17q23	0.96006944
chr4q21	0.96006944
chr14q24	0.96006944
chr11q14	0.95833333
chrXq25	0.95659722
chrXq22	0.95659722
chr9q32	0.95659722
chrXq27	0.95659722
chr2q14	0.95486111
chr13q12	0.95486111
chr15q22	0.95486111
chr8p12	0.95486111
chr20p11	0.95486111
chr10p14	0.95486111
chrYp11	0.953125
chr13q22	0.95138889
chr3p23	0.95138889
chr13q33	0.95138889
chr8p23	0.95138889
chr16q12	0.95138889
chr2p15	0.95138889
chr10p15	0.94791667
chr4p15	0.94791667
chr16q13	0.94618056
chr1q41	0.94444444
chr1q43	0.94270833
chr11q21	0.94270833
chr5q33	0.94270833
chr5p13	0.94270833
chr7p14	0.94270833
chr3q23	0.94097222
chr20p12	0.94097222
chr4q22	0.94097222
chr6q26	0.94097222
chr6q16	0.94097222
chr14q22	0.93923611
chr5q14	0.93923611
chr5p12	0.93576389
chr21q11	0.93576389
chr2p11	0.93402778
chr8q22	0.93229167
chr12q21	0.93229167
chr9p13	0.93055556
chr2q36	0.92881944
chr13q13	0.92534722
chr9p22	0.92534722
chr15q21	0.92534722
chr2q34	0.92534722
chr6q15	0.92534722
chr9p24	0.92361111
chr3q25	0.92013889
chr12q15	0.92013889
chr5q11	0.92013889
chr8p22	0.92013889
chr3q24	0.92013889
chr18q12	0.91666667
chr8q11	0.91493056
chr2q23	0.91319444
chr2q22	0.91319444
chrXq23	0.91145833
chr14q13	0.90972222
chr12q12	0.90798611
chr7p13	0.90798611
chr2q32	0.90798611
chr2q21	0.90625
chr1q44	0.90451389
chr3q28	0.90277778
chr2p21	0.89930556
chr17p12	0.89930556
chr4p12	0.89583333
chr12p11	0.88888889
chr3p26	0.88541667
chr15q13	0.88541667
chr5q12	0.88541667
chr6p24	0.88541667
chr7p22	0.88541667
chr10p11	0.88368056
chr2p12	0.88194444
chr14q12	0.88194444
chrXq21	0.88020833
chr11p12	0.875
chr4q32	0.86979167
chr21q21	0.86805556
chr4q23	0.86458333
chr8q23	0.86458333
chr1p21	0.859375
chr6q13	0.859375
chr4q27	0.85329861
chrDR52	0.85069444
chr8q12	0.84722222
chr7q33	0.84722222
chr17q22	0.84375
chr3q12	0.84375
chr20q12	0.83680556
chr3q29	0.83680556
chr7p12	0.83506944
chr14q21	0.82986111
chr5q34	0.82986111
chr4q33	0.828125
chr16q21	0.82291667
chr12q22	0.81770833
chr1p33	0.81423611
chr15q11	0.80555556
chrXq11	0.80381944
chr19q12	0.80381944
chr11q11	0.78819444
chr1p12	0.78819444
chr4q28	0.78559028
chr18q23	0.78472222
chr6q11	0.77604167
chrXp21	0.77430556
chr15q14	0.77083333
chr4p13	0.76736111
chr13q31	0.76388889
chr11p14	0.76302083
chr9p23	0.75520833
chr4q24	0.75347222
chr4q26	0.75173611
chr14q31	0.74739583
chr19p12	0.74131944
chr2q12	0.73958333
chr4q34	0.73263889
chr15q12	0.72916667
chr7p11	0.71006944
chrYq28	0.68836806
chr18q22	0.6875
chr9q13	0.68576389
chr5q21	0.68229167
chr6q12	0.62239583
chr4q11	0.60416667
chrYp22	0.57899306
chr13q21	0.5390625
chr3p13	0.515625
chrXq12	0.50434028
chr3p12	0.50347222
chr21p11	0.49305556
chr5p14	0.48958333
chr3q11	0.47569444
chr3p11	0.44618056
chr7q35	0.41666667
chr11q25	0.33333333
chr6p23	0.32291667













