Gene Set	AUC
drug_resistance_and_metabolism	1.0
RAP_UP	0.98752228
p53Pathway	0.98039216
GLUT_UP	0.97504456
LEU_UP	0.96969697
p53_signalling	0.95721925
p53hypoxiaPathway	0.95365419
DNA_DAMAGE_SIGNALLING	0.95008913
P53_UP	0.95008913
radiation_sensitivity	0.94474153
Cell_Cycle	0.94474153
breast_cancer_estrogen_signalling	0.94474153
cellcyclePathway	0.942959
PROLIF_GENES	0.942959
SA_G1_AND_S_PHASES	0.93939394
CR_DEATH	0.93582888
g2Pathway	0.93582888
cell_adhesion	0.93226381
CR_TRANSCRIPTION_FACTORS	0.92156863
CR_PROTEIN_MOD	0.92156863
CR_REPAIR	0.9197861
raccycdPathway	0.91622103
ST_Dictyostelium_discoideum_cAMP_Chemotaxis_Pathway	0.90909091
RAP_DOWN	0.90730838
badPathway	0.90730838
ca_nf_at_signalling	0.90552585
CR_CELL_CYCLE	0.90374332
g1Pathway	0.90374332
atrbrcaPathway	0.90196078
GPCRs_Class_A_Rhodopsin-like	0.89839572
ceramidePathway	0.89661319
cell_proliferation	0.89483066
CR_IMMUNE_FUNCTION	0.89483066
gleevecPathway	0.89304813
cell_cycle_regulator	0.8912656
il7Pathway	0.88948307
bcl2family_and_reg_network	0.88770053
GLUT_DOWN	0.88770053
SA_PROGRAMMED_CELL_DEATH	0.88680927
RAR_UP	0.88235294
mitochondr	0.88235294
ST_Fas_Signaling_Pathway	0.88235294
calcineurinPathway	0.88235294
BRCA_UP	0.87878788
SA_TRKA_RECEPTOR	0.87878788
mRNA_splicing	0.87700535
MAPK_Cascade	0.87700535
tumor_supressor	0.87344029
HUMAN_CD34_ENRICHED_TF_JP	0.86987522
cell_cycle_checkpoint	0.86987522
mitochondriaPathway	0.86987522
LEU_DOWN	0.86809269
ST_B_Cell_Antigen_Receptor	0.86809269
MAP00010_Glycolysis_Gluconeogenesis	0.86631016
human_mitoDB_6_2002	0.86631016
SA_PTEN_PATHWAY	0.86452763
HTERT_DOWN	0.8627451
p38mapkPathway	0.86096257
MAP00051_Fructose_and_mannose_metabolism	0.86096257
chemicalPathway	0.86096257
pitx2Pathway	0.85918004
at1rPathway	0.8573975
nkcellsPathway	0.85561497
CR_SIGNALLING	0.85561497
hsp27Pathway	0.85561497
wntPathway	0.85204991
PGC	0.85026738
electron_transporter_activity	0.85026738
electron_transport	0.84670232
SA_B_CELL_RECEPTOR_COMPLEXES	0.84491979
atmPathway	0.84313725
mapkPathway	0.84135472
GO_0005739	0.83778966
rac1Pathway	0.83600713
keratinocytePathway	0.83600713
insulin_signalling	0.8342246
ST_Interleukin_4_Pathway	0.83065954
ecmPathway	0.83065954
tall1Pathway	0.83065954
P53_DOWN	0.82798574
pyk2Pathway	0.82531194
SA_G2_AND_M_PHASES	0.82531194
ck1Pathway	0.82531194
GLUCOSE_DOWN	0.82352941
SA_FAS_SIGNALLING	0.82352941
SA_DAG1	0.82174688
fcer1Pathway	0.81996435
telPathway	0.81996435
rasPathway	0.81996435
pelp1Pathway	0.81818182
ANDROGEN_UP_GENES	0.81818182
SIG_CD40PATHWAYMAP	0.81818182
cell_cycle_arrest	0.81818182
hivnefPathway	0.81729055
cell_adhesion_molecule_activity	0.81729055
Electron_Transport_Chain	0.81639929
AR_ORTHOS_MAPPED_TO_U133_VIA_NETAFFX	0.81461676
MAP00030_Pentose_phosphate_pathway	0.81461676
AR_MOUSE	0.81461676
eponfkbPathway	0.81372549
il2rbPathway	0.81283422
cell_surface_receptor_linked_signal_transduction	0.81105169
ST_Wnt_beta_catenin_Pathway	0.81105169
etsPathway	0.81105169
fasPathway	0.80926916
tcrPathway	0.80926916
GATA1_WEISS	0.80926916
G13_Signaling_Pathway	0.80748663
il4Pathway	0.80748663
ccr3Pathway	0.8057041
vegfPathway	0.8057041
MAP00052_Galactose_metabolism	0.80035651
HTERT_UP	0.79857398
cell_motility	0.79857398
cell_growth_and_or_maintenance	0.79857398
fmlppathway	0.79679144
MAP00230_Purine_metabolism	0.79679144
ST_Integrin_Signaling_Pathway	0.79500891
egfPathway	0.79322638
MAP00860_Porphyrin_and_chlorophyll_metabolism	0.79322638
ST_Ga13_Pathway	0.78966132
SIG_IL4RECEPTOR_IN_B_LYPHOCYTES	0.78966132
SIG_PIP3SIGINCARDIACMYOCTES	0.78787879
tnf_and_fas_network	0.78609626
FRASOR_ER_DOWN	0.78609626
akap96Pathway	0.78431373
VOXPHOS	0.78253119
CBF_LEUKEMIA_DOWNING_AML	0.78074866
ST_ERK1_ERK2_MAPK_Pathway	0.78074866
tpoPathway	0.77896613
hcmvPathway	0.77896613
deathPathway	0.77896613
pparaPathway	0.7771836
EMT_UP	0.7771836
cell_cycle_checkpointII	0.7771836
FETAL_LIVER_HS_ENRICHED_TF_JP	0.7771836
CR_CAM	0.7745098
AR_MOUSE_PLUS_TESTO_FROM_NETAFFX	0.77361854
mef2dPathway	0.77183601
pdgfPathway	0.77183601
KRAS_TOP100_CONTROL	0.77005348
ndkDynaminPathway	0.76648841
setPathway	0.76648841
MAP00240_Pyrimidine_metabolism	0.76470588
HEMO_TF_LIST_JP	0.76470588
ST_JNK_MAPK_Pathway	0.76203209
tgfbPathway	0.75935829
ST_Ga12_Pathway	0.75935829
tidPathway	0.75935829
GLYCOL	0.75757576
cell_adhesion_receptor_activity	0.75757576
ST_Differentiation_Pathway_in_PC12_Cells	0.7540107
caspasePathway	0.7540107
GLUCOSE_UP	0.75044563
mspPathway	0.7486631
egfr_smrtePathway	0.7486631
SIG_Regulation_of_the_actin_cytoskeleton_by_Rho_GTPases	0.74688057
d4gdiPathway	0.74688057
gabaPathway	0.74331551
ANTI_CD44_UP	0.74153298
ST_p38_MAPK_Pathway	0.73796791
SIG_BCR_Signaling_Pathway	0.73796791
ptenPathway	0.73618538
KRAS_TOP100_KNOCKDOWN	0.73440285
il5Pathway	0.73440285
argininecPathway	0.73262032
ST_Wnt_Ca2_cyclic_GMP_Pathway	0.73262032
nktPathway	0.73262032
SA_REG_CASCADE_OF_CYCLIN_EXPR	0.73083779
ST_ADRENERGIC	0.72905526
etcPathway	0.72727273
rhoPathway	0.7254902
MAP00190_Oxidative_phosphorylation	0.7254902
S1P_Signaling	0.7254902
metPathway	0.7254902
GO_ROS	0.72370766
erk5Pathway	0.72192513
arenrf2Pathway	0.72103387
ctlPathway	0.7201426
nfatPathway	0.71836007
tRNA_Synthetases	0.71657754
gsk3Pathway	0.71657754
HOXA9_DOWN	0.71479501
Inflammatory_Response_Pathway	0.71479501
ST_T_Cell_Signal_Transduction	0.71301248
muscle_myosin	0.71301248
TESTIS_GENES_FROM_XHX_AND_NETAFFX	0.70944742
cd40Pathway	0.70944742
GNF_FEMALE_GENES	0.70588235
il1rPathway	0.70409982
MAP00310_Lysine_degradation	0.70409982
bcrPathway	0.70409982
SA_CASPASE_CASCADE	0.70231729
no1Pathway	0.70053476
FA	0.70053476
MAP00603_Globoside_metabolism	0.6969697
hdacPathway	0.69607843
crebPathway	0.69518717
ngfPathway	0.69518717
cxcr4Pathway	0.6942959
MAP00970_Aminoacyl_tRNA_biosynthesis	0.69340463
il17Pathway	0.6916221
circadianPathway	0.6916221
Fatty_Acid_Synthesis	0.68983957
cdk5Pathway	0.68805704
INSULIN_2F_UP	0.68805704
biopeptidesPathway	0.68805704
mRNA_processing	0.68627451
MAP00632_Benzoate_degradation	0.68449198
TCA	0.67914439
HOX_LIST_JP	0.67914439
insulinPathway	0.67914439
NFKB_REDUCED	0.67736185
ccr5Pathway	0.67736185
igf1rPathway	0.67557932
Wnt_Signaling	0.67557932
betaoxidationPathway	0.67379679
erythPathway	0.67379679
MAP00720_Reductive_carboxylate_cycle_CO2_fixation	0.67201426
igf1Pathway	0.67023173
ranPathway	0.6684492
relaPathway	0.6684492
ST_Dictyostelium_discoideum_cAMP_Receptor_G_Protein_Independent_Pathways	0.6684492
carm-erPathway	0.6684492
MAP00220_Urea_cycle_and_metabolism_of_amino_groups	0.6684492
carm1Pathway	0.66666667
rbPathway	0.66488414
nfkbPathway	0.66488414
mRNA_binding_activity	0.6631016
gcrPathway	0.6631016
MAP00361_gamma_Hexachlorocyclohexane_degradation	0.65953654
pgc1aPathway	0.65953654
glycolysisPathway	0.65953654
plk3Pathway	0.65953654
achPathway	0.65775401
neutrophilPathway	0.65686275
p27Pathway	0.65597148
pmlPathway	0.65418895
MAP00450_Selenoamino_acid_metabolism	0.65418895
MAP00562_Inositol_phosphate_metabolism	0.65418895
CR_TRANSPORT	0.65418895
huntingtonPathway	0.65418895
MAP00790_Folate_biosynthesis	0.65240642
GPCRs_Class_B_Secretin-like	0.65240642
alkPathway	0.65240642
th1th2Pathway	0.65062389
p35alzheimersPathway	0.65062389
proteasomePathway	0.64884135
tnfr1Pathway	0.64884135
hifPathway	0.64884135
GLUCO	0.64884135
cblPathway	0.64349376
integrinPathway	0.64349376
Krebs-TCA_Cycle	0.64171123
ST_Interferon_gamma_Pathway	0.64171123
il6Pathway	0.64171123
alternativePathway	0.6399287
MAP00640_Propanoate_metabolism	0.6399287
CR_ANGIOG	0.6399287
cdc25Pathway	0.6399287
CR_TRANSPORT_OF_VESICLES	0.63636364
cell2cellPathway	0.63636364
SIG_CHEMOTAXIS	0.63636364
MAP00602_Blood_group_glycolipid_biosynthesis_neolact_series	0.63636364
MAP00561_Glycerolipid_metabolism	0.63458111
ucalpainPathway	0.63279857
MAP00350_Tyrosine_metabolism	0.62923351
fbw7Pathway	0.62566845
GPCRs_Class_C_Metabotropic_glutamate_pheromone	0.62388592
MAP00620_Pyruvate_metabolism	0.62388592
dreamPathway	0.62210339
cardiacegfPathway	0.62210339
cacamPathway	0.62032086
INSULIN_2F_DOWN	0.62032086
ctla4Pathway	0.62032086
longevityPathway	0.62032086
eif2Pathway	0.61853832
NFKB_INDUCED	0.61497326
Proteasome_Degradation	0.61497326
erkPathway	0.61319073
MAP00430_Taurine_and_hypotaurine_metabolism	0.60606061
MYC_WT	0.60427807
anthraxPathway	0.60427807
DOWNREG_BY_HOXA9	0.60249554
igf1mtorPathway	0.59893048
extrinsicPathway	0.59536542
eosinophilsPathway	0.59536542
akapCentrosomePathway	0.59536542
MAP00532_Chondroitin_Heparan_sulfate_biosynthesis	0.59536542
ST_GRANULE_CELL_SURVIVAL_PATHWAY	0.59358289
chrebpPathway	0.59358289
ldlPathway	0.59180036
lymphocytePathway	0.59180036
g1pPathway	0.59001783
mtorPathway	0.58823529
UPREG_BY_HOXA9	0.58823529
aktPathway	0.5828877
CR_HORMONAL_FUNCTIONS	0.58110517
trkaPathway	0.57932264
MAP00062_Fatty_acid_biosynthesis_path_2	0.57932264
aifPathway	0.57754011
malatexPathway	0.57754011
MAP_kinase_kinase_activity	0.57397504
parkinsonsPathway	0.57219251
MAP00280_Valine_leucine_and_isoleucine_degradation	0.57040998
bbcellPathway	0.57040998
ptdinsPathway	0.56506239
il2Pathway	0.56506239
ppargPathway	0.56327986
EMT_DOWN	0.56327986
mcalpainPathway	0.56149733
MAP00071_Fatty_acid_metabolism	0.55793226
slrpPathway	0.55614973
slrp2Pathway	0.55614973
cdc42racPathway	0.5543672
tcytotoxicPathway	0.5543672
il22bpPathway	0.55258467
botulinPathway	0.55080214
vifPathway	0.54991087
mta3Pathway	0.54901961
MAP00020_Citrate_cycle_TCA_cycle	0.54901961
ST_IL_13_PATHWAY	0.54901961
ST_Interleukin_13_Pathway	0.54901961
edg1Pathway	0.54723708
tcraPathway	0.54723708
fibrinolysisPathway	0.54723708
ST_Phosphoinositide_3_Kinase_Pathway	0.54545455
ranklPathway	0.54545455
par1Pathway	0.54367201
epoPathway	0.54367201
reelinPathway	0.54367201
MAP00480_Glutathione_metabolism	0.54367201
sppaPathway	0.54188948
torPathway	0.53832442
GPCRs_Class_A_Rhodopsin-like_2	0.53832442
MAP00601_Blood_group_glycolipid_biosynthesis_lact_series	0.53832442
tsp1Pathway	0.53654189
cdmacPathway	0.53475936
cremPathway	0.53297683
tnfr2Pathway	0.53297683
MAP03020_RNA_polymerase	0.5311943
rabPathway	0.5311943
MAP00512_O_Glycans_biosynthesis	0.52941176
ANDROGEN_GENES_FROM_NETAFFX	0.52762923
Il12Pathway	0.52762923
lairPathway	0.5258467
MAP00680_Methane_metabolism	0.52406417
fosbPathway	0.52406417
akap13Pathway	0.52406417
nthiPathway	0.52228164
ADULT_LIVER_vs_FETAL_LIVER_GNF2	0.52228164
thelperPathway	0.52228164
tcrMoleculePathway	0.52228164
monocytePathway	0.52049911
pepiPathway	0.52049911
MAP_kinase_activity	0.51871658
dbpbPathway	0.51871658
s1pPathway	0.51693405
MAP00380_Tryptophan_metabolism	0.51693405
ifnaPathway	0.51515152
Eicosanoid_Synthesis	0.51515152
ST_Tumor_Necrosis_Factor_Pathway	0.51336898
ST_G_Protein_Independent_7_Transmembrane_Receptor_Signaling	0.51158645
ST_G_Protein_Independent_7_Transmembrane	0.51158645
tollPathway	0.51158645
ps1Pathway	0.50980392
cytokinePathway	0.50980392
MAP00630_Glyoxylate_and_dicarboxylate_metabolism	0.50980392
ST_Type_I_Interferon_Pathway	0.50802139
KET	0.50623886
vobesityPathway	0.50623886
FRASOR_ER_UP	0.50445633
neurotransmittersPathway	0.50356506
stat3Pathway	0.5026738
ace2Pathway	0.5026738
agpcrPathway	0.5026738
flumazenilPathway	0.50089127
stemPathway	0.50089127
ghPathway	0.50089127
malatePathway	0.50089127
dcPathway	0.4973262
rnaPathway	0.4973262
ureacyclePathway	0.49376114
cptPathway	0.49376114
eea1Pathway	0.49197861
intrinsicPathway	0.49019608
erbb3Pathway	0.49019608
asbcellPathway	0.49019608
MAP00533_Keratan_sulfate_biosynthesis	0.48841355
MAP00710_Carbon_fixation	0.48841355
ANTI_CD44_DOWN	0.48841355
Pentose_Phosphate_Pathway	0.48484848
blymphocytePathway	0.48484848
soddPathway	0.48128342
SIG_PIP3_signaling_in_B_lymphocytes	0.47950089
MAP00500_Starch_and_sucrose_metabolism	0.4741533
shhPathway	0.47058824
cftrPathway	0.47058824
pentosePathway	0.47058824
ST_STAT3_Pathway	0.4688057
tob1Pathway	0.4688057
Glycogen_Metabolism	0.4688057
INS	0.4688057
ahspPathway	0.46702317
PYR	0.46702317
rarrxrPathway	0.46524064
vipPathway	0.46434938
MAP00260_Glycine_serine_and_threonine_metabolism	0.46345811
notchPathway	0.46167558
plcPathway	0.46167558
MAP00140_C21_Steroid_hormone_metabolism	0.46167558
tubbyPathway	0.45989305
tcapoptosisPathway	0.45811052
41bbPathway	0.45454545
classicPathway	0.45276292
MAP00100_Sterol_biosynthesis	0.45276292
MAP00400_Phenylalanine_tyrosine_and_tryptophan_biosynthesis	0.45276292
il3Pathway	0.45276292
arapPathway	0.45098039
stressPathway	0.45098039
MAPKKK_cascade	0.45098039
BRCA_DOWN	0.44919786
caspase_activity	0.44919786
leptinPathway	0.44919786
XINACT_MERGED	0.44741533
cell_death	0.44741533
ST_PAC1_RECEPTOR_PATHWAY	0.44741533
MAP00120_Bile_acid_biosynthesis	0.4456328
fatty_acid_metabolism	0.4456328
EGF_receptor_signaling_pathway	0.44385027
tercPathway	0.43850267
MAP00360_Phenylalanine_metabolism	0.43850267
MAP00600_Sphingoglycolipid_metabolism	0.43672014
nos1Pathway	0.43672014
parkinPathway	0.43672014
ST_Gaq_Pathway	0.43672014
Fatty_Acid_Degradation	0.43493761
ephA4Pathway	0.43315508
ST_G_alpha_5_Pathway	0.43315508
tertPathway	0.43137255
sarsPathway	0.43137255
MAP00760_Nicotinate_and_nicotinamide_metabolism	0.42959002
MAP00670_One_carbon_pool_by_folate	0.42959002
arfPathway	0.42959002
ionPathway	0.42959002
TGF_Beta_Signaling_Pathway	0.42780749
ST_MONOCYTE_AD_PATHWAY	0.42602496
ST_G_alpha_i_Pathway_	0.42424242
MAP00252_Alanine_and_aspartate_metabolism	0.42424242
mitrPathway	0.42424242
MAP00740_Riboflavin_metabolism	0.42424242
inflamPathway	0.42424242
GLYCOGEN	0.42245989
pparPathway	0.42067736
hbxPathway	0.4171123
shh_lisa	0.4171123
SA_MMP_CYTOKINE_CONNECTION	0.4171123
MAP00340_Histidine_metabolism	0.41532977
MAP00251_Glutamate_metabolism	0.41532977
eif4Pathway	0.41532977
MYC_MUT	0.41532977
MAP00410_beta_Alanine_metabolism	0.41354724
appPathway	0.41354724
vitcbPathway	0.41354724
spryPathway	0.40998217
CR_CYTOSKELETON	0.40998217
ifngPathway	0.40641711
fxrPathway	0.40641711
il18Pathway	0.40106952
MAP00150_Androgen_and_estrogen_metabolism	0.40106952
MAP00910_Nitrogen_metabolism	0.39750446
Matrix_Metalloproteinases	0.39572193
CR_CANCER_TESTIS	0.39572193
ox40Pathway	0.39393939
mprPathway	0.39215686
pkcPathway	0.39215686
SA_BONE_MORPHOGENETIC	0.38502674
MAP00531_Glycosaminoglycan_degradation	0.38146168
gata3Pathway	0.37967914
no2il12Pathway	0.37789661
acetaminophenPathway	0.37611408
rarPathway	0.37611408
skp2e2fPathway	0.37254902
MAP00590_Prostaglandin_and_leukotriene_metabolism	0.37254902
MAP00330_Arginine_and_proline_metabolism	0.37076649
gsPathway	0.37076649
erbb4Pathway	0.37076649
dnafragmentPathway	0.36898396
reckPathway	0.36720143
cskPathway	0.36363636
gpcrPathway	0.36363636
amiPathway	0.36363636
ST_Jak_STAT_Pathway	0.36185383
myosinPathway	0.36185383
CR_DNA_MET_AND_MOD	0.3600713
srcRPTPPathway	0.3600713
plcdPathway	0.35650624
freePathway	0.35472371
MAP00530_Aminosugars_metabolism	0.35115865
feederPathway	0.34581105
MAP00272_Cysteine_metabolism	0.32976827
il10Pathway	0.32976827
MAP03070_Type_III_secretion_system	0.32620321
krebPathway	0.32620321
MAP00193_ATP_synthesis	0.32620321
ptc1Pathway	0.31907308
actinYPathway	0.31907308
Complement_Activation_Classical	0.31550802
plcePathway	0.31194296
MAP00271_Methionine_metabolism	0.30481283
SIG_InsulinReceptorPathwayInCardiacMyocytes	0.3030303
mrpPathway	0.29946524
compPathway	0.29946524
MAP00650_Butanoate_metabolism	0.29768271
ROS	0.29411765
MAP00510_N_Glycans_biosynthesis	0.28520499
methioninePathway	0.28163993
MAP00460_Cyanoamino_acid_metabolism	0.2798574
salmonellaPathway	0.27807487
ketonebodiesPathway	0.26559715
lechtinPathway	0.25668449
MAP00195_Photosynthesis	0.24955437
