Gene Set	AUC
hsa04012	1.0
hsa03040	1.0
hsa03013	1.0
hsa04141	1.0
hsa04610	1.0
hsa04960	1.0
hsa05323	1.0
hsa03410	1.0
hsa00760	1.0
hsa04970	1.0
hsa04612	1.0
hsa04720	1.0
hsa00562	1.0
hsa04270	1.0
hsa04080	1.0
hsa04666	1.0
hsa05412	1.0
hsa00983	1.0
hsa05217	1.0
hsa05213	1.0
hsa05410	1.0
hsa00240	1.0
hsa00982	1.0
hsa04070	1.0
hsa04710	1.0
hsa04950	1.0
hsa00120	1.0
hsa04630	1.0
hsa04662	1.0
hsa00790	1.0
hsa05150	1.0
hsa05214	1.0
hsa00230	1.0
hsa05110	1.0
hsa04912	1.0
hsa04540	1.0
hsa05221	1.0
hsa04971	1.0
hsa04350	1.0
hsa04310	1.0
hsa04972	1.0
hsa03008	1.0
hsa05416	1.0
hsa05146	1.0
hsa05016	1.0
hsa04730	1.0
hsa00970	1.0
hsa04146	1.0
hsa05414	1.0
hsa00270	1.0
hsa00310	1.0
hsa05010	1.0
hsa03030	1.0
hsa05014	1.0
hsa04973	1.0
hsa04520	1.0
hsa05160	1.0
hsa00860	1.0
hsa04360	1.0
hsa05142	1.0
hsa04810	1.0
hsa04130	1.0
hsa00190	1.0
hsa04974	1.0
hsa04530	1.0
hsa05200	1.0
hsa03430	1.0
hsa04142	1.0
hsa00620	1.0
hsa05140	1.0
hsa04962	1.0
hsa00040	1.0
hsa04260	1.0
hsa05143	1.0
hsa01100	1.0
hsa05012	1.0
hsa00051	1.0
hsa05220	1.0
hsa00010	1.0
hsa00480	1.0
hsa04144	1.0
hsa04010	1.0
hsa04114	1.0
hsa04910	1.0
hsa04210	1.0
hsa04115	1.0
hsa04920	1.0
hsa04650	1.0
hsa05210	1.0
hsa04122	1.0
hsa00670	1.0
hsa00565	1.0
hsa04512	1.0
hsa00430	1.0
hsa04510	1.0
hsa00330	1.0
hsa04120	1.0
hsa04976	1.0
hsa05211	1.0
hsa04145	1.0
hsa00534	1.0
hsa04916	1.0
hsa04020	1.0
hsa04340	1.0
hsa03420	0.98412698
hsa03022	0.98412698
hsa00533	0.98412698
hsa04966	0.98412698
hsa00140	0.98412698
hsa00520	0.98412698
hsa03320	0.98412698
hsa03060	0.98412698
hsa04964	0.98412698
hsa00830	0.98412698
hsa05145	0.98412698
hsa04110	0.98412698
hsa00071	0.98412698
hsa00340	0.98412698
hsa00900	0.98412698
hsa04370	0.98412698
hsa04744	0.98412698
hsa00980	0.98412698
hsa00564	0.98412698
hsa00052	0.98412698
hsa00601	0.96825397
hsa04722	0.96825397
hsa00290	0.96825397
hsa05218	0.96825397
hsa05215	0.96825397
hsa00500	0.96825397
hsa00450	0.96825397
hsa04940	0.96825397
hsa04640	0.96825397
hsa03015	0.96825397
hsa03020	0.96825397
hsa00400	0.96825397
hsa05120	0.96825397
hsa05222	0.96825397
hsa04062	0.96825397
hsa04621	0.96825397
hsa00250	0.96825397
hsa03010	0.96825397
hsa00020	0.95238095
hsa00360	0.95238095
hsa00510	0.95238095
hsa04060	0.95238095
hsa00350	0.95238095
hsa05223	0.95238095
hsa05130	0.95238095
hsa00512	0.93650794
hsa04664	0.93650794
hsa04620	0.93650794
hsa04623	0.92063492
hsa05144	0.92063492
hsa04742	0.92063492
hsa00561	0.92063492
hsa00650	0.92063492
hsa00591	0.92063492
hsa00740	0.92063492
hsa05100	0.9047619
hsa00640	0.9047619
hsa00592	0.9047619
hsa00030	0.9047619
hsa05212	0.9047619
hsa00590	0.88888889
hsa04150	0.88888889
hsa00514	0.88888889
hsa01040	0.88888889
hsa00630	0.88888889
hsa05216	0.88888889
hsa04740	0.87301587
hsa04380	0.85714286
hsa00053	0.85714286
hsa00130	0.85714286
hsa00280	0.85714286
hsa00471	0.85714286
hsa04514	0.84126984
hsa00380	0.82539683
hsa04975	0.82539683
hsa00100	0.82539683
hsa05332	0.80952381
hsa04614	0.80952381
hsa04660	0.79365079
hsa05330	0.79365079
hsa04670	0.77777778
hsa05131	0.73015873
hsa04330	0.68253968
hsa04977	0.66666667
hsa05340	0.66666667
hsa03018	0.65079365
hsa00061	0.63492063
hsa04622	0.63492063
hsa05219	0.61904762
hsa05310	0.61904762
hsa00920	0.61904762
hsa00910	0.61904762
hsa03050	0.61904762
hsa00780	0.6031746
hsa00410	0.6031746
hsa00531	0.58730159
hsa00600	0.57142857
hsa05322	0.57142857
hsa04930	0.57142857
hsa00511	0.55555556
hsa00770	0.55555556
hsa02010	0.53968254
hsa00472	0.52380952
hsa00563	0.52380952
hsa03440	0.50793651
hsa00604	0.46031746
hsa04320	0.46031746
hsa00603	0.46031746
hsa05320	0.46031746
hsa00260	0.42857143
hsa04672	0.42857143
hsa04914	0.42857143
hsa00785	0.42857143
hsa00730	0.38095238
hsa05020	0.36507937
hsa00300	0.36507937
hsa00232	0.33333333
hsa00062	0.31746032
hsa04140	0.25396825
hsa00460	0.23809524
hsa00072	0.22222222
hsa00524	0.22222222
hsa00750	0.19047619
hsa03450	0.17460317
hsa00532	0.15873016
