	Rank.p.value
REACTOME_O_LINKED_GLYCOSYLATION_OF_MUCINS	0.00130378693827385
SIG_INSULIN_RECEPTOR_PATHWAY_IN_CARDIAC_MYOCYTES	0.00347986730587741
PID_A6B1_A6B4_INTEGRIN_PATHWAY	0.00355225654845905
PID_RET_PATHWAY	0.0040429068249641
KEGG_ADHERENS_JUNCTION	0.0041800489184475
KEGG_PHOSPHATIDYLINOSITOL_SIGNALING_SYSTEM	0.0046847646855035
KEGG_SMALL_CELL_LUNG_CANCER	0.00499882037005302
REACTOME_ROLE_OF_SECOND_MESSENGERS_IN_NETRIN1_SIGNALING	0.00524203396000151
PID_AJDISS_2PATHWAY	0.00558618788141653
SIG_BCR_SIGNALING_PATHWAY	0.00569141603464977
KEGG_ALDOSTERONE_REGULATED_SODIUM_REABSORPTION	0.00600958834231746
KEGG_LEUKOCYTE_TRANSENDOTHELIAL_MIGRATION	0.00603995341779562
PID_P53DOWNSTREAMPATHWAY	0.00631717812991057
REACTOME_SIGNALING_BY_SCF_KIT	0.0065322291585828
REACTOME_CELL_CELL_JUNCTION_ORGANIZATION	0.00702229445739519
REACTOME_AQUAPORIN_MEDIATED_TRANSPORT	0.00709214381572243
PID_VEGFR1_2_PATHWAY	0.00722520373181428
PID_SYNDECAN_2_PATHWAY	0.00739330737680429
KEGG_B_CELL_RECEPTOR_SIGNALING_PATHWAY	0.00791204342738001
REACTOME_GASTRIN_CREB_SIGNALLING_PATHWAY_VIA_PKC_AND_MAPK	0.00828725674196623
KEGG_PROGESTERONE_MEDIATED_OOCYTE_MATURATION	0.00867001259460998
SIG_PIP3_SIGNALING_IN_B_LYMPHOCYTES	0.00869805834699386
REACTOME_NGF_SIGNALLING_VIA_TRKA_FROM_THE_PLASMA_MEMBRANE	0.00876522554092696
ST_ADRENERGIC	0.00969527351822016
REACTOME_ROLE_OF_DCC_IN_REGULATING_APOPTOSIS	0.00975141965691015
KEGG_GAP_JUNCTION	0.0100591068922474
REACTOME_IMMUNE_SYSTEM	0.0101077724604155
PID_BETACATENIN_NUC_PATHWAY	0.0106359307899803
PID_TCPTP_PATHWAY	0.0115079016824883
KEGG_PANCREATIC_CANCER	0.0118240953975499
PID_AP1_PATHWAY	0.0122931274417691
REACTOME_DEVELOPMENTAL_BIOLOGY	0.0127966485732763
REACTOME_EFFECTS_OF_PIP2_HYDROLYSIS	0.0127977825625884
REACTOME_TERMINATION_OF_O_GLYCAN_BIOSYNTHESIS	0.012910774047107
KEGG_CHRONIC_MYELOID_LEUKEMIA	0.0131763191126148
KEGG_MELANOGENESIS	0.0134800889836229
REACTOME_SIGNALLING_BY_NGF	0.0135812825578499
PID_SYNDECAN_1_PATHWAY	0.0142416289827555
REACTOME_ADENYLATE_CYCLASE_ACTIVATING_PATHWAY	0.0144202147363479
REACTOME_CELL_JUNCTION_ORGANIZATION	0.0146520172662761
REACTOME_INSULIN_RECEPTOR_SIGNALLING_CASCADE	0.0147974267512751
PID_ER_NONGENOMIC_PATHWAY	0.0152565520236619
REACTOME_POST_TRANSLATIONAL_PROTEIN_MODIFICATION	0.0157372110779794
PID_INTEGRIN_A9B1_PATHWAY	0.0158837159701532
REACTOME_VEGF_LIGAND_RECEPTOR_INTERACTIONS	0.0171238645848804
PID_EPHA2_FWDPATHWAY	0.0171929025509096
REACTOME_APOPTOTIC_CLEAVAGE_OF_CELLULAR_PROTEINS	0.0175340641416627
PID_TRKRPATHWAY	0.0186586530746898
REACTOME_TRANSPORT_OF_GLUCOSE_AND_OTHER_SUGARS_BILE_SALTS_AND_ORGANIC_ACIDS_METAL_IONS_AND_AMINE_COMPOUNDS	0.0194189299882696
KEGG_PROSTATE_CANCER	0.0195960503991816
REACTOME_INTEGRIN_CELL_SURFACE_INTERACTIONS	0.0209645559747494
KEGG_GLIOMA	0.0217492112159388
KEGG_T_CELL_RECEPTOR_SIGNALING_PATHWAY	0.0223886189609254
KEGG_BLADDER_CANCER	0.0225020699202697
PID_NCADHERINPATHWAY	0.0231593676584281
PID_AR_PATHWAY	0.0234991952880299
REACTOME_REGULATION_OF_WATER_BALANCE_BY_RENAL_AQUAPORINS	0.0235554770858881
REACTOME_GROWTH_HORMONE_RECEPTOR_SIGNALING	0.0239148758381637
BIOCARTA_HER2_PATHWAY	0.0239640771970671
PID_CMYB_PATHWAY	0.0243524258407617
REACTOME_ABACAVIR_TRANSPORT_AND_METABOLISM	0.0245224954913022
REACTOME_N_GLYCAN_ANTENNAE_ELONGATION_IN_THE_MEDIAL_TRANS_GOLGI	0.0247507927114376
REACTOME_REGULATION_OF_GENE_EXPRESSION_IN_BETA_CELLS	0.0254000841964298
REACTOME_BASIGIN_INTERACTIONS	0.0266260591192694
PID_LKB1_PATHWAY	0.0267113955772185
REACTOME_SIGNALING_BY_PDGF	0.0274897880427995
REACTOME_NETRIN1_SIGNALING	0.0279579406353198
PID_KITPATHWAY	0.0279622989862325
PID_VEGF_VEGFR_PATHWAY	0.0283283546344507
KEGG_CHEMOKINE_SIGNALING_PATHWAY	0.0284105655480114
PID_THROMBIN_PAR1_PATHWAY	0.0298826846192996
REACTOME_SHC1_EVENTS_IN_ERBB4_SIGNALING	0.030764754119194
REACTOME_G_ALPHA1213_SIGNALLING_EVENTS	0.0309060111236858
PID_ECADHERIN_KERATINOCYTE_PATHWAY	0.0311122295399019
KEGG_FC_EPSILON_RI_SIGNALING_PATHWAY	0.0317033230039269
BIOCARTA_VITCB_PATHWAY	0.0322618119237468
REACTOME_DOWNSTREAM_SIGNALING_OF_ACTIVATED_FGFR	0.0322633377985393
BIOCARTA_PAR1_PATHWAY	0.0323715773682342
PID_PI3KCIPATHWAY	0.034359145075179
PID_BMPPATHWAY	0.0348137812178577
REACTOME_CELL_CELL_COMMUNICATION	0.0355581998093874
KEGG_VEGF_SIGNALING_PATHWAY	0.0375323831224159
REACTOME_SIGNALING_BY_INSULIN_RECEPTOR	0.0376641748900771
PID_PTP1BPATHWAY	0.0391327367831765
BIOCARTA_INTRINSIC_PATHWAY	0.040092670610004
KEGG_GLYCEROLIPID_METABOLISM	0.041156312101392
ST_B_CELL_ANTIGEN_RECEPTOR	0.0411963083825511
REACTOME_PKA_MEDIATED_PHOSPHORYLATION_OF_CREB	0.0413434851579804
REACTOME_SIGNALING_BY_BMP	0.0416833622915977
BIOCARTA_IL7_PATHWAY	0.0422017047984484
BIOCARTA_BAD_PATHWAY	0.0435858484203053
KEGG_MATURITY_ONSET_DIABETES_OF_THE_YOUNG	0.0439768399254423
REACTOME_NUCLEOTIDE_LIKE_PURINERGIC_RECEPTORS	0.045700534313999
PID_HDAC_CLASSIII_PATHWAY	0.0470217552966355
PID_GMCSF_PATHWAY	0.047115730916085
PID_ECADHERIN_NASCENTAJ_PATHWAY	0.0471458505682804
KEGG_TGF_BETA_SIGNALING_PATHWAY	0.0473941725345533
PID_HNF3BPATHWAY	0.0474889105592558
KEGG_TYPE_II_DIABETES_MELLITUS	0.0486035015490506
PID_INTEGRIN3_PATHWAY	0.0488519095452917
BIOCARTA_IL2RB_PATHWAY	0.0488545571182921
WNT_SIGNALING	0.0499382300125563
BIOCARTA_CTCF_PATHWAY	0.0504765561580097
PID_ECADHERIN_STABILIZATION_PATHWAY	0.0507753961108043
BIOCARTA_PPARA_PATHWAY	0.0509797015149051
BIOCARTA_NGF_PATHWAY	0.0520092176609041
REACTOME_SIGNALING_BY_ERBB4	0.0524637914326342
REACTOME_SIGNALING_BY_ILS	0.0534841288277364
REACTOME_SLC_MEDIATED_TRANSMEMBRANE_TRANSPORT	0.0538127307840837
PID_ERBB1_DOWNSTREAM_PATHWAY	0.0540922151003392
BIOCARTA_TGFB_PATHWAY	0.0557743883794349
REACTOME_SEMA4D_INDUCED_CELL_MIGRATION_AND_GROWTH_CONE_COLLAPSE	0.0559585694725372
REACTOME_METABOLISM_OF_LIPIDS_AND_LIPOPROTEINS	0.056149833668548
KEGG_GNRH_SIGNALING_PATHWAY	0.0566139451661591
REACTOME_REGULATION_OF_BETA_CELL_DEVELOPMENT	0.0586194982758287
PID_FGF_PATHWAY	0.05893709132668
REACTOME_REGULATION_OF_INSULIN_SECRETION_BY_ACETYLCHOLINE	0.0594445360351753
PID_ATF2_PATHWAY	0.0599863413982908
REACTOME_LIPID_DIGESTION_MOBILIZATION_AND_TRANSPORT	0.0612499278846564
BIOCARTA_GSK3_PATHWAY	0.0614444567954476
PID_LPA4_PATHWAY	0.0618221735381574
REACTOME_IL_2_SIGNALING	0.0645435028224875
REACTOME_SYNTHESIS_OF_PIPS_AT_THE_PLASMA_MEMBRANE	0.065636105786403
REACTOME_KERATAN_SULFATE_BIOSYNTHESIS	0.0674482135645732
ST_DIFFERENTIATION_PATHWAY_IN_PC12_CELLS	0.0680457102773705
KEGG_NATURAL_KILLER_CELL_MEDIATED_CYTOTOXICITY	0.0680507849532411
PID_MET_PATHWAY	0.068196780275833
REACTOME_TRANSPORT_OF_INORGANIC_CATIONS_ANIONS_AND_AMINO_ACIDS_OLIGOPEPTIDES	0.0699636330439259
KEGG_MTOR_SIGNALING_PATHWAY	0.0701762486655645
REACTOME_REGULATION_OF_INSULIN_SECRETION	0.0709715001716879
PID_NETRIN_PATHWAY	0.0710356261343991
KEGG_AXON_GUIDANCE	0.0710892867859376
REACTOME_SMAD2_SMAD3_SMAD4_HETEROTRIMER_REGULATES_TRANSCRIPTION	0.0713492189444022
REACTOME_GPCR_LIGAND_BINDING	0.0724242027610984
REACTOME_AMINE_COMPOUND_SLC_TRANSPORTERS	0.0729565751055242
REACTOME_ADP_SIGNALLING_THROUGH_P2RY1	0.0731062481448567
PID_PDGFRBPATHWAY	0.0737437017033995
SIG_PIP3_SIGNALING_IN_CARDIAC_MYOCTES	0.0741057015020364
KEGG_MAPK_SIGNALING_PATHWAY	0.0742609757783689
PID_ERBB1_INTERNALIZATION_PATHWAY	0.0744210424596011
KEGG_LONG_TERM_DEPRESSION	0.0745053824567833
REACTOME_PI_METABOLISM	0.0751769784108894
BIOCARTA_AMI_PATHWAY	0.0765244010151065
PID_S1P_S1P1_PATHWAY	0.0766197705052699
BIOCARTA_HCMV_PATHWAY	0.0768852018717334
KEGG_BASAL_CELL_CARCINOMA	0.0770250419101472
REACTOME_EXTRACELLULAR_MATRIX_ORGANIZATION	0.0777830706863809
REACTOME_AMINO_ACID_AND_OLIGOPEPTIDE_SLC_TRANSPORTERS	0.0778660354956077
REACTOME_DOWNSTREAM_SIGNAL_TRANSDUCTION	0.0789522920155574
KEGG_TYROSINE_METABOLISM	0.0794672482628019
REACTOME_METABOLISM_OF_PROTEINS	0.0796487025322421
REACTOME_SIGNALING_BY_NODAL	0.0800368259916076
KEGG_LONG_TERM_POTENTIATION	0.0801310190755373
PID_DELTANP63PATHWAY	0.0803532460950167
KEGG_APOPTOSIS	0.0808061535487815
PID_P73PATHWAY	0.0844605671815735
PID_NECTIN_PATHWAY	0.0846150941543784
KEGG_MELANOMA	0.0854274713022519
ST_FAS_SIGNALING_PATHWAY	0.0859575862221943
REACTOME_PHOSPHOLIPASE_C_MEDIATED_CASCADE	0.0862550248341251
KEGG_COLORECTAL_CANCER	0.0862701650362963
ST_MYOCYTE_AD_PATHWAY	0.0865781315844646
KEGG_INOSITOL_PHOSPHATE_METABOLISM	0.0869116152166592
REACTOME_SIGNALING_BY_GPCR	0.0874361097888536
REACTOME_GRB2_EVENTS_IN_ERBB2_SIGNALING	0.0894210746144319
REACTOME_TGF_BETA_RECEPTOR_SIGNALING_ACTIVATES_SMADS	0.0895958232931513
PID_SMAD2_3NUCLEARPATHWAY	0.0896295693939204
REACTOME_APOPTOTIC_CLEAVAGE_OF_CELL_ADHESION_PROTEINS	0.0898030462700257
KEGG_TIGHT_JUNCTION	0.0898625058394498
PID_IGF1_PATHWAY	0.0899073774300927
REACTOME_PI3K_CASCADE	0.0901814074745667
KEGG_FOCAL_ADHESION	0.0906523484965451
PID_CXCR3PATHWAY	0.0915113718724295
ST_PHOSPHOINOSITIDE_3_KINASE_PATHWAY	0.0918095617835398
REACTOME_TIE2_SIGNALING	0.0927778993609953
BIOCARTA_EPHA4_PATHWAY	0.0936423452620139
KEGG_VIRAL_MYOCARDITIS	0.0941713838087998
REACTOME_NUCLEAR_RECEPTOR_TRANSCRIPTION_PATHWAY	0.0952934424793798
REACTOME_ETHANOL_OXIDATION	0.0955649749492765
KEGG_CELL_ADHESION_MOLECULES_CAMS	0.0958694451525545
BIOCARTA_ERK5_PATHWAY	0.0959269873027103
BIOCARTA_ALK_PATHWAY	0.0971822334185442
ST_JAK_STAT_PATHWAY	0.0978019838400075
BIOCARTA_BARRESTIN_PATHWAY	0.0978751227561791
PID_IL2_1PATHWAY	0.0983371733106377
REACTOME_SIGNALING_BY_CONSTITUTIVELY_ACTIVE_EGFR	0.0986626209123286
REACTOME_CELL_SURFACE_INTERACTIONS_AT_THE_VASCULAR_WALL	0.100294696114812
BIOCARTA_SPPA_PATHWAY	0.100878539556777
REACTOME_INTERACTION_BETWEEN_L1_AND_ANKYRINS	0.102750592400654
REACTOME_ION_TRANSPORT_BY_P_TYPE_ATPASES	0.102858942518158
BIOCARTA_MTA3_PATHWAY	0.103269090153366
PID_EPHRINBREVPATHWAY	0.103577320229923
KEGG_ENDOMETRIAL_CANCER	0.105477249280599
REACTOME_SIGNALING_BY_FGFR_IN_DISEASE	0.105639969990155
REACTOME_REGULATION_OF_SIGNALING_BY_CBL	0.105642065388641
REACTOME_NA_CL_DEPENDENT_NEUROTRANSMITTER_TRANSPORTERS	0.105811620983258
PID_LYSOPHOSPHOLIPID_PATHWAY	0.106272859818992
REACTOME_DIGESTION_OF_DIETARY_CARBOHYDRATE	0.107186643861968
PID_ERA_GENOMIC_PATHWAY	0.107541911864777
KEGG_ARRHYTHMOGENIC_RIGHT_VENTRICULAR_CARDIOMYOPATHY_ARVC	0.108881157506708
PID_RHOA_REG_PATHWAY	0.109143437575009
KEGG_WNT_SIGNALING_PATHWAY	0.110461655323347
REACTOME_NRAGE_SIGNALS_DEATH_THROUGH_JNK	0.111404137998375
REACTOME_NOREPINEPHRINE_NEUROTRANSMITTER_RELEASE_CYCLE	0.112635735399357
REACTOME_P38MAPK_EVENTS	0.11296721076102
KEGG_DILATED_CARDIOMYOPATHY	0.113146992586647
REACTOME_INTEGRATION_OF_ENERGY_METABOLISM	0.115637526264484
PID_ENDOTHELINPATHWAY	0.117389578722376
REACTOME_PHOSPHOLIPID_METABOLISM	0.118440645299826
PID_IL3_PATHWAY	0.118720795902937
ST_INTERFERON_GAMMA_PATHWAY	0.11899609834897
PID_LYMPHANGIOGENESIS_PATHWAY	0.121618561792653
REACTOME_SIGNALING_BY_NOTCH	0.122234940108954
PID_AR_NONGENOMIC_PATHWAY	0.124206703851773
BIOCARTA_GLEEVEC_PATHWAY	0.12612199494111
KEGG_NON_SMALL_CELL_LUNG_CANCER	0.126388957926441
PID_NFKAPPABATYPICALPATHWAY	0.126895573057428
KEGG_THYROID_CANCER	0.128046228581374
REACTOME_ACTIVATION_OF_NMDA_RECEPTOR_UPON_GLUTAMATE_BINDING_AND_POSTSYNAPTIC_EVENTS	0.128384962824966
BIOCARTA_RAC1_PATHWAY	0.128742824531707
BIOCARTA_P53_PATHWAY	0.128924287372174
BIOCARTA_RAS_PATHWAY	0.129452684999299
REACTOME_TRAFFICKING_OF_GLUR2_CONTAINING_AMPA_RECEPTORS	0.130190856139752
REACTOME_METAL_ION_SLC_TRANSPORTERS	0.130709049447087
PID_IL2_STAT5PATHWAY	0.131681582492335
BIOCARTA_WNT_PATHWAY	0.13203551990425
REACTOME_GPVI_MEDIATED_ACTIVATION_CASCADE	0.132735787754248
PID_ERBB2ERBB3PATHWAY	0.132796362057003
KEGG_COMPLEMENT_AND_COAGULATION_CASCADES	0.134732505961951
KEGG_NEUROACTIVE_LIGAND_RECEPTOR_INTERACTION	0.135613496460937
REACTOME_CYTOKINE_SIGNALING_IN_IMMUNE_SYSTEM	0.135847312216544
PID_AVB3_INTEGRIN_PATHWAY	0.136499585890061
KEGG_PATHWAYS_IN_CANCER	0.137622638158448
KEGG_ADIPOCYTOKINE_SIGNALING_PATHWAY	0.1379279353741
BIOCARTA_NTHI_PATHWAY	0.138362874759676
REACTOME_SIGNALING_BY_NOTCH1	0.138547032458305
PID_RAC1_REG_PATHWAY	0.140762237074836
BIOCARTA_GH_PATHWAY	0.141309890136913
PID_SHP2_PATHWAY	0.143740972504036
REACTOME_APOPTOTIC_EXECUTION_PHASE	0.14449203620647
REACTOME_TRANSMEMBRANE_TRANSPORT_OF_SMALL_MOLECULES	0.146454781272141
KEGG_REGULATION_OF_ACTIN_CYTOSKELETON	0.148150019059419
BIOCARTA_KERATINOCYTE_PATHWAY	0.14829012324363
KEGG_LIMONENE_AND_PINENE_DEGRADATION	0.149882807268499
REACTOME_UNBLOCKING_OF_NMDA_RECEPTOR_GLUTAMATE_BINDING_AND_ACTIVATION	0.150735697128407
KEGG_DORSO_VENTRAL_AXIS_FORMATION	0.151984914451981
BIOCARTA_LAIR_PATHWAY	0.153909432790093
PID_PI3KPLCTRKPATHWAY	0.155254086613096
PID_GLYPICAN_1PATHWAY	0.156182481671588
REACTOME_POTASSIUM_CHANNELS	0.158684937562818
REACTOME_SIGNALING_BY_RHO_GTPASES	0.159613131323296
REACTOME_ADHERENS_JUNCTIONS_INTERACTIONS	0.159737686727983
KEGG_ENDOCYTOSIS	0.160871230714168
REACTOME_HS_GAG_DEGRADATION	0.16095303332566
REACTOME_CLASS_A1_RHODOPSIN_LIKE_RECEPTORS	0.162001601973059
REACTOME_DSCAM_INTERACTIONS	0.162097775305677
REACTOME_TRANSPORT_OF_ORGANIC_ANIONS	0.163282701176359
REACTOME_APOBEC3G_MEDIATED_RESISTANCE_TO_HIV1_INFECTION	0.16414397600704
ST_INTERLEUKIN_4_PATHWAY	0.165615443527018
PID_EPOPATHWAY	0.165854721171739
BIOCARTA_AKT_PATHWAY	0.165864478591313
REACTOME_KERATAN_SULFATE_KERATIN_METABOLISM	0.166988576271605
REACTOME_NEPHRIN_INTERACTIONS	0.169252830693269
BIOCARTA_IGF1R_PATHWAY	0.170403987721623
REACTOME_G_ALPHA_I_SIGNALLING_EVENTS	0.170719995545009
REACTOME_SYNTHESIS_OF_PC	0.173500508360256
PID_ERBB_NETWORK_PATHWAY	0.175787378546626
BIOCARTA_CARDIACEGF_PATHWAY	0.176850958198917
REACTOME_IL_3_5_AND_GM_CSF_SIGNALING	0.177585888934003
BIOCARTA_CXCR4_PATHWAY	0.179449917773289
REACTOME_GABA_SYNTHESIS_RELEASE_REUPTAKE_AND_DEGRADATION	0.17989573510413
REACTOME_SIGNALING_BY_ERBB2	0.181582345901241
REACTOME_GENERIC_TRANSCRIPTION_PATHWAY	0.181826631749495
PID_ARF6_PATHWAY	0.184541478682664
PID_RXR_VDR_PATHWAY	0.185161701219674
PID_RB_1PATHWAY	0.185598571812329
KEGG_TAURINE_AND_HYPOTAURINE_METABOLISM	0.188881478825282
KEGG_ABC_TRANSPORTERS	0.190188025230825
PID_REG_GR_PATHWAY	0.190965353050193
BIOCARTA_FREE_PATHWAY	0.191010671368553
PID_IL6_7PATHWAY	0.191338738241339
REACTOME_SYNTHESIS_OF_PIPS_AT_THE_GOLGI_MEMBRANE	0.191698209874939
REACTOME_PI3K_EVENTS_IN_ERBB2_SIGNALING	0.192201111179422
BIOCARTA_ECM_PATHWAY	0.192769873275398
KEGG_BETA_ALANINE_METABOLISM	0.193093206209386
BIOCARTA_ARF_PATHWAY	0.193196005442209
REACTOME_RECYCLING_OF_BILE_ACIDS_AND_SALTS	0.19322073898179
KEGG_CYTOKINE_CYTOKINE_RECEPTOR_INTERACTION	0.195733156745288
BIOCARTA_TEL_PATHWAY	0.195923900342502
REACTOME_A_TETRASACCHARIDE_LINKER_SEQUENCE_IS_REQUIRED_FOR_GAG_SYNTHESIS	0.196855093631194
KEGG_RENIN_ANGIOTENSIN_SYSTEM	0.197564290569063
BIOCARTA_ERYTH_PATHWAY	0.198093808490449
BIOCARTA_LONGEVITY_PATHWAY	0.198943457124126
REACTOME_TOLL_RECEPTOR_CASCADES	0.20077709171766
REACTOME_PASSIVE_TRANSPORT_BY_AQUAPORINS	0.202646267827239
KEGG_FC_GAMMA_R_MEDIATED_PHAGOCYTOSIS	0.203061243252901
REACTOME_TRANSMISSION_ACROSS_CHEMICAL_SYNAPSES	0.204322770930052
PID_CDC42_PATHWAY	0.205266988148536
REACTOME_IL_RECEPTOR_SHC_SIGNALING	0.207511278357694
PID_VEGFR1_PATHWAY	0.208942373895181
SA_FAS_SIGNALING	0.212105928138975
PID_BCR_5PATHWAY	0.213172944742533
BIOCARTA_SKP2E2F_PATHWAY	0.213697320290258
REACTOME_GAMMA_CARBOXYLATION_TRANSPORT_AND_AMINO_TERMINAL_CLEAVAGE_OF_PROTEINS	0.214136730374257
REACTOME_COLLAGEN_FORMATION	0.216211397250462
REACTOME_SIGNALING_BY_EGFR_IN_CANCER	0.216507222797379
REACTOME_APOPTOSIS	0.21668246044009
BIOCARTA_FIBRINOLYSIS_PATHWAY	0.218659172843159
REACTOME_MUSCLE_CONTRACTION	0.218745143737854
REACTOME_STRIATED_MUSCLE_CONTRACTION	0.218951071764718
PID_INTEGRIN1_PATHWAY	0.220467212615407
KEGG_OOCYTE_MEIOSIS	0.223323167800603
REACTOME_SIGNALING_BY_FGFR1_MUTANTS	0.223494817309933
PID_NEPHRIN_NEPH1_PATHWAY	0.22389065378437
PID_ERBB1_RECEPTOR_PROXIMAL_PATHWAY	0.224981020015747
REACTOME_PLATELET_CALCIUM_HOMEOSTASIS	0.225144739482722
SA_B_CELL_RECEPTOR_COMPLEXES	0.226009329657972
BIOCARTA_MET_PATHWAY	0.226106420593905
PID_NFAT_TFPATHWAY	0.2289543858434
PID_TRAIL_PATHWAY	0.229501727004935
PID_AVB3_OPN_PATHWAY	0.231537218050523
REACTOME_ION_CHANNEL_TRANSPORT	0.231745327116606
REACTOME_ADENYLATE_CYCLASE_INHIBITORY_PATHWAY	0.233700607006843
PID_CERAMIDE_PATHWAY	0.234846567895201
REACTOME_PEPTIDE_LIGAND_BINDING_RECEPTORS	0.23507083406269
PID_CXCR4_PATHWAY	0.238428084791015
REACTOME_NCAM1_INTERACTIONS	0.238537651783771
BIOCARTA_PS1_PATHWAY	0.239110141788742
REACTOME_SIGNALING_BY_FGFR1_FUSION_MUTANTS	0.2405809620951
KEGG_PHENYLALANINE_METABOLISM	0.241418433530937
BIOCARTA_NFAT_PATHWAY	0.241824044661976
BIOCARTA_ACE2_PATHWAY	0.242274443833071
KEGG_NEUROTROPHIN_SIGNALING_PATHWAY	0.246785935188642
KEGG_FATTY_ACID_METABOLISM	0.247375573427441
REACTOME_GLYCOSAMINOGLYCAN_METABOLISM	0.249853256185184
REACTOME_REGULATION_OF_INSULIN_SECRETION_BY_GLUCAGON_LIKE_PEPTIDE1	0.251051259738133
REACTOME_GLUCAGON_SIGNALING_IN_METABOLIC_REGULATION	0.252423031610317
REACTOME_ELEVATION_OF_CYTOSOLIC_CA2_LEVELS	0.253793031014122
PID_AMB2_NEUTROPHILS_PATHWAY	0.254075604046854
BIOCARTA_PLATELETAPP_PATHWAY	0.255710950272791
KEGG_RENAL_CELL_CARCINOMA	0.256079028430477
BIOCARTA_RACCYCD_PATHWAY	0.257170402438181
REACTOME_ACTIVATION_OF_BH3_ONLY_PROTEINS	0.258610806500884
KEGG_VASCULAR_SMOOTH_MUSCLE_CONTRACTION	0.259342294177838
PID_EPHBFWDPATHWAY	0.262222801787872
REACTOME_DAG_AND_IP3_SIGNALING	0.263278566221659
REACTOME_SIGNALING_BY_THE_B_CELL_RECEPTOR_BCR	0.263892480424832
PID_FOXM1PATHWAY	0.266052056768977
SIG_IL4RECEPTOR_IN_B_LYPHOCYTES	0.266567958259278
BIOCARTA_UCALPAIN_PATHWAY	0.266769734648664
REACTOME_N_GLYCAN_ANTENNAE_ELONGATION	0.267577749926252
REACTOME_REGULATION_OF_THE_FANCONI_ANEMIA_PATHWAY	0.268088527080122
REACTOME_METABOLISM_OF_STEROID_HORMONES_AND_VITAMINS_A_AND_D	0.268857896638988
PID_INTEGRIN4_PATHWAY	0.270613874817688
PID_ERBB4_PATHWAY	0.271246763559274
BIOCARTA_HDAC_PATHWAY	0.272918811615708
KEGG_CALCIUM_SIGNALING_PATHWAY	0.273460492128349
REACTOME_RAF_MAP_KINASE_CASCADE	0.274175289422481
REACTOME_TRIGLYCERIDE_BIOSYNTHESIS	0.274369075329851
BIOCARTA_IGF1MTOR_PATHWAY	0.275149483633586
REACTOME_SIGNALING_BY_FGFR	0.275593968929511
PID_UPA_UPAR_PATHWAY	0.276416059129771
PID_S1P_S1P2_PATHWAY	0.278863053883839
PID_INTEGRIN2_PATHWAY	0.28487443468825
REACTOME_OPIOID_SIGNALLING	0.285312279454614
PID_SYNDECAN_4_PATHWAY	0.287646710468033
KEGG_PPAR_SIGNALING_PATHWAY	0.29002380560263
PID_TOLL_ENDOGENOUS_PATHWAY	0.291072277723761
REACTOME_REGULATION_OF_COMPLEMENT_CASCADE	0.291904497692964
REACTOME_TIGHT_JUNCTION_INTERACTIONS	0.292131877670219
REACTOME_SIGNALING_BY_FGFR_MUTANTS	0.293642212734302
ST_STAT3_PATHWAY	0.294049696676475
REACTOME_INTEGRATION_OF_PROVIRUS	0.297587910564002
REACTOME_PLATELET_ACTIVATION_SIGNALING_AND_AGGREGATION	0.297771829527691
PID_S1P_S1P4_PATHWAY	0.29860388386897
REACTOME_PROLONGED_ERK_ACTIVATION_EVENTS	0.298638587664052
BIOCARTA_DC_PATHWAY	0.300388322450569
PID_PS1PATHWAY	0.300847585634115
BIOCARTA_TRKA_PATHWAY	0.301084529537167
ST_INTEGRIN_SIGNALING_PATHWAY	0.303859092499884
PID_FOXOPATHWAY	0.303938627490303
BIOCARTA_FCER1_PATHWAY	0.304059196384435
PID_MYC_REPRESSPATHWAY	0.305160396007721
BIOCARTA_RNA_PATHWAY	0.307118522582672
BIOCARTA_VEGF_PATHWAY	0.309694424462187
KEGG_PROXIMAL_TUBULE_BICARBONATE_RECLAMATION	0.312806047725622
REACTOME_L1CAM_INTERACTIONS	0.312994912296613
REACTOME_RAS_ACTIVATION_UOPN_CA2_INFUX_THROUGH_NMDA_RECEPTOR	0.314758413387261
REACTOME_TRAFFICKING_OF_AMPA_RECEPTORS	0.319642070846178
REACTOME_SYNTHESIS_SECRETION_AND_INACTIVATION_OF_GLP1	0.320510529162937
REACTOME_TRANSCRIPTIONAL_ACTIVITY_OF_SMAD2_SMAD3_SMAD4_HETEROTRIMER	0.321562822982066
KEGG_HISTIDINE_METABOLISM	0.323265292169059
PID_HNF3APATHWAY	0.325775542232284
REACTOME_HEMOSTASIS	0.326377144882748
REACTOME_SPHINGOLIPID_DE_NOVO_BIOSYNTHESIS	0.326790735246389
REACTOME_ORGANIC_CATION_ANION_ZWITTERION_TRANSPORT	0.327660735524163
BIOCARTA_MAL_PATHWAY	0.329794908901215
KEGG_ACUTE_MYELOID_LEUKEMIA	0.330047828858759
PID_FCER1PATHWAY	0.330078706393167
BIOCARTA_PML_PATHWAY	0.331017826167614
REACTOME_CELL_DEATH_SIGNALLING_VIA_NRAGE_NRIF_AND_NADE	0.331968492578016
REACTOME_DEGRADATION_OF_THE_EXTRACELLULAR_MATRIX	0.336513362255985
PID_IL5_PATHWAY	0.337041183417552
PID_HEDGEHOG_2PATHWAY	0.337478862933029
REACTOME_CIRCADIAN_REPRESSION_OF_EXPRESSION_BY_REV_ERBA	0.338344986803654
PID_NFAT_3PATHWAY	0.338831855591879
REACTOME_SIGNALLING_TO_P38_VIA_RIT_AND_RIN	0.339482287585177
KEGG_HEDGEHOG_SIGNALING_PATHWAY	0.339574301854552
REACTOME_PI3K_AKT_ACTIVATION	0.339981746372288
REACTOME_INNATE_IMMUNE_SYSTEM	0.343070252450576
REACTOME_METABOLISM_OF_AMINO_ACIDS_AND_DERIVATIVES	0.345750775513841
REACTOME_SEMAPHORIN_INTERACTIONS	0.345969628718641
KEGG_NITROGEN_METABOLISM	0.346632972446066
PID_ARF6DOWNSTREAMPATHWAY	0.348274651631238
REACTOME_PLC_BETA_MEDIATED_EVENTS	0.351301002158066
REACTOME_SHC1_EVENTS_IN_EGFR_SIGNALING	0.351391606640341
KEGG_VASOPRESSIN_REGULATED_WATER_REABSORPTION	0.352983264178105
ST_GRANULE_CELL_SURVIVAL_PATHWAY	0.354683627392214
PID_FAK_PATHWAY	0.355678456022033
REACTOME_ADVANCED_GLYCOSYLATION_ENDPRODUCT_RECEPTOR_SIGNALING	0.357505120706932
BIOCARTA_ACH_PATHWAY	0.359079070169727
REACTOME_VOLTAGE_GATED_POTASSIUM_CHANNELS	0.360024083960569
PID_ARF6_TRAFFICKINGPATHWAY	0.36056330824073
BIOCARTA_PTDINS_PATHWAY	0.362455108464892
REACTOME_G_ALPHA_Q_SIGNALLING_EVENTS	0.363442823469336
KEGG_STARCH_AND_SUCROSE_METABOLISM	0.364602289515565
PID_WNT_CANONICAL_PATHWAY	0.364944711023574
REACTOME_ADAPTIVE_IMMUNE_SYSTEM	0.367685963511197
REACTOME_SHC_MEDIATED_CASCADE	0.368481708727874
REACTOME_METABOLISM_OF_CARBOHYDRATES	0.368827850671935
REACTOME_PECAM1_INTERACTIONS	0.37456765412391
REACTOME_SIGNALING_BY_TGF_BETA_RECEPTOR_COMPLEX	0.375587407085922
KEGG_GLYCEROPHOSPHOLIPID_METABOLISM	0.376521046958165
ST_G_ALPHA_S_PATHWAY	0.377803764655056
BIOCARTA_INSULIN_PATHWAY	0.378069210795923
KEGG_PATHOGENIC_ESCHERICHIA_COLI_INFECTION	0.379161856392065
REACTOME_TGF_BETA_RECEPTOR_SIGNALING_IN_EMT_EPITHELIAL_TO_MESENCHYMAL_TRANSITION	0.379885944059972
PID_HIF1_TFPATHWAY	0.380971963673612
REACTOME_SULFUR_AMINO_ACID_METABOLISM	0.381302463725642
REACTOME_SYNTHESIS_OF_PA	0.385050894711883
ST_GA12_PATHWAY	0.385938434206272
REACTOME_AXON_GUIDANCE	0.386610175767047
KEGG_DRUG_METABOLISM_OTHER_ENZYMES	0.387911239658168
KEGG_ERBB_SIGNALING_PATHWAY	0.389489022291177
REACTOME_PLATELET_HOMEOSTASIS	0.390766746355114
REACTOME_HDL_MEDIATED_LIPID_TRANSPORT	0.391138862571158
REACTOME_HYALURONAN_UPTAKE_AND_DEGRADATION	0.393450930859774
BIOCARTA_SPRY_PATHWAY	0.394271390841025
REACTOME_SYNTHESIS_OF_VERY_LONG_CHAIN_FATTY_ACYL_COAS	0.394558669358607
KEGG_AMYOTROPHIC_LATERAL_SCLEROSIS_ALS	0.395855041697306
REACTOME_SIGNALING_BY_HIPPO	0.39613791318821
REACTOME_BINDING_AND_ENTRY_OF_HIV_VIRION	0.396217526911107
KEGG_GLYCOSPHINGOLIPID_BIOSYNTHESIS_GLOBO_SERIES	0.397010553104624
REACTOME_TCR_SIGNALING	0.397850274462324
BIOCARTA_BARR_MAPK_PATHWAY	0.403132683985362
PID_INTEGRIN5_PATHWAY	0.406721136804969
BIOCARTA_TFF_PATHWAY	0.4071165174078
PID_INSULIN_PATHWAY	0.407897247140012
REACTOME_ACETYLCHOLINE_NEUROTRANSMITTER_RELEASE_CYCLE	0.408101297390476
REACTOME_SIGNALLING_TO_ERKS	0.408752805964127
BIOCARTA_HIVNEF_PATHWAY	0.41046469538278
KEGG_INSULIN_SIGNALING_PATHWAY	0.411012711894592
REACTOME_NITRIC_OXIDE_STIMULATES_GUANYLATE_CYCLASE	0.411357481180704
REACTOME_POST_NMDA_RECEPTOR_ACTIVATION_EVENTS	0.412246704276074
REACTOME_BMAL1_CLOCK_NPAS2_ACTIVATES_CIRCADIAN_EXPRESSION	0.415293910734897
ST_WNT_BETA_CATENIN_PATHWAY	0.415524479704831
PID_IL8CXCR2_PATHWAY	0.417033902461412
REACTOME_RORA_ACTIVATES_CIRCADIAN_EXPRESSION	0.420706137942242
PID_RETINOIC_ACID_PATHWAY	0.422690284913612
REACTOME_CGMP_EFFECTS	0.423661794589177
REACTOME_FORMATION_OF_FIBRIN_CLOT_CLOTTING_CASCADE	0.425000713055265
REACTOME_DOWNREGULATION_OF_SMAD2_3_SMAD4_TRANSCRIPTIONAL_ACTIVITY	0.426126792751878
REACTOME_NEUROTRANSMITTER_RELEASE_CYCLE	0.42626864825978
REACTOME_IONOTROPIC_ACTIVITY_OF_KAINATE_RECEPTORS	0.426768497399949
BIOCARTA_CERAMIDE_PATHWAY	0.429127296044129
PID_IL4_2PATHWAY	0.431519026316206
REACTOME_ARMS_MEDIATED_ACTIVATION	0.431615990540685
REACTOME_GAP_JUNCTION_ASSEMBLY	0.433533738224895
REACTOME_BILE_SALT_AND_ORGANIC_ANION_SLC_TRANSPORTERS	0.43487107698238
REACTOME_INTRINSIC_PATHWAY_FOR_APOPTOSIS	0.43617249785087
REACTOME_NEUROTRANSMITTER_RECEPTOR_BINDING_AND_DOWNSTREAM_TRANSMISSION_IN_THE_POSTSYNAPTIC_CELL	0.439569536831738
REACTOME_INHIBITION_OF_INSULIN_SECRETION_BY_ADRENALINE_NORADRENALINE	0.439827384573755
BIOCARTA_NFKB_PATHWAY	0.440175053130705
BIOCARTA_NUCLEARRS_PATHWAY	0.443596383379887
PID_IFNGPATHWAY	0.444627293075799
REACTOME_CREB_PHOSPHORYLATION_THROUGH_THE_ACTIVATION_OF_RAS	0.445050890784432
REACTOME_COMMON_PATHWAY	0.44642714777314
REACTOME_G1_S_SPECIFIC_TRANSCRIPTION	0.446544496148903
REACTOME_SYNTHESIS_OF_PIPS_AT_THE_LATE_ENDOSOME_MEMBRANE	0.446739037098716
REACTOME_TRANSCRIPTIONAL_REGULATION_OF_WHITE_ADIPOCYTE_DIFFERENTIATION	0.448454704514715
PID_TAP63PATHWAY	0.449314011654752
REACTOME_PI3K_EVENTS_IN_ERBB4_SIGNALING	0.449613578990485
REACTOME_RAP1_SIGNALLING	0.450184893711813
BIOCARTA_COMP_PATHWAY	0.451043718891156
BIOCARTA_ACTINY_PATHWAY	0.451203509419942
REACTOME_DCC_MEDIATED_ATTRACTIVE_SIGNALING	0.451213655559558
REACTOME_SIGNALLING_TO_RAS	0.45163126442056
ST_GA13_PATHWAY	0.453254875465156
KEGG_ARGININE_AND_PROLINE_METABOLISM	0.453361455939309
BIOCARTA_TPO_PATHWAY	0.453537663820154
BIOCARTA_TID_PATHWAY	0.45570987350366
PID_RAC1_PATHWAY	0.456257934775723
BIOCARTA_G1_PATHWAY	0.458260240021469
REACTOME_ABC_FAMILY_PROTEINS_MEDIATED_TRANSPORT	0.458465077621975
REACTOME_GLYCEROPHOSPHOLIPID_BIOSYNTHESIS	0.458549314774704
PID_HEDGEHOG_GLIPATHWAY	0.458812614334012
REACTOME_IL_6_SIGNALING	0.458885168634182
REACTOME_NEGATIVE_REGULATION_OF_FGFR_SIGNALING	0.459328705062984
KEGG_PRIMARY_BILE_ACID_BIOSYNTHESIS	0.460784413842489
REACTOME_CHONDROITIN_SULFATE_BIOSYNTHESIS	0.461953021978947
BIOCARTA_GCR_PATHWAY	0.46438601477585
PID_ANGIOPOIETINRECEPTOR_PATHWAY	0.464485990228534
ST_WNT_CA2_CYCLIC_GMP_PATHWAY	0.464940383024865
KEGG_JAK_STAT_SIGNALING_PATHWAY	0.467844502237729
BIOCARTA_MCALPAIN_PATHWAY	0.468485634400413
KEGG_ARACHIDONIC_ACID_METABOLISM	0.469839915458455
KEGG_SULFUR_METABOLISM	0.470773205608544
BIOCARTA_EGF_PATHWAY	0.474833167454613
REACTOME_CLASS_I_MHC_MEDIATED_ANTIGEN_PROCESSING_PRESENTATION	0.475455823637595
REACTOME_NUCLEOTIDE_BINDING_DOMAIN_LEUCINE_RICH_REPEAT_CONTAINING_RECEPTOR_NLR_SIGNALING_PATHWAYS	0.476538471056592
REACTOME_HEPARAN_SULFATE_HEPARIN_HS_GAG_METABOLISM	0.47736328692199
KEGG_NOD_LIKE_RECEPTOR_SIGNALING_PATHWAY	0.478471564305293
SIG_CHEMOTAXIS	0.478567529410306
REACTOME_SYNTHESIS_OF_BILE_ACIDS_AND_BILE_SALTS	0.479241027516462
BIOCARTA_BLYMPHOCYTE_PATHWAY	0.479953231844536
PID_RHODOPSIN_PATHWAY	0.480831420135678
KEGG_ECM_RECEPTOR_INTERACTION	0.480927628876487
PID_IL1PATHWAY	0.481651228068177
REACTOME_GABA_RECEPTOR_ACTIVATION	0.481654648991907
PID_ILK_PATHWAY	0.482142907243107
REACTOME_CREB_PHOSPHORYLATION_THROUGH_THE_ACTIVATION_OF_CAMKII	0.484486815006306
KEGG_RIBOFLAVIN_METABOLISM	0.484737922218035
REACTOME_NFKB_IS_ACTIVATED_AND_SIGNALS_SURVIVAL	0.484995063726407
REACTOME_GAP_JUNCTION_TRAFFICKING	0.488185603019585
KEGG_O_GLYCAN_BIOSYNTHESIS	0.490314708592226
REACTOME_ACTIVATION_OF_KAINATE_RECEPTORS_UPON_GLUTAMATE_BINDING	0.490470565457433
PID_ALK1PATHWAY	0.490784428548433
PID_CASPASE_PATHWAY	0.491375166074346
KEGG_RIG_I_LIKE_RECEPTOR_SIGNALING_PATHWAY	0.494051207678336
REACTOME_INTRINSIC_PATHWAY	0.496155904114449
REACTOME_GAB1_SIGNALOSOME	0.497292721502568
REACTOME_CD28_DEPENDENT_PI3K_AKT_SIGNALING	0.498594236824891
REACTOME_TRANSPORT_TO_THE_GOLGI_AND_SUBSEQUENT_MODIFICATION	0.500232296276171
REACTOME_CLASS_B_2_SECRETIN_FAMILY_RECEPTORS	0.501734473210416
PID_P38GAMMADELTAPATHWAY	0.504318573844339
BIOCARTA_EDG1_PATHWAY	0.505243294269981
REACTOME_PI_3K_CASCADE	0.5056730539956
REACTOME_G_ALPHA_Z_SIGNALLING_EVENTS	0.506094385847821
BIOCARTA_MITOCHONDRIA_PATHWAY	0.506290013533963
REACTOME_RIP_MEDIATED_NFKB_ACTIVATION_VIA_DAI	0.507917979211684
KEGG_UBIQUITIN_MEDIATED_PROTEOLYSIS	0.50972172885844
KEGG_ASCORBATE_AND_ALDARATE_METABOLISM	0.51275953009095
REACTOME_P130CAS_LINKAGE_TO_MAPK_SIGNALING_FOR_INTEGRINS	0.514539329450289
PID_HES_HEYPATHWAY	0.515426735013942
REACTOME_SHC_RELATED_EVENTS	0.516279226191308
REACTOME_GAP_JUNCTION_DEGRADATION	0.517682726877468
BIOCARTA_NEUROTRANSMITTERS_PATHWAY	0.520610531812958
BIOCARTA_BARRESTIN_SRC_PATHWAY	0.521483384931048
BIOCARTA_ERK_PATHWAY	0.52166164322805
KEGG_METABOLISM_OF_XENOBIOTICS_BY_CYTOCHROME_P450	0.523663082225123
PID_BETACATENIN_DEG_PATHWAY	0.526056802348625
ST_T_CELL_SIGNAL_TRANSDUCTION	0.526436625073172
BIOCARTA_NO1_PATHWAY	0.526750946959493
PID_CDC42_REG_PATHWAY	0.527936126593639
PID_TCRCALCIUMPATHWAY	0.52927390658264
PID_ERB_GENOMIC_PATHWAY	0.531343981097173
REACTOME_RECRUITMENT_OF_NUMA_TO_MITOTIC_CENTROSOMES	0.53256573620126
REACTOME_NOTCH1_INTRACELLULAR_DOMAIN_REGULATES_TRANSCRIPTION	0.533857441122316
REACTOME_ACTIVATED_AMPK_STIMULATES_FATTY_ACID_OXIDATION_IN_MUSCLE	0.535296040985168
PID_IL8CXCR1_PATHWAY	0.537291808522185
BIOCARTA_GLYCOLYSIS_PATHWAY	0.537579814326597
PID_ALK2PATHWAY	0.538101915525072
KEGG_GLYCOSPHINGOLIPID_BIOSYNTHESIS_GANGLIO_SERIES	0.538855723364363
REACTOME_ENDOSOMAL_VACUOLAR_PATHWAY	0.539857326304951
REACTOME_FGFR_LIGAND_BINDING_AND_ACTIVATION	0.539866786985973
BIOCARTA_LECTIN_PATHWAY	0.540493165246075
REACTOME_POST_CHAPERONIN_TUBULIN_FOLDING_PATHWAY	0.541999369858315
KEGG_BIOSYNTHESIS_OF_UNSATURATED_FATTY_ACIDS	0.544006876489672
ST_G_ALPHA_I_PATHWAY	0.544060391237829
REACTOME_PRE_NOTCH_EXPRESSION_AND_PROCESSING	0.547153803699861
KEGG_HEMATOPOIETIC_CELL_LINEAGE	0.54809358621757
KEGG_INTESTINAL_IMMUNE_NETWORK_FOR_IGA_PRODUCTION	0.548884405119696
REACTOME_ZINC_TRANSPORTERS	0.553930124664011
KEGG_VIBRIO_CHOLERAE_INFECTION	0.554963667140135
BIOCARTA_CELL2CELL_PATHWAY	0.555420254792021
KEGG_HYPERTROPHIC_CARDIOMYOPATHY_HCM	0.555595945546113
REACTOME_FATTY_ACYL_COA_BIOSYNTHESIS	0.556101019417873
SA_PTEN_PATHWAY	0.566844791993678
BIOCARTA_MTOR_PATHWAY	0.567983256152949
REACTOME_SEMA4D_IN_SEMAPHORIN_SIGNALING	0.568332815149036
REACTOME_FRS2_MEDIATED_CASCADE	0.569311027811297
REACTOME_SIGNAL_TRANSDUCTION_BY_L1	0.569884821937255
REACTOME_COMPLEMENT_CASCADE	0.570127589961169
REACTOME_THROMBOXANE_SIGNALLING_THROUGH_TP_RECEPTOR	0.573580252977516
PID_THROMBIN_PAR4_PATHWAY	0.573632598000492
REACTOME_PROSTACYCLIN_SIGNALLING_THROUGH_PROSTACYCLIN_RECEPTOR	0.575212956498904
KEGG_PEROXISOME	0.57573925787653
BIOCARTA_EIF4_PATHWAY	0.576427706402739
PID_NOTCH_PATHWAY	0.576862404160735
KEGG_VALINE_LEUCINE_AND_ISOLEUCINE_BIOSYNTHESIS	0.579048746728368
BIOCARTA_TH1TH2_PATHWAY	0.579411778021114
REACTOME_NEURONAL_SYSTEM	0.579805353194902
BIOCARTA_GABA_PATHWAY	0.580830751521794
REACTOME_NUCLEAR_SIGNALING_BY_ERBB4	0.5810807220591
REACTOME_NEGATIVE_REGULATION_OF_THE_PI3K_AKT_NETWORK	0.581146884172053
KEGG_GLYCOLYSIS_GLUCONEOGENESIS	0.582353766764929
REACTOME_ANTIGEN_PROCESSING_UBIQUITINATION_PROTEASOME_DEGRADATION	0.584298236054317
REACTOME_KINESINS	0.584812496805513
PID_TXA2PATHWAY	0.585004947847679
REACTOME_SOS_MEDIATED_SIGNALLING	0.587435433209128
REACTOME_FGFR2C_LIGAND_BINDING_AND_ACTIVATION	0.589607935445493
REACTOME_PHASE1_FUNCTIONALIZATION_OF_COMPOUNDS	0.58995630921463
BIOCARTA_EXTRINSIC_PATHWAY	0.590476979299162
REACTOME_DOWNREGULATION_OF_TGF_BETA_RECEPTOR_SIGNALING	0.59220598458429
REACTOME_FATTY_ACID_TRIACYLGLYCEROL_AND_KETONE_BODY_METABOLISM	0.594305538751438
REACTOME_MYOGENESIS	0.595050231775738
PID_INTEGRIN_A4B1_PATHWAY	0.595810619640897
REACTOME_DOPAMINE_NEUROTRANSMITTER_RELEASE_CYCLE	0.597972893552596
REACTOME_YAP1_AND_WWTR1_TAZ_STIMULATED_GENE_EXPRESSION	0.598749566677452
BIOCARTA_IGF1_PATHWAY	0.599418964376773
REACTOME_PRE_NOTCH_TRANSCRIPTION_AND_TRANSLATION	0.60304380321137
REACTOME_CIRCADIAN_CLOCK	0.603389644145312
REACTOME_CHONDROITIN_SULFATE_DERMATAN_SULFATE_METABOLISM	0.605182113584348
BIOCARTA_DEATH_PATHWAY	0.60540908040939
REACTOME_DOWNSTREAM_TCR_SIGNALING	0.607710754460528
REACTOME_PYRIMIDINE_CATABOLISM	0.612072111997947
SIG_CD40PATHWAYMAP	0.612268057211948
REACTOME_METABOLISM_OF_VITAMINS_AND_COFACTORS	0.612651435682319
REACTOME_RIG_I_MDA5_MEDIATED_INDUCTION_OF_IFN_ALPHA_BETA_PATHWAYS	0.61296704198849
REACTOME_PROSTANOID_LIGAND_RECEPTORS	0.616021460835735
REACTOME_G_ALPHA_S_SIGNALLING_EVENTS	0.616079374203551
BIOCARTA_CHEMICAL_PATHWAY	0.619857030273953
BIOCARTA_RANMS_PATHWAY	0.620347625611104
REACTOME_G2_M_DNA_DAMAGE_CHECKPOINT	0.621728898792866
BIOCARTA_CCR3_PATHWAY	0.622646741357803
KEGG_CELL_CYCLE	0.624012240204408
KEGG_P53_SIGNALING_PATHWAY	0.624713820512285
BIOCARTA_MYOSIN_PATHWAY	0.626657527216498
REACTOME_TRAF6_MEDIATED_IRF7_ACTIVATION_IN_TLR7_8_OR_9_SIGNALING	0.626985606791151
BIOCARTA_AGR_PATHWAY	0.62756198541779
KEGG_CYSTEINE_AND_METHIONINE_METABOLISM	0.628445478793179
REACTOME_ERK_MAPK_TARGETS	0.628580593712372
REACTOME_ACYL_CHAIN_REMODELLING_OF_PS	0.62894514135631
KEGG_VALINE_LEUCINE_AND_ISOLEUCINE_DEGRADATION	0.629968613871318
REACTOME_PRE_NOTCH_PROCESSING_IN_GOLGI	0.631168360570942
PID_P38_MK2PATHWAY	0.63162991233904
PID_PRLSIGNALINGEVENTSPATHWAY	0.632057904930674
BIOCARTA_NDKDYNAMIN_PATHWAY	0.632742178733009
REACTOME_METABOLISM_OF_PORPHYRINS	0.633664203120458
PID_FRA_PATHWAY	0.636554919469182
REACTOME_CRMPS_IN_SEMA3A_SIGNALING	0.636614780415225
REACTOME_GABA_B_RECEPTOR_ACTIVATION	0.637203961891732
PID_NFKAPPABCANONICALPATHWAY	0.637321432240727
PID_PDGFRAPATHWAY	0.638031707500892
REACTOME_DOWNSTREAM_SIGNALING_EVENTS_OF_B_CELL_RECEPTOR_BCR	0.639807844288931
REACTOME_SIGNALING_BY_WNT	0.640849988417968
REACTOME_SYNTHESIS_AND_INTERCONVERSION_OF_NUCLEOTIDE_DI_AND_TRIPHOSPHATES	0.641328372452403
KEGG_PROTEIN_EXPORT	0.64249179341284
BIOCARTA_NOS1_PATHWAY	0.642954780570994
KEGG_TASTE_TRANSDUCTION	0.643962767290964
KEGG_LYSOSOME	0.644653836780285
REACTOME_MHC_CLASS_II_ANTIGEN_PRESENTATION	0.644878991826317
BIOCARTA_GATA3_PATHWAY	0.645748909646372
REACTOME_RESPONSE_TO_ELEVATED_PLATELET_CYTOSOLIC_CA2_	0.645779373993197
PID_S1P_S1P3_PATHWAY	0.646070980082355
KEGG_GLYCOSAMINOGLYCAN_BIOSYNTHESIS_HEPARAN_SULFATE	0.64627230114194
PID_SYNDECAN_3_PATHWAY	0.646427616399098
REACTOME_NCAM_SIGNALING_FOR_NEURITE_OUT_GROWTH	0.646743261292912
BIOCARTA_CREB_PATHWAY	0.647160855666759
REACTOME_SYNTHESIS_OF_PIPS_AT_THE_EARLY_ENDOSOME_MEMBRANE	0.647273967000839
REACTOME_IL_7_SIGNALING	0.647610035247457
REACTOME_PEROXISOMAL_LIPID_METABOLISM	0.649396309140886
PID_HIF2PATHWAY	0.650044470224639
REACTOME_CHEMOKINE_RECEPTORS_BIND_CHEMOKINES	0.650241028950929
REACTOME_P2Y_RECEPTORS	0.650383078672253
REACTOME_G_BETA_GAMMA_SIGNALLING_THROUGH_PLC_BETA	0.653228152976538
REACTOME_PLATELET_ADHESION_TO_EXPOSED_COLLAGEN	0.653829860524771
REACTOME_FANCONI_ANEMIA_PATHWAY	0.654871496085274
REACTOME_AMINO_ACID_TRANSPORT_ACROSS_THE_PLASMA_MEMBRANE	0.655504466135075
BIOCARTA_PITX2_PATHWAY	0.658183782588213
PID_CONE_PATHWAY	0.658736907217006
REACTOME_GRB2_SOS_PROVIDES_LINKAGE_TO_MAPK_SIGNALING_FOR_INTERGRINS_	0.659515231010604
REACTOME_CYTOCHROME_P450_ARRANGED_BY_SUBSTRATE_TYPE	0.660531520351388
BIOCARTA_TCR_PATHWAY	0.660786394866551
PID_INTEGRIN_CS_PATHWAY	0.660858515311641
PID_P38ALPHABETADOWNSTREAMPATHWAY	0.661395852638343
BIOCARTA_LYM_PATHWAY	0.662984577192872
REACTOME_HS_GAG_BIOSYNTHESIS	0.663004823318323
REACTOME_G_PROTEIN_BETA_GAMMA_SIGNALLING	0.663641022803059
BIOCARTA_CLASSIC_PATHWAY	0.665316093032372
BIOCARTA_NKCELLS_PATHWAY	0.665490643559785
KEGG_STEROID_HORMONE_BIOSYNTHESIS	0.666641213382829
REACTOME_TAK1_ACTIVATES_NFKB_BY_PHOSPHORYLATION_AND_ACTIVATION_OF_IKKS_COMPLEX	0.668782686448816
REACTOME_SIGNALING_BY_FGFR3_MUTANTS	0.670202123293598
REACTOME_SPHINGOLIPID_METABOLISM	0.670394565533812
REACTOME_P75_NTR_RECEPTOR_MEDIATED_SIGNALLING	0.671594006074515
PID_WNT_SIGNALING_PATHWAY	0.673127538493566
REACTOME_ACYL_CHAIN_REMODELLING_OF_PG	0.673996675993286
REACTOME_SMOOTH_MUSCLE_CONTRACTION	0.675369671206972
REACTOME_GLUTAMATE_NEUROTRANSMITTER_RELEASE_CYCLE	0.676468794369849
REACTOME_SEROTONIN_RECEPTORS	0.677102319169099
KEGG_LYSINE_DEGRADATION	0.677152350323427
SA_TRKA_RECEPTOR	0.677479417160103
PID_CD40_PATHWAY	0.678560955065482
KEGG_PRION_DISEASES	0.678730112196972
REACTOME_SYNTHESIS_OF_BILE_ACIDS_AND_BILE_SALTS_VIA_24_HYDROXYCHOLESTEROL	0.679793734310254
KEGG_DRUG_METABOLISM_CYTOCHROME_P450	0.680115995567837
REACTOME_PYRIMIDINE_METABOLISM	0.680354295335332
PID_P75NTRPATHWAY	0.685721630114789
ST_PAC1_RECEPTOR_PATHWAY	0.686096584475605
BIOCARTA_BCELLSURVIVAL_PATHWAY	0.686818231320348
PID_E2F_PATHWAY	0.687049053409078
REACTOME_FGFR4_LIGAND_BINDING_AND_ACTIVATION	0.68811231853347
REACTOME_PPARA_ACTIVATES_GENE_EXPRESSION	0.688608630315295
REACTOME_EGFR_DOWNREGULATION	0.689361350150956
BIOCARTA_CDMAC_PATHWAY	0.6911788158783
BIOCARTA_TOB1_PATHWAY	0.691188992228904
BIOCARTA_ATRBRCA_PATHWAY	0.691859049448051
REACTOME_BASE_FREE_SUGAR_PHOSPHATE_REMOVAL_VIA_THE_SINGLE_NUCLEOTIDE_REPLACEMENT_PATHWAY	0.692623244869295
REACTOME_INFLAMMASOMES	0.69368118099446
REACTOME_NEF_MEDIATED_DOWNREGULATION_OF_MHC_CLASS_I_COMPLEX_CELL_SURFACE_EXPRESSION	0.694370012687498
REACTOME_SYNTHESIS_OF_BILE_ACIDS_AND_BILE_SALTS_VIA_7ALPHA_HYDROXYCHOLESTEROL	0.697199083909275
BIOCARTA_CFTR_PATHWAY	0.698064660974352
BIOCARTA_G2_PATHWAY	0.698455949812285
BIOCARTA_DNAFRAGMENT_PATHWAY	0.699468502721865
REACTOME_ACYL_CHAIN_REMODELLING_OF_PC	0.701026609307226
REACTOME_RECEPTOR_LIGAND_BINDING_INITIATES_THE_SECOND_PROTEOLYTIC_CLEAVAGE_OF_NOTCH_RECEPTOR	0.701272874933363
REACTOME_CELL_EXTRACELLULAR_MATRIX_INTERACTIONS	0.704442461224268
REACTOME_ACTIVATION_OF_RAC	0.704489016085702
BIOCARTA_HSP27_PATHWAY	0.704868941789412
KEGG_PANTOTHENATE_AND_COA_BIOSYNTHESIS	0.706161861730472
REACTOME_CASPASE_MEDIATED_CLEAVAGE_OF_CYTOSKELETAL_PROTEINS	0.706363369471078
BIOCARTA_ETS_PATHWAY	0.70913793520002
BIOCARTA_MAPK_PATHWAY	0.709567227202407
PID_IL2_PI3KPATHWAY	0.709586519747607
KEGG_NOTCH_SIGNALING_PATHWAY	0.709865738913912
REACTOME_EICOSANOID_LIGAND_BINDING_RECEPTORS	0.712263493903904
PID_EPHA_FWDPATHWAY	0.712772170171505
BIOCARTA_IL10_PATHWAY	0.712950252181042
REACTOME_HYALURONAN_METABOLISM	0.71364251359049
REACTOME_SIGNAL_ATTENUATION	0.715234638682754
BIOCARTA_PDGF_PATHWAY	0.715763588287831
REACTOME_DIABETES_PATHWAYS	0.715771152008204
ST_JNK_MAPK_PATHWAY	0.715943465736905
REACTOME_RETROGRADE_NEUROTROPHIN_SIGNALLING	0.716482822287549
REACTOME_MEMBRANE_BINDING_AND_TARGETTING_OF_GAG_PROTEINS	0.71662668485397
REACTOME_SHC_MEDIATED_SIGNALLING	0.719457567944291
KEGG_ETHER_LIPID_METABOLISM	0.721731308169827
BIOCARTA_EPO_PATHWAY	0.722070601984556
REACTOME_LYSOSOME_VESICLE_BIOGENESIS	0.723224338608198
PID_INSULIN_GLUCOSE_PATHWAY	0.723421680339869
PID_PI3KCIAKTPATHWAY	0.7250938917299
BIOCARTA_AHSP_PATHWAY	0.72688218506613
KEGG_ALPHA_LINOLENIC_ACID_METABOLISM	0.728635623624167
REACTOME_GLUCAGON_TYPE_LIGAND_RECEPTORS	0.729293317935577
BIOCARTA_IL6_PATHWAY	0.729982199164965
REACTOME_GLUCURONIDATION	0.731634798568304
REACTOME_ACTIVATED_POINT_MUTANTS_OF_FGFR2	0.732763446788277
BIOCARTA_CDC42RAC_PATHWAY	0.7327920097122
REACTOME_CD28_CO_STIMULATION	0.733895757080862
REACTOME_TRAF6_MEDIATED_NFKB_ACTIVATION	0.734793327081087
REACTOME_RNA_POL_III_CHAIN_ELONGATION	0.734850107867195
KEGG_TOLL_LIKE_RECEPTOR_SIGNALING_PATHWAY	0.735004878372466
PID_WNT_NONCANONICAL_PATHWAY	0.735567106479147
REACTOME_FACTORS_INVOLVED_IN_MEGAKARYOCYTE_DEVELOPMENT_AND_PLATELET_PRODUCTION	0.735825488693099
BIOCARTA_SHH_PATHWAY	0.736029606085512
REACTOME_TRAF6_MEDIATED_INDUCTION_OF_NFKB_AND_MAP_KINASES_UPON_TLR7_8_OR_9_ACTIVATION	0.737868339232462
REACTOME_FORMATION_OF_TUBULIN_FOLDING_INTERMEDIATES_BY_CCT_TRIC	0.739290592994874
REACTOME_G_PROTEIN_ACTIVATION	0.740457778747578
SA_PROGRAMMED_CELL_DEATH	0.740548649277641
KEGG_PORPHYRIN_AND_CHLOROPHYLL_METABOLISM	0.741227125435282
REACTOME_E2F_ENABLED_INHIBITION_OF_PRE_REPLICATION_COMPLEX_FORMATION	0.74298858758318
REACTOME_ACTIVATION_OF_THE_AP1_FAMILY_OF_TRANSCRIPTION_FACTORS	0.743945804935395
REACTOME_INCRETIN_SYNTHESIS_SECRETION_AND_INACTIVATION	0.744262114827277
REACTOME_ENERGY_DEPENDENT_REGULATION_OF_MTOR_BY_LKB1_AMPK	0.745020497560024
BIOCARTA_CTLA4_PATHWAY	0.745344551692352
REACTOME_CELL_CYCLE	0.745469666288536
PID_RAS_PATHWAY	0.747226110251332
KEGG_GLYCOSAMINOGLYCAN_BIOSYNTHESIS_KERATAN_SULFATE	0.747483223261953
PID_S1P_META_PATHWAY	0.747633549962103
REACTOME_INHIBITION_OF_VOLTAGE_GATED_CA2_CHANNELS_VIA_GBETA_GAMMA_SUBUNITS	0.748078632960817
REACTOME_PROTEOLYTIC_CLEAVAGE_OF_SNARE_COMPLEX_PROTEINS	0.752015157095905
REACTOME_BILE_ACID_AND_BILE_SALT_METABOLISM	0.752602413808446
REACTOME_INITIAL_TRIGGERING_OF_COMPLEMENT	0.753924357459811
PID_RHOA_PATHWAY	0.754539385782488
REACTOME_THROMBIN_SIGNALLING_THROUGH_PROTEINASE_ACTIVATED_RECEPTORS_PARS	0.755407758682416
REACTOME_CYTOSOLIC_SULFONATION_OF_SMALL_MOLECULES	0.756004900345409
REACTOME_TCA_CYCLE_AND_RESPIRATORY_ELECTRON_TRANSPORT	0.756892735611598
BIOCARTA_KREB_PATHWAY	0.757195040424232
BIOCARTA_CHREBP2_PATHWAY	0.757930148809477
REACTOME_AMINE_LIGAND_BINDING_RECEPTORS	0.763444503670545
PID_FASPATHWAY	0.764602270088195
BIOCARTA_PTEN_PATHWAY	0.765331639423593
REACTOME_KERATAN_SULFATE_DEGRADATION	0.765341600579636
REACTOME_COSTIMULATION_BY_THE_CD28_FAMILY	0.768621812826525
REACTOME_TRAFFICKING_AND_PROCESSING_OF_ENDOSOMAL_TLR	0.770988107398016
REACTOME_IKK_COMPLEX_RECRUITMENT_MEDIATED_BY_RIP1	0.77124058776579
BIOCARTA_CALCINEURIN_PATHWAY	0.775928559625449
REACTOME_ENDOSOMAL_SORTING_COMPLEX_REQUIRED_FOR_TRANSPORT_ESCRT	0.776016236530152
REACTOME_MEIOSIS	0.777417883959176
PID_HDAC_CLASSII_PATHWAY	0.777537221015837
REACTOME_NFKB_AND_MAP_KINASES_ACTIVATION_MEDIATED_BY_TLR4_SIGNALING_REPERTOIRE	0.779476214837019
REACTOME_INSULIN_SYNTHESIS_AND_PROCESSING	0.780684788563971
REACTOME_NEF_MEDIATES_DOWN_MODULATION_OF_CELL_SURFACE_RECEPTORS_BY_RECRUITING_THEM_TO_CLATHRIN_ADAPTERS	0.781217400558576
PID_IL23PATHWAY	0.781855528294479
REACTOME_ADP_SIGNALLING_THROUGH_P2RY12	0.782275581948253
REACTOME_MYD88_MAL_CASCADE_INITIATED_ON_PLASMA_MEMBRANE	0.78476670920386
PID_REELINPATHWAY	0.785325695683569
REACTOME_CA_DEPENDENT_EVENTS	0.787188653630467
PID_MTOR_4PATHWAY	0.788705768196081
REACTOME_IRAK1_RECRUITS_IKK_COMPLEX	0.791756255751722
REACTOME_THE_ROLE_OF_NEF_IN_HIV1_REPLICATION_AND_DISEASE_PATHOGENESIS	0.792694867544484
REACTOME_SYNTHESIS_OF_PE	0.793088343005504
REACTOME_HORMONE_LIGAND_BINDING_RECEPTORS	0.793224477870497
REACTOME_PYRUVATE_METABOLISM	0.795271726085398
BIOCARTA_FEEDER_PATHWAY	0.796028716479792
BIOCARTA_CBL_PATHWAY	0.797474896014696
REACTOME_APC_CDC20_MEDIATED_DEGRADATION_OF_NEK2A	0.798453581072399
SA_CASPASE_CASCADE	0.798455847775022
BIOCARTA_MONOCYTE_PATHWAY	0.799503366260806
REACTOME_TRANSPORT_OF_VITAMINS_NUCLEOSIDES_AND_RELATED_MOLECULES	0.799896371941426
REACTOME_CHYLOMICRON_MEDIATED_LIPID_TRANSPORT	0.800757116482917
KEGG_PROPANOATE_METABOLISM	0.800896219087911
REACTOME_UNWINDING_OF_DNA	0.801512705699836
REACTOME_PYRUVATE_METABOLISM_AND_CITRIC_ACID_TCA_CYCLE	0.801541785317289
PID_CD8TCRDOWNSTREAMPATHWAY	0.801652717853546
REACTOME_ACTIVATED_NOTCH1_TRANSMITS_SIGNAL_TO_THE_NUCLEUS	0.802182345782467
PID_ARF_3PATHWAY	0.803179458719669
REACTOME_CYTOSOLIC_TRNA_AMINOACYLATION	0.804306241145711
PID_TELOMERASEPATHWAY	0.805182547494615
REACTOME_N_GLYCAN_TRIMMING_IN_THE_ER_AND_CALNEXIN_CALRETICULIN_CYCLE	0.807109187491672
REACTOME_E2F_MEDIATED_REGULATION_OF_DNA_REPLICATION	0.809136289229221
PID_TGFBRPATHWAY	0.809158499355279
REACTOME_G_BETA_GAMMA_SIGNALLING_THROUGH_PI3KGAMMA	0.809325806038373
REACTOME_SIGNAL_REGULATORY_PROTEIN_SIRP_FAMILY_INTERACTIONS	0.809520690968732
REACTOME_ASPARAGINE_N_LINKED_GLYCOSYLATION	0.811882460685968
SA_G2_AND_M_PHASES	0.812420375768938
ST_TYPE_I_INTERFERON_PATHWAY	0.812943032036712
REACTOME_REGULATION_OF_RHEB_GTPASE_ACTIVITY_BY_AMPK	0.814634760349659
REACTOME_SIGNAL_AMPLIFICATION	0.815153353999296
REACTOME_REGULATION_OF_AMPK_ACTIVITY_VIA_LKB1	0.817115067926347
REACTOME_TRANS_GOLGI_NETWORK_VESICLE_BUDDING	0.817521192186681
KEGG_GLYCOSPHINGOLIPID_BIOSYNTHESIS_LACTO_AND_NEOLACTO_SERIES	0.817757895871968
KEGG_GLYCINE_SERINE_AND_THREONINE_METABOLISM	0.81792569574487
BIOCARTA_TNFR1_PATHWAY	0.81829750761201
REACTOME_PLATELET_AGGREGATION_PLUG_FORMATION	0.818410964698621
REACTOME_ABCA_TRANSPORTERS_IN_LIPID_HOMEOSTASIS	0.81851049757306
REACTOME_ACYL_CHAIN_REMODELLING_OF_PE	0.818528369514238
REACTOME_PHASE_II_CONJUGATION	0.81906960593334
REACTOME_MRNA_DECAY_BY_3_TO_5_EXORIBONUCLEASE	0.820639076978657
REACTOME_GLUCOSE_TRANSPORT	0.821051456553276
KEGG_FRUCTOSE_AND_MANNOSE_METABOLISM	0.821179670734591
REACTOME_P53_DEPENDENT_G1_DNA_DAMAGE_RESPONSE	0.822244998292489
REACTOME_TANDEM_PORE_DOMAIN_POTASSIUM_CHANNELS	0.822459468055845
PID_CD8TCRPATHWAY	0.822634886127579
KEGG_PURINE_METABOLISM	0.823087796134081
REACTOME_PURINE_CATABOLISM	0.823126873601573
REACTOME_RNA_POL_I_TRANSCRIPTION_INITIATION	0.823489910969235
REACTOME_P75NTR_SIGNALS_VIA_NFKB	0.824050815120923
KEGG_NICOTINATE_AND_NICOTINAMIDE_METABOLISM	0.824301098474277
BIOCARTA_ATM_PATHWAY	0.824520849074062
REACTOME_REGULATED_PROTEOLYSIS_OF_P75NTR	0.824641756822977
PID_TCRRASPATHWAY	0.825472303354504
KEGG_CARDIAC_MUSCLE_CONTRACTION	0.825522390309862
PID_AR_TF_PATHWAY	0.825662302621888
REACTOME_STEROID_HORMONES	0.825744779749723
REACTOME_ABORTIVE_ELONGATION_OF_HIV1_TRANSCRIPT_IN_THE_ABSENCE_OF_TAT	0.825937528251883
BIOCARTA_MPR_PATHWAY	0.825982546532428
BIOCARTA_CELLCYCLE_PATHWAY	0.826536487211436
REACTOME_PTM_GAMMA_CARBOXYLATION_HYPUSINE_FORMATION_AND_ARYLSULFATASE_ACTIVATION	0.826709457938063
BIOCARTA_IL12_PATHWAY	0.826873531957988
KEGG_RETINOL_METABOLISM	0.827584919451235
BIOCARTA_D4GDI_PATHWAY	0.832018191391899
REACTOME_DARPP_32_EVENTS	0.83447085643502
KEGG_MISMATCH_REPAIR	0.834501668157286
BIOCARTA_CD40_PATHWAY	0.834555771955899
BIOCARTA_CARM_ER_PATHWAY	0.835441192582754
KEGG_SPHINGOLIPID_METABOLISM	0.837058253586645
BIOCARTA_IL22BP_PATHWAY	0.837387113795456
BIOCARTA_NO2IL12_PATHWAY	0.83842301587204
REACTOME_LIPOPROTEIN_METABOLISM	0.840337547433231
KEGG_BUTANOATE_METABOLISM	0.840347479499199
REACTOME_ACTIVATION_OF_GENES_BY_ATF4	0.84170934365075
BIOCARTA_ARENRF2_PATHWAY	0.841756267348716
BIOCARTA_ETC_PATHWAY	0.842719408710073
REACTOME_TRIF_MEDIATED_TLR3_SIGNALING	0.842755277784548
PID_SMAD2_3PATHWAY	0.844143073609993
BIOCARTA_CARM1_PATHWAY	0.845879214903184
KEGG_EPITHELIAL_CELL_SIGNALING_IN_HELICOBACTER_PYLORI_INFECTION	0.849108663158317
BIOCARTA_FMLP_PATHWAY	0.849518421376058
REACTOME_COPI_MEDIATED_TRANSPORT	0.849696254113077
REACTOME_DOUBLE_STRAND_BREAK_REPAIR	0.849747276374226
PID_MYC_ACTIVPATHWAY	0.850146574138546
REACTOME_LAGGING_STRAND_SYNTHESIS	0.850392425878461
REACTOME_AUTODEGRADATION_OF_THE_E3_UBIQUITIN_LIGASE_COP1	0.851518191486915
BIOCARTA_SARS_PATHWAY	0.851621420463223
BIOCARTA_EIF_PATHWAY	0.85237955552092
REACTOME_NUCLEAR_EVENTS_KINASE_AND_TRANSCRIPTION_FACTOR_ACTIVATION	0.853068521270203
REACTOME_METABOLISM_OF_NUCLEOTIDES	0.853106040784162
REACTOME_ANDROGEN_BIOSYNTHESIS	0.853987905512982
BIOCARTA_PYK2_PATHWAY	0.854891029397058
REACTOME_DEADENYLATION_DEPENDENT_MRNA_DECAY	0.855304368549744
KEGG_GLYCOSAMINOGLYCAN_BIOSYNTHESIS_CHONDROITIN_SULFATE	0.85599764811822
PID_MYC_PATHWAY	0.858175776462243
REACTOME_G0_AND_EARLY_G1	0.858362589750429
REACTOME_GLUCONEOGENESIS	0.859210097672917
REACTOME_RNA_POL_III_TRANSCRIPTION_INITIATION_FROM_TYPE_2_PROMOTER	0.859800536066701
BIOCARTA_RB_PATHWAY	0.860012200331572
REACTOME_BIOLOGICAL_OXIDATIONS	0.861244516713031
REACTOME_DEADENYLATION_OF_MRNA	0.862004507048465
REACTOME_BRANCHED_CHAIN_AMINO_ACID_CATABOLISM	0.862262322183095
REACTOME_GLYCOSPHINGOLIPID_METABOLISM	0.864673824072849
REACTOME_AMINE_DERIVED_HORMONES	0.864924738703157
ST_GAQ_PATHWAY	0.865516604056776
PID_ANTHRAXPATHWAY	0.865617041600461
BIOCARTA_CDK5_PATHWAY	0.866815762178001
PID_BARD1PATHWAY	0.866944522552273
REACTOME_REGULATION_OF_HYPOXIA_INDUCIBLE_FACTOR_HIF_BY_OXYGEN	0.869347571950235
BIOCARTA_P35ALZHEIMERS_PATHWAY	0.870017573593048
REACTOME_MAP_KINASE_ACTIVATION_IN_TLR_CASCADE	0.870168165070145
REACTOME_EARLY_PHASE_OF_HIV_LIFE_CYCLE	0.870216100242967
REACTOME_PURINE_METABOLISM	0.870405771664143
BIOCARTA_FAS_PATHWAY	0.871556969115798
REACTOME_SIGNALING_BY_ACTIVATED_POINT_MUTANTS_OF_FGFR1	0.871673050325795
SIG_REGULATION_OF_THE_ACTIN_CYTOSKELETON_BY_RHO_GTPASES	0.872312626916231
REACTOME_OTHER_SEMAPHORIN_INTERACTIONS	0.8728599743532
BIOCARTA_INFLAM_PATHWAY	0.873510596871894
BIOCARTA_STEM_PATHWAY	0.873604850834
REACTOME_GLUCOSE_METABOLISM	0.875018846606883
REACTOME_BASE_EXCISION_REPAIR	0.875641676428268
KEGG_ALANINE_ASPARTATE_AND_GLUTAMATE_METABOLISM	0.877300882455965
REACTOME_EXTRINSIC_PATHWAY_FOR_APOPTOSIS	0.87747180808743
BIOCARTA_TALL1_PATHWAY	0.878213599465759
REACTOME_THE_NLRP3_INFLAMMASOME	0.880226272423958
REACTOME_THE_ACTIVATION_OF_ARYLSULFATASES	0.880343364241562
KEGG_SELENOAMINO_ACID_METABOLISM	0.880718323479095
REACTOME_MAPK_TARGETS_NUCLEAR_EVENTS_MEDIATED_BY_MAP_KINASES	0.880824605829123
BIOCARTA_EIF2_PATHWAY	0.88183944984371
PID_MAPKTRKPATHWAY	0.882098448944631
REACTOME_OXYGEN_DEPENDENT_PROLINE_HYDROXYLATION_OF_HYPOXIA_INDUCIBLE_FACTOR_ALPHA	0.883383043265376
REACTOME_ANTIGEN_ACTIVATES_B_CELL_RECEPTOR_LEADING_TO_GENERATION_OF_SECOND_MESSENGERS	0.884106768374181
BIOCARTA_ASBCELL_PATHWAY	0.884650127998869
PID_HDAC_CLASSI_PATHWAY	0.885306073101431
REACTOME_BOTULINUM_NEUROTOXICITY	0.885568821216355
REACTOME_ACYL_CHAIN_REMODELLING_OF_PI	0.885687584910867
REACTOME_P75NTR_RECRUITS_SIGNALLING_COMPLEXES	0.885982168884607
BIOCARTA_RARRXR_PATHWAY	0.886041598033433
REACTOME_AMINO_ACID_SYNTHESIS_AND_INTERCONVERSION_TRANSAMINATION	0.886800868282928
BIOCARTA_P53HYPOXIA_PATHWAY	0.887776268830568
BIOCARTA_AGPCR_PATHWAY	0.888213236230488
REACTOME_FACILITATIVE_NA_INDEPENDENT_GLUCOSE_TRANSPORTERS	0.889048513547322
BIOCARTA_PLCE_PATHWAY	0.889829492037863
REACTOME_XENOBIOTICS	0.891516865461272
REACTOME_MRNA_SPLICING_MINOR_PATHWAY	0.891519524458334
BIOCARTA_TCYTOTOXIC_PATHWAY	0.891574346577291
REACTOME_ANTIVIRAL_MECHANISM_BY_IFN_STIMULATED_GENES	0.892605312736451
REACTOME_CHROMOSOME_MAINTENANCE	0.895253543320248
KEGG_ONE_CARBON_POOL_BY_FOLATE	0.895564686820518
REACTOME_UNFOLDED_PROTEIN_RESPONSE	0.896799938673574
REACTOME_CTNNB1_PHOSPHORYLATION_CASCADE	0.8975894531782
REACTOME_INSULIN_RECEPTOR_RECYCLING	0.898590292595929
REACTOME_CYCLIN_A_B1_ASSOCIATED_EVENTS_DURING_G2_M_TRANSITION	0.899418787478169
KEGG_AMINO_SUGAR_AND_NUCLEOTIDE_SUGAR_METABOLISM	0.899793901460813
REACTOME_APC_C_CDC20_MEDIATED_DEGRADATION_OF_CYCLIN_B	0.900155428114108
BIOCARTA_MEF2D_PATHWAY	0.900376013202433
BIOCARTA_BCR_PATHWAY	0.901396783244104
SA_REG_CASCADE_OF_CYCLIN_EXPR	0.902221252744081
BIOCARTA_NKT_PATHWAY	0.902616186735294
BIOCARTA_SRCRPTP_PATHWAY	0.903285779936762
REACTOME_DOWNREGULATION_OF_ERBB2_ERBB3_SIGNALING	0.904963274093468
REACTOME_MITOCHONDRIAL_TRNA_AMINOACYLATION	0.905967481709247
PID_AURORA_A_PATHWAY	0.906097809933434
REACTOME_RECYCLING_PATHWAY_OF_L1	0.907064566379785
SA_MMP_CYTOKINE_CONNECTION	0.907287282577164
BIOCARTA_GPCR_PATHWAY	0.907405124632136
REACTOME_PLATELET_SENSITIZATION_BY_LDL	0.907484206113399
REACTOME_RNA_POL_I_TRANSCRIPTION_TERMINATION	0.908260760407911
PID_IL27PATHWAY	0.908387186511052
REACTOME_MEMBRANE_TRAFFICKING	0.908639443195668
BIOCARTA_IL5_PATHWAY	0.908664659877647
BIOCARTA_AT1R_PATHWAY	0.908919921976542
REACTOME_REMOVAL_OF_THE_FLAP_INTERMEDIATE_FROM_THE_C_STRAND	0.909005300387682
BIOCARTA_THELPER_PATHWAY	0.909128466839114
KEGG_REGULATION_OF_AUTOPHAGY	0.90937258679076
REACTOME_LATENT_INFECTION_OF_HOMO_SAPIENS_WITH_MYCOBACTERIUM_TUBERCULOSIS	0.909708164886301
REACTOME_CDC6_ASSOCIATION_WITH_THE_ORC_ORIGIN_COMPLEX	0.909952925396487
BIOCARTA_GRANULOCYTES_PATHWAY	0.91077043512589
REACTOME_REGULATION_OF_MRNA_STABILITY_BY_PROTEINS_THAT_BIND_AU_RICH_ELEMENTS	0.912101001000209
BIOCARTA_HIF_PATHWAY	0.913289534502064
BIOCARTA_BIOPEPTIDES_PATHWAY	0.913819650056393
PID_TCR_PATHWAY	0.914222234155957
BIOCARTA_CASPASE_PATHWAY	0.914949137378983
REACTOME_ACTIVATION_OF_CHAPERONE_GENES_BY_XBP1S	0.915290479157087
REACTOME_CELL_CYCLE_CHECKPOINTS	0.915722269909577
REACTOME_EXTENSION_OF_TELOMERES	0.916080082182339
ST_INTERLEUKIN_13_PATHWAY	0.916633508175842
KEGG_PRIMARY_IMMUNODEFICIENCY	0.916642243760528
BIOCARTA_DREAM_PATHWAY	0.91691220455312
BIOCARTA_CACAM_PATHWAY	0.917437235973901
REACTOME_VITAMIN_B5_PANTOTHENATE_METABOLISM	0.917896575933384
REACTOME_SEMA3A_PLEXIN_REPULSION_SIGNALING_BY_INHIBITING_INTEGRIN_ADHESION	0.918327117367795
REACTOME_REVERSIBLE_HYDRATION_OF_CARBON_DIOXIDE	0.918673868982588
KEGG_HUNTINGTONS_DISEASE	0.919557394538924
REACTOME_SYNTHESIS_OF_SUBSTRATES_IN_N_GLYCAN_BIOSYTHESIS	0.919976862129059
BIOCARTA_CK1_PATHWAY	0.920117397767368
REACTOME_HORMONE_SENSITIVE_LIPASE_HSL_MEDIATED_TRIACYLGLYCEROL_HYDROLYSIS	0.920476515416479
REACTOME_INHIBITION_OF_REPLICATION_INITIATION_OF_DAMAGED_DNA_BY_RB1_E2F1	0.922775669335839
REACTOME_MRNA_CAPPING	0.923505186563786
REACTOME_NOD1_2_SIGNALING_PATHWAY	0.925271698526065
REACTOME_VIRAL_MESSENGER_RNA_SYNTHESIS	0.925620073777737
REACTOME_PKB_MEDIATED_EVENTS	0.927136040116643
KEGG_N_GLYCAN_BIOSYNTHESIS	0.927310476341502
REACTOME_INTEGRIN_ALPHAIIB_BETA3_SIGNALING	0.927581275254862
REACTOME_DNA_STRAND_ELONGATION	0.927875701926902
REACTOME_LIGAND_GATED_ION_CHANNEL_TRANSPORT	0.928478791477782
KEGG_PYRUVATE_METABOLISM	0.928779535122868
KEGG_RNA_POLYMERASE	0.930011590508383
REACTOME_ACTIVATED_TLR4_SIGNALLING	0.930308835681123
REACTOME_SYNTHESIS_SECRETION_AND_DEACYLATION_OF_GHRELIN	0.930718999304181
KEGG_PYRIMIDINE_METABOLISM	0.930744792018791
REACTOME_SYNTHESIS_SECRETION_AND_INACTIVATION_OF_GIP	0.930798744038482
BIOCARTA_IL2_PATHWAY	0.931514295883755
BIOCARTA_INTEGRIN_PATHWAY	0.93215062873973
KEGG_LINOLEIC_ACID_METABOLISM	0.932608505359792
BIOCARTA_PARKIN_PATHWAY	0.93290067268362
REACTOME_INHIBITION_OF_THE_PROTEOLYTIC_ACTIVITY_OF_APC_C_REQUIRED_FOR_THE_ONSET_OF_ANAPHASE_BY_MITOTIC_SPINDLE_CHECKPOINT_COMPONENTS	0.934812189050331
KEGG_BASAL_TRANSCRIPTION_FACTORS	0.934885858062564
REACTOME_SPRY_REGULATION_OF_FGF_SIGNALING	0.935615486108123
REACTOME_MTORC1_MEDIATED_SIGNALLING	0.935660180157577
KEGG_NON_HOMOLOGOUS_END_JOINING	0.935683827545456
REACTOME_CLASS_C_3_METABOTROPIC_GLUTAMATE_PHEROMONE_RECEPTORS	0.935915469643858
KEGG_CYTOSOLIC_DNA_SENSING_PATHWAY	0.936575776357525
REACTOME_ASSOCIATION_OF_LICENSING_FACTORS_WITH_THE_PRE_REPLICATIVE_COMPLEX	0.93661298571667
REACTOME_PROLACTIN_RECEPTOR_SIGNALING	0.937165989471587
BIOCARTA_LEPTIN_PATHWAY	0.937244570411551
KEGG_TYPE_I_DIABETES_MELLITUS	0.937686176862658
REACTOME_CD28_DEPENDENT_VAV1_PATHWAY	0.938019126540199
REACTOME_IMMUNOREGULATORY_INTERACTIONS_BETWEEN_A_LYMPHOID_AND_A_NON_LYMPHOID_CELL	0.938349096090714
KEGG_TRYPTOPHAN_METABOLISM	0.938897185160515
REACTOME_RESOLUTION_OF_AP_SITES_VIA_THE_MULTIPLE_NUCLEOTIDE_PATCH_REPLACEMENT_PATHWAY	0.939777727530863
PID_HIF1APATHWAY	0.939920417015087
REACTOME_RNA_POL_III_TRANSCRIPTION_TERMINATION	0.94004552202612
REACTOME_IRON_UPTAKE_AND_TRANSPORT	0.940423735328799
REACTOME_REGULATION_OF_MITOTIC_CELL_CYCLE	0.940539129466264
REACTOME_ALPHA_LINOLENIC_ACID_ALA_METABOLISM	0.940630767541074
REACTOME_HOMOLOGOUS_RECOMBINATION_REPAIR_OF_REPLICATION_INDEPENDENT_DOUBLE_STRAND_BREAKS	0.941173385860931
REACTOME_PEPTIDE_HORMONE_BIOSYNTHESIS	0.941739166478842
SA_G1_AND_S_PHASES	0.94212342288341
ST_ERK1_ERK2_MAPK_PATHWAY	0.942965586755864
REACTOME_SIGNALING_BY_ROBO_RECEPTOR	0.94376806706618
BIOCARTA_PGC1A_PATHWAY	0.944003628914705
KEGG_PENTOSE_AND_GLUCURONATE_INTERCONVERSIONS	0.944173275200404
BIOCARTA_P38MAPK_PATHWAY	0.94461974935563
REACTOME_INFLUENZA_LIFE_CYCLE	0.944668830685208
BIOCARTA_TOLL_PATHWAY	0.944752731095719
ST_IL_13_PATHWAY	0.945366962856675
REACTOME_REGULATION_OF_APOPTOSIS	0.945542208055841
REACTOME_RNA_POL_I_RNA_POL_III_AND_MITOCHONDRIAL_TRANSCRIPTION	0.945856173252732
REACTOME_MITOTIC_G1_G1_S_PHASES	0.945960141264663
REACTOME_TRANSFERRIN_ENDOCYTOSIS_AND_RECYCLING	0.946256032983085
REACTOME_NFKB_ACTIVATION_THROUGH_FADD_RIP1_PATHWAY_MEDIATED_BY_CASPASE_8_AND10	0.946312266442292
REACTOME_SYNTHESIS_OF_DNA	0.946949452616694
REACTOME_JNK_C_JUN_KINASES_PHOSPHORYLATION_AND_ACTIVATION_MEDIATED_BY_ACTIVATED_HUMAN_TAK1	0.947043852345114
REACTOME_G1_PHASE	0.947124144356505
REACTOME_TRNA_AMINOACYLATION	0.94746881258877
REACTOME_REGULATION_OF_INSULIN_LIKE_GROWTH_FACTOR_IGF_ACTIVITY_BY_INSULIN_LIKE_GROWTH_FACTOR_BINDING_PROTEINS_IGFBPS	0.948035486397282
BIOCARTA_EGFR_SMRTE_PATHWAY	0.948185877485693
PID_HIVNEFPATHWAY	0.948362464399759
BIOCARTA_SODD_PATHWAY	0.948613215420331
REACTOME_INFLUENZA_VIRAL_RNA_TRANSCRIPTION_AND_REPLICATION	0.948834712835692
PID_PLK1_PATHWAY	0.949165379960148
PID_IL12_STAT4PATHWAY	0.949823295330448
REACTOME_S_PHASE	0.950318331948417
REACTOME_HIGHLY_CALCIUM_PERMEABLE_POSTSYNAPTIC_NICOTINIC_ACETYLCHOLINE_RECEPTORS	0.951470528630536
REACTOME_RNA_POL_III_TRANSCRIPTION_INITIATION_FROM_TYPE_3_PROMOTER	0.95167996842344
REACTOME_BIOSYNTHESIS_OF_THE_N_GLYCAN_PRECURSOR_DOLICHOL_LIPID_LINKED_OLIGOSACCHARIDE_LLO_AND_TRANSFER_TO_A_NASCENT_PROTEIN	0.951769037583006
REACTOME_RNA_POL_III_TRANSCRIPTION	0.952024138922842
BIOCARTA_CCR5_PATHWAY	0.952198405766049
REACTOME_IL1_SIGNALING	0.952486232221834
REACTOME_CALNEXIN_CALRETICULIN_CYCLE	0.952821077974114
REACTOME_FGFR1_LIGAND_BINDING_AND_ACTIVATION	0.953230996587776
BIOCARTA_IL17_PATHWAY	0.953323737579276
REACTOME_ANTIGEN_PROCESSING_CROSS_PRESENTATION	0.953576316855333
REACTOME_MRNA_SPLICING	0.953648776568034
KEGG_AMINOACYL_TRNA_BIOSYNTHESIS	0.953670231925871
REACTOME_REGULATION_OF_KIT_SIGNALING	0.953833868408801
PID_CIRCADIANPATHWAY	0.954031033683915
REACTOME_CONVERSION_FROM_APC_C_CDC20_TO_APC_C_CDH1_IN_LATE_ANAPHASE	0.954315506434818
REACTOME_ORC1_REMOVAL_FROM_CHROMATIN	0.95437776442878
KEGG_ALLOGRAFT_REJECTION	0.954911060731904
REACTOME_P53_INDEPENDENT_G1_S_DNA_DAMAGE_CHECKPOINT	0.954967980485893
REACTOME_ACETYLCHOLINE_BINDING_AND_DOWNSTREAM_EVENTS	0.955743789807376
REACTOME_IRAK2_MEDIATED_ACTIVATION_OF_TAK1_COMPLEX_UPON_TLR7_8_OR_9_STIMULATION	0.956024743172121
REACTOME_DNA_REPLICATION	0.95636002922805
REACTOME_HIV_INFECTION	0.956773730404537
REACTOME_HOST_INTERACTIONS_OF_HIV_FACTORS	0.956785961680949
BIOCARTA_VIP_PATHWAY	0.957118301689202
REACTOME_GPCR_DOWNSTREAM_SIGNALING	0.957898921627706
REACTOME_INTERFERON_ALPHA_BETA_SIGNALING	0.958069211778189
REACTOME_PURINE_RIBONUCLEOSIDE_MONOPHOSPHATE_BIOSYNTHESIS	0.958202919552942
KEGG_RIBOSOME	0.958388665595067
REACTOME_ACTIVATION_OF_NF_KAPPAB_IN_B_CELLS	0.958388665595067
REACTOME_ASSOCIATION_OF_TRIC_CCT_WITH_TARGET_PROTEINS_DURING_BIOSYNTHESIS	0.958573648768351
KEGG_AUTOIMMUNE_THYROID_DISEASE	0.959002091989934
KEGG_PENTOSE_PHOSPHATE_PATHWAY	0.959622519212297
REACTOME_APC_C_CDC20_MEDIATED_DEGRADATION_OF_MITOTIC_PROTEINS	0.959645121363895
PID_ATR_PATHWAY	0.959800705426359
BIOCARTA_STATHMIN_PATHWAY	0.960031284129054
KEGG_CITRATE_CYCLE_TCA_CYCLE	0.960179168101633
REACTOME_CHOLESTEROL_BIOSYNTHESIS	0.960737546382219
REACTOME_G2_M_CHECKPOINTS	0.96162169711437
BIOCARTA_TNFR2_PATHWAY	0.962154393251443
PID_DNAPK_PATHWAY	0.962578863031907
REACTOME_CS_DS_DEGRADATION	0.962612033734574
REACTOME_DESTABILIZATION_OF_MRNA_BY_BRF1	0.962828029120409
REACTOME_ACTIVATION_OF_CHAPERONES_BY_ATF6_ALPHA	0.96344212143373
REACTOME_APOPTOSIS_INDUCED_DNA_FRAGMENTATION	0.964065990256994
REACTOME_GLUTATHIONE_CONJUGATION	0.96422588347717
REACTOME_GLYCOGEN_BREAKDOWN_GLYCOGENOLYSIS	0.964430673840836
KEGG_ANTIGEN_PROCESSING_AND_PRESENTATION	0.964728193705432
REACTOME_GOLGI_ASSOCIATED_VESICLE_BIOGENESIS	0.964878984228453
KEGG_GALACTOSE_METABOLISM	0.964885839209825
REACTOME_FORMATION_OF_THE_HIV1_EARLY_ELONGATION_COMPLEX	0.964959533255954
BIOCARTA_RANKL_PATHWAY	0.964961153508371
REACTOME_POL_SWITCHING	0.964970055877878
REACTOME_TRANSCRIPTION	0.965209260405153
REACTOME_ACTIVATION_OF_CHAPERONE_GENES_BY_ATF6_ALPHA	0.965540327203217
REACTOME_CROSS_PRESENTATION_OF_SOLUBLE_EXOGENOUS_ANTIGENS_ENDOSOMES	0.965690774515425
REACTOME_SIGNALING_BY_NOTCH4	0.966227106889822
REACTOME_CREATION_OF_C4_AND_C2_ACTIVATORS	0.96625211224016
REACTOME_DESTABILIZATION_OF_MRNA_BY_AUF1_HNRNP_D0	0.966580757778997
REACTOME_ELONGATION_ARREST_AND_RECOVERY	0.966586245565742
REACTOME_NONSENSE_MEDIATED_DECAY_ENHANCED_BY_THE_EXON_JUNCTION_COMPLEX	0.966586245565742
REACTOME_INWARDLY_RECTIFYING_K_CHANNELS	0.966735197751028
BIOCARTA_SET_PATHWAY	0.967293864204822
KEGG_SPLICEOSOME	0.967431255763198
BIOCARTA_VDR_PATHWAY	0.967647572281389
REACTOME_NUCLEOTIDE_EXCISION_REPAIR	0.967954504199565
REACTOME_METABOLISM_OF_MRNA	0.967999762552909
REACTOME_ACTIVATION_OF_ATR_IN_RESPONSE_TO_REPLICATION_STRESS	0.968129793635624
BIOCARTA_IL1R_PATHWAY	0.96904448064998
KEGG_GLYCOSAMINOGLYCAN_DEGRADATION	0.969060819343657
KEGG_SYSTEMIC_LUPUS_ERYTHEMATOSUS	0.969107472422376
PID_FANCONI_PATHWAY	0.969700782996645
REACTOME_ENDOGENOUS_STEROLS	0.970689608965129
PID_ATM_PATHWAY	0.970768068949884
REACTOME_G1_S_TRANSITION	0.970965195966241
REACTOME_INTERFERON_SIGNALING	0.971878404112022
REACTOME_RNA_POL_II_TRANSCRIPTION_PRE_INITIATION_AND_PROMOTER_OPENING	0.972663895674562
REACTOME_OPSINS	0.973014931574892
REACTOME_ER_PHAGOSOME_PATHWAY	0.973137962900834
REACTOME_RNA_POL_II_TRANSCRIPTION	0.973510844838387
REACTOME_RECRUITMENT_OF_MITOTIC_CENTROSOME_PROTEINS_AND_COMPLEXES	0.975020952170255
REACTOME_CTLA4_INHIBITORY_SIGNALING	0.975052068662002
REACTOME_FORMATION_OF_ATP_BY_CHEMIOSMOTIC_COUPLING	0.97532343363597
REACTOME_PROCESSING_OF_INTRONLESS_PRE_MRNAS	0.975402161904769
KEGG_NUCLEOTIDE_EXCISION_REPAIR	0.975828172219529
KEGG_LEISHMANIA_INFECTION	0.976065777632892
REACTOME_CITRIC_ACID_CYCLE_TCA_CYCLE	0.976065940672512
REACTOME_FORMATION_OF_TRANSCRIPTION_COUPLED_NER_TC_NER_REPAIR_COMPLEX	0.97606992578693
REACTOME_RNA_POL_I_TRANSCRIPTION	0.97606992578693
REACTOME_PERK_REGULATED_GENE_EXPRESSION	0.976174504177017
REACTOME_PROCESSING_OF_CAPPED_INTRON_CONTAINING_PRE_MRNA	0.977077098459547
REACTOME_PREFOLDIN_MEDIATED_TRANSFER_OF_SUBSTRATE_TO_CCT_TRIC	0.977137924622041
REACTOME_REGULATION_OF_IFNA_SIGNALING	0.977144290737299
PID_TNFPATHWAY	0.977788139301118
BIOCARTA_MCM_PATHWAY	0.978154645720661
REACTOME_DESTABILIZATION_OF_MRNA_BY_TRISTETRAPROLIN_TTP	0.978168099190702
BIOCARTA_IL3_PATHWAY	0.978317050033165
REACTOME_GABA_A_RECEPTOR_ACTIVATION	0.978622931786403
KEGG_PROTEASOME	0.978755457840759
REACTOME_APC_C_CDH1_MEDIATED_DEGRADATION_OF_CDC20_AND_OTHER_APC_C_CDH1_TARGETED_PROTEINS_IN_LATE_MITOSIS_EARLY_G1	0.978813813716709
KEGG_DNA_REPLICATION	0.978866895726135
PID_ALPHASYNUCLEIN_PATHWAY	0.978993944898657
REACTOME_SCF_BETA_TRCP_MEDIATED_DEGRADATION_OF_EMI1	0.979114531258744
REACTOME_PHOSPHORYLATION_OF_THE_APC_C	0.979358133266816
REACTOME_PIP3_ACTIVATES_AKT_SIGNALING	0.979359942173551
BIOCARTA_AKAP13_PATHWAY	0.9795818432768
REACTOME_METABOLISM_OF_POLYAMINES	0.979709356525842
REACTOME_MITOTIC_G2_G2_M_PHASES	0.980045893349581
REACTOME_SRP_DEPENDENT_COTRANSLATIONAL_PROTEIN_TARGETING_TO_MEMBRANE	0.980069688446831
REACTOME_CYCLIN_E_ASSOCIATED_EVENTS_DURING_G1_S_TRANSITION_	0.980072665891702
REACTOME_INTERFERON_GAMMA_SIGNALING	0.980172210032247
BIOCARTA_CSK_PATHWAY	0.980899806030096
BIOCARTA_CTL_PATHWAY	0.980981285816644
KEGG_GLYCOSYLPHOSPHATIDYLINOSITOL_GPI_ANCHOR_BIOSYNTHESIS	0.981104322624508
KEGG_RNA_DEGRADATION	0.981589627150962
BIOCARTA_AKAPCENTROSOME_PATHWAY	0.981796009449683
REACTOME_TRAF6_MEDIATED_INDUCTION_OF_TAK1_COMPLEX	0.981947419702291
REACTOME_M_G1_TRANSITION	0.981974132449205
KEGG_OTHER_GLYCAN_DEGRADATION	0.982012252951322
KEGG_OXIDATIVE_PHOSPHORYLATION	0.982237635821787
BIOCARTA_RHO_PATHWAY	0.9822705854985
REACTOME_RESOLUTION_OF_AP_SITES_VIA_THE_SINGLE_NUCLEOTIDE_REPLACEMENT_PATHWAY	0.982305366651085
REACTOME_PRESYNAPTIC_NICOTINIC_ACETYLCHOLINE_RECEPTORS	0.982413572018338
REACTOME_TRAF6_MEDIATED_IRF7_ACTIVATION	0.982910870080483
REACTOME_ASSEMBLY_OF_THE_PRE_REPLICATIVE_COMPLEX	0.982986413645603
REACTOME_3_UTR_MEDIATED_TRANSLATIONAL_REGULATION	0.983393121873958
REACTOME_PROTEIN_FOLDING	0.983418137695477
PID_AURORA_B_PATHWAY	0.983466103386967
REACTOME_NRIF_SIGNALS_CELL_DEATH_FROM_THE_NUCLEUS	0.983743460512153
KEGG_ASTHMA	0.984349691188344
KEGG_BASE_EXCISION_REPAIR	0.984381614320895
BIOCARTA_PTC1_PATHWAY	0.984972024989752
REACTOME_TELOMERE_MAINTENANCE	0.985102883992295
REACTOME_TRANSCRIPTION_COUPLED_NER_TC_NER	0.985247366646677
REACTOME_VIF_MEDIATED_DEGRADATION_OF_APOBEC3G	0.985247366646677
BIOCARTA_CYTOKINE_PATHWAY	0.985539365570647
REACTOME_HIV_LIFE_CYCLE	0.98558099891483
BIOCARTA_RELA_PATHWAY	0.98560365385615
BIOCARTA_41BB_PATHWAY	0.985672510087272
REACTOME_CELL_CYCLE_MITOTIC	0.985776676775767
REACTOME_SCFSKP2_MEDIATED_DEGRADATION_OF_P27_P21	0.986307209357652
REACTOME_ACTIVATED_TAK1_MEDIATES_P38_MAPK_ACTIVATION	0.986325911904514
PID_TCRJNKPATHWAY	0.986673199464812
PID_P38ALPHABETAPATHWAY	0.986815336009562
REACTOME_GLYCOPROTEIN_HORMONES	0.986969408782656
REACTOME_CDT1_ASSOCIATION_WITH_THE_CDC6_ORC_ORIGIN_COMPLEX	0.987570301164613
BIOCARTA_EPONFKB_PATHWAY	0.987603883062257
REACTOME_DNA_REPAIR	0.987811411014721
REACTOME_MRNA_3_END_PROCESSING	0.987912563474297
REACTOME_REGULATION_OF_ORNITHINE_DECARBOXYLASE_ODC	0.988137893301962
REACTOME_LATE_PHASE_OF_HIV_LIFE_CYCLE	0.988200514784932
REACTOME_CDK_MEDIATED_PHOSPHORYLATION_AND_REMOVAL_OF_CDC6	0.988535085807
BIOCARTA_STRESS_PATHWAY	0.988963506043771
REACTOME_MEIOTIC_RECOMBINATION	0.989180288449545
REACTOME_MEIOTIC_SYNAPSIS	0.989180288449545
REACTOME_ACTIVATION_OF_IRF3_IRF7_MEDIATED_BY_TBK1_IKK_EPSILON	0.989231736699772
REACTOME_TRANSPORT_OF_RIBONUCLEOPROTEINS_INTO_THE_HOST_NUCLEUS	0.989485106070281
REACTOME_RNA_POL_II_PRE_TRANSCRIPTION_EVENTS	0.989486082052315
ST_P38_MAPK_PATHWAY	0.989584254540183
REACTOME_REPAIR_SYNTHESIS_FOR_GAP_FILLING_BY_DNA_POL_IN_TC_NER	0.989840240168064
REACTOME_TRANSLATION	0.989840240168064
BIOCARTA_TCAPOPTOSIS_PATHWAY	0.98986858485948
REACTOME_RESPIRATORY_ELECTRON_TRANSPORT_ATP_SYNTHESIS_BY_CHEMIOSMOTIC_COUPLING_AND_HEAT_PRODUCTION_BY_UNCOUPLING_PROTEINS_	0.990004100206377
REACTOME_TRANSPORT_OF_MATURE_TRANSCRIPT_TO_CYTOPLASM	0.990167721846357
KEGG_SNARE_INTERACTIONS_IN_VESICULAR_TRANSPORT	0.99034451662749
REACTOME_TRANSPORT_OF_MATURE_MRNA_DERIVED_FROM_AN_INTRONLESS_TRANSCRIPT	0.990515134675443
BIOCARTA_SALMONELLA_PATHWAY	0.990692650601893
BIOCARTA_TCRA_PATHWAY	0.990809030262682
PID_P38_MKK3_6PATHWAY	0.990973447950595
REACTOME_FORMATION_OF_RNA_POL_II_ELONGATION_COMPLEX_	0.990976960093183
REACTOME_GENERATION_OF_SECOND_MESSENGER_MOLECULES	0.991252964881009
REACTOME_AKT_PHOSPHORYLATES_TARGETS_IN_THE_CYTOSOL	0.991441556332892
REACTOME_TRYPTOPHAN_CATABOLISM	0.991580859733237
REACTOME_AUTODEGRADATION_OF_CDH1_BY_CDH1_APC_C	0.991616647930116
REACTOME_METABOLISM_OF_RNA	0.991616647930116
REACTOME_SLBP_DEPENDENT_PROCESSING_OF_REPLICATION_DEPENDENT_HISTONE_PRE_MRNAS	0.991680974199455
REACTOME_INTERACTIONS_OF_VPR_WITH_HOST_CELLULAR_PROTEINS	0.99176205265701
REACTOME_LOSS_OF_NLP_FROM_MITOTIC_CENTROSOMES	0.99197860188241
REACTOME_MITOTIC_PROMETAPHASE	0.991979578134419
BIOCARTA_RAB_PATHWAY	0.992030400826595
BIOCARTA_P27_PATHWAY	0.992162735641862
PID_RANBP2PATHWAY	0.992416281905976
ST_TUMOR_NECROSIS_FACTOR_PATHWAY	0.992638454041878
REACTOME_PEPTIDE_CHAIN_ELONGATION	0.9927807096083
REACTOME_NEGATIVE_REGULATORS_OF_RIG_I_MDA5_SIGNALING	0.99293085252922
REACTOME_SIGNALING_BY_NOTCH3	0.992956114763057
REACTOME_PROCESSIVE_SYNTHESIS_ON_THE_LAGGING_STRAND	0.993347528436074
REACTOME_MITOCHONDRIAL_FATTY_ACID_BETA_OXIDATION	0.993410348024502
REACTOME_NOTCH_HLH_TRANSCRIPTION_PATHWAY	0.99346177408873
PID_P53REGULATIONPATHWAY	0.993496134707965
REACTOME_MITOCHONDRIAL_PROTEIN_IMPORT	0.99350417433734
REACTOME_MRNA_DECAY_BY_5_TO_3_EXORIBONUCLEASE	0.993645810728308
REACTOME_ENOS_ACTIVATION_AND_REGULATION	0.993724200279755
KEGG_HOMOLOGOUS_RECOMBINATION	0.99385342292729
REACTOME_DESTABILIZATION_OF_MRNA_BY_KSRP	0.99385342292729
REACTOME_ACTIVATION_OF_THE_PRE_REPLICATIVE_COMPLEX	0.994410565820172
KEGG_GRAFT_VERSUS_HOST_DISEASE	0.994452775998441
REACTOME_PACKAGING_OF_TELOMERE_ENDS	0.994452775998441
REACTOME_REGULATORY_RNA_PATHWAYS	0.994700767250337
REACTOME_GLYCOLYSIS	0.995246402725583
KEGG_STEROID_BIOSYNTHESIS	0.995558299402604
KEGG_GLUTATHIONE_METABOLISM	0.995617620256182
REACTOME_BETA_DEFENSINS	0.995673743557443
PID_LIS1PATHWAY	0.995688341068407
REACTOME_REGULATION_OF_GLUCOKINASE_BY_GLUCOKINASE_REGULATORY_PROTEIN	0.995784036499644
KEGG_FOLATE_BIOSYNTHESIS	0.995883064379047
KEGG_GLYOXYLATE_AND_DICARBOXYLATE_METABOLISM	0.995942012011624
REACTOME_MRNA_PROCESSING	0.996011201677038
REACTOME_METABOLISM_OF_NON_CODING_RNA	0.99627263083859
REACTOME_TRAF3_DEPENDENT_IRF_ACTIVATION_PATHWAY	0.996360308085595
REACTOME_ANTIGEN_PRESENTATION_FOLDING_ASSEMBLY_AND_PEPTIDE_LOADING_OF_CLASS_I_MHC	0.996422036668604
BIOCARTA_PROTEASOME_PATHWAY	0.996472228956146
REACTOME_DEPOSITION_OF_NEW_CENPA_CONTAINING_NUCLEOSOMES_AT_THE_CENTROMERE	0.996623143908214
KEGG_PARKINSONS_DISEASE	0.996678903213311
REACTOME_SIGNALING_BY_NOTCH2	0.996766624411485
REACTOME_NEP_NS2_INTERACTS_WITH_THE_CELLULAR_EXPORT_MACHINERY	0.996921937720403
REACTOME_MICRORNA_MIRNA_BIOGENESIS	0.996924477213617
REACTOME_SEMA3A_PAK_DEPENDENT_AXON_REPULSION	0.997001748067588
KEGG_TERPENOID_BACKBONE_BIOSYNTHESIS	0.997268667468357
REACTOME_TRANSLOCATION_OF_ZAP_70_TO_IMMUNOLOGICAL_SYNAPSE	0.99732494894069
REACTOME_RESPIRATORY_ELECTRON_TRANSPORT	0.997408523914534
REACTOME_PHOSPHORYLATION_OF_CD3_AND_TCR_ZETA_CHAINS	0.997417019219499
KEGG_ALZHEIMERS_DISEASE	0.997588313745424
REACTOME_ACTIVATION_OF_THE_MRNA_UPON_BINDING_OF_THE_CAP_BINDING_COMPLEX_AND_EIFS_AND_SUBSEQUENT_BINDING_TO_43S	0.997649879009497
REACTOME_MITOTIC_M_M_G1_PHASES	0.997667615967835
REACTOME_POST_TRANSLATIONAL_MODIFICATION_SYNTHESIS_OF_GPI_ANCHORED_PROTEINS	0.997667615967835
KEGG_CIRCADIAN_RHYTHM_MAMMAL	0.997900854858701
REACTOME_SYNTHESIS_OF_GLYCOSYLPHOSPHATIDYLINOSITOL_GPI	0.99831018229289
REACTOME_PURINE_SALVAGE	0.998334706205938
REACTOME_TETRAHYDROBIOPTERIN_BH4_SYNTHESIS_RECYCLING_SALVAGE_AND_REGULATION	0.998437531247974
PID_IL12_2PATHWAY	0.99849583850698
REACTOME_CLEAVAGE_OF_GROWING_TRANSCRIPT_IN_THE_TERMINATION_REGION_	0.998509564935342
REACTOME_GLOBAL_GENOMIC_NER_GG_NER	0.998549328167731
REACTOME_AMYLOIDS	0.998611529987985
REACTOME_PD1_SIGNALING	0.998661018413138
REACTOME_ERKS_ARE_INACTIVATED	0.998727299849849
BIOCARTA_IL4_PATHWAY	0.99876317887523
REACTOME_PROCESSING_OF_CAPPED_INTRONLESS_PRE_MRNA	0.998829995815559
BIOCARTA_ARAP_PATHWAY	0.998978266944012
REACTOME_FORMATION_OF_INCISION_COMPLEX_IN_GG_NER	0.998978266944012
REACTOME_REGULATION_OF_IFNG_SIGNALING	0.999326494196638
KEGG_OLFACTORY_TRANSDUCTION	0.99944413207064
REACTOME_FORMATION_OF_THE_TERNARY_COMPLEX_AND_SUBSEQUENTLY_THE_43S_COMPLEX	0.999515533223529
REACTOME_REGULATION_OF_PYRUVATE_DEHYDROGENASE_PDH_COMPLEX	0.999515533223529
BIOCARTA_AKAP95_PATHWAY	0.999661056216994
REACTOME_DEFENSINS	0.999731145130846
REACTOME_OLFACTORY_SIGNALING_PATHWAY	0.999731145130846
REACTOME_RNA_POL_I_PROMOTER_OPENING	0.999731145130846
