"coefficients.Serous"	"coefficients.NonSerous"	"stdev.unscaled.Serous"	"stdev.unscaled.NonSerous"	"sigma"	"df.residual"	"Amean"	"s2.post"	"t.Serous"	"t.NonSerous"	"df.total"	"p.value.Serous"	"p.value.NonSerous"	"lods.Serous"	"lods.NonSerous"	"F"	"F.p.value"
"DUSP3"	14.8119353409529	14.7609802997106	0.0730698543573649	0.0322038679743407	1.0563724245793	321	14.7768128394027	1.11405212932837	192.052873423547	434.264578219019	330.610775675673	0	0	768.247711691318	1036.83619771343	112735.015042992	0
"DUSP4"	11.9470774529783	13.3533638888055	0.15508988749559	0.0422087601114011	1.96609927788429	321	13.0544105595987	3.78374490209004	39.6020140837997	162.63992475653	330.610775675673	1.52997552783875e-127	1.42576871198092e-317	280.787497141553	717.973829550018	14010.0323221516	2.65412064945918e-320
"DUSP6"	15.1859382086443	16.0921581550832	0.0693881880834607	0.0279509008424752	1.97604083458469	321	15.9387581944721	3.82179663832706	111.949535088408	294.499590768566	330.610775675673	6.39888146554461e-265	0	596.444512317998	912.350796984249	49631.3536846818	0
"DUSP7"	13.8727690098958	13.7096218532188	0.0795779330342123	0.0356925508112597	0.943789813843244	321	13.731971915169	0.895414672390976	184.229170749229	405.915641128231	330.610775675673	0	0	754.099620575516	1014.14060380584	99353.9475337458	0
"ELK1"	14.9844784700581	14.6234014556826	0.0711262606029764	0.0329581840437584	0.857269321141137	321	14.6872482470282	0.744116046326084	244.225676044163	514.357164247696	330.610775675673	0	0	844.060244645653	1090.0186667886	162104.73662608	0
"MAPK11"	11.738160001814	12.1517676751102	0.160624487443327	0.0632612256376492	0.990893630188234	321	12.0750064021808	0.98389649055471	73.6738837484134	193.654302483401	330.610775675673	3.25527651898984e-207	0	461.454962768315	772.324853183159	21464.9150084536	0
"MAPK14"	14.9583591962651	14.673461767019	0.0713563673923458	0.0326569373658177	0.8374774257753	321	14.7304537681988	0.711548861182218	248.51285626809	532.665743472757	330.610775675673	0	0	849.408195101973	1101.12030679297	172745.716999954	0
"MAPK1"	15.9229420208773	15.9604304993829	0.0650764466984187	0.0283204039276945	0.998766734655688	321	15.9581650786837	0.999105922382588	244.790024330031	563.818590297707	330.610775675673	0	0	846.230379768767	1121.29264333982	188906.779388395	0
"MAPK3"	15.4515194069862	15.0322733424032	0.06792319132783	0.0308654728740663	1.08529150761884	321	15.0963661906764	1.17418665213041	209.934850115417	449.451836912917	330.610775675673	0	0	797.253347287688	1048.27288505045	123039.797498689	0
"MAPK7"	13.9898374973137	14.0203140022675	0.0790358473872133	0.034616109000625	0.852930536752429	321	14.0159880515962	0.736911560973249	206.196301376702	471.815067017884	330.610775675673	0	0	789.532156154498	1062.12310036051	132563.186083261	0
"MEF2A"	14.3501395599319	14.3756242704503	0.0781721272801595	0.0340479645176941	1.00131073521634	321	14.3818887495991	1.00404620789013	183.200790867957	421.365243209645	330.610775675673	0	0	752.554540717457	1026.58586250847	105555.598979884	0
"MEF2C"	11.9518116329477	12.3742048952146	0.152711476359143	0.0580317287568168	1.0309198150355	321	12.3471744224456	1.06246948505214	75.9283270794824	206.868117201468	330.610775675673	2.66449636155187e-211	0	471.020359980896	794.138650785991	24279.7643837846	0
"PPP2CA"	16.31612431543	16.2834491202488	0.0622202137989033	0.0272624680679111	0.968159318612565	321	16.3006620484342	0.940653471228071	270.377579193363	615.837882317015	330.610775675673	0	0	878.074580879507	1149.64951585904	226180.166313585	0
"PPP2CB"	15.0736915140389	15.4774506870044	0.0702276170323594	0.0296458140114031	1.02984921274044	321	15.414483904877	1.06032735656634	208.445108300853	507.009464038024	330.610775675673	0	0	794.596324139467	1087.07467255862	150253.97989934	0
"PPP2R1A"	18.4016296271718	18.3023230752669	0.0456736830245818	0.0201137785868299	0.990439585711973	321	18.3163858669909	0.983023028697479	406.357617920869	917.763340903801	330.610775675673	0	0	1010.54433619819	1279.73622385728	503708.031774615	0
"PPP2R1B"	13.9136200538759	14.4382439535658	0.0792897153828933	0.0337813109059862	1.16879297347183	321	14.3691696764281	1.35693451901304	150.641223890882	366.909056416733	330.610775675673	1.0272335475167e-306	0	690.439774736827	982.446983891494	78657.51700798	0
"PPP2R5D"	15.5864902453641	15.4205005164794	0.06725483728122	0.0297602177696392	0.757971689646352	321	15.4494072668953	0.588388926923926	302.12910230128	675.507413879881	330.610775675673	0	0	910.821431417545	1176.6077809469	273796.130332031	0
"RPS6KA1"	15.4604583257759	15.9035599472997	0.0678852246573466	0.0284848591408279	1.16916062930112	321	15.8365515781971	1.35776909401538	195.449311731253	479.145390654376	330.610775675673	0	0	774.60008019785	1069.57090016978	133890.369420778	0
"RPS6KA2"	14.7012141875198	14.6260018671627	0.0746078863891211	0.0329500850709446	1.42418644717943	321	14.643325233633	1.99991367316986	139.335841061755	313.87986671435	330.610775675673	1.09583779513467e-295	0	666.022325697698	932.304310589533	58967.5236665024	0
"RPS6KA3"	14.0787122947292	13.9896819422702	0.0789899350211117	0.0346272178197592	1.21275351911827	321	14.0046126732041	1.45858517050658	147.579243759946	334.5217384839	330.610775675673	8.26342536147467e-304	0	683.943082408367	952.532493857464	66842.2133535241	0
"RPS6KA5"	10.6987303945136	11.8596668731708	0.164582989218177	0.0674873288623724	1.09366483222372	321	11.7176013685375	1.19190137994422	59.5425097382033	160.964494411021	330.610775675673	8.71273628486236e-179	4.19125492003285e-316	397.25449920909	712.754434482236	14727.4394634597	9.88131291682493e-324
