Gene Set	p-value
hsa05131	0.0
hsa05416	0.0
hsa03010	0.0
hsa05332	0.01
hsa04940	0.01
hsa00380	0.01
hsa05140	0.01
hsa04744	0.01
hsa04740	0.02
hsa04330	0.03
hsa05320	0.03
hsa00780	0.03
hsa00514	0.03
hsa05330	0.03
hsa00232	0.03
hsa05110	0.04
hsa04971	0.04
hsa05130	0.04
hsa00785	0.05
hsa04514	0.05
hsa05322	0.08
hsa04612	0.09
hsa04080	0.1
hsa04130	0.1
hsa00531	0.13
hsa04530	0.13
hsa00982	0.14
hsa05100	0.14
hsa04520	0.14
hsa00260	0.16
hsa00340	0.16
hsa02010	0.16
hsa01040	0.18
hsa05210	0.19
hsa00460	0.2
hsa00062	0.2
hsa00360	0.22
hsa04977	0.22
hsa04950	0.22
hsa00603	0.25
hsa03450	0.25
hsa00670	0.25
hsa03022	0.26
hsa05144	0.26
hsa04975	0.26
hsa00640	0.26
hsa04720	0.27
hsa04666	0.27
hsa04972	0.27
hsa03008	0.27
hsa04976	0.27
hsa04122	0.3
hsa04120	0.32
hsa04145	0.32
hsa00860	0.33
hsa00071	0.33
hsa04962	0.33
hsa00471	0.34
hsa00563	0.36
hsa05414	0.38
hsa04916	0.38
hsa04144	0.4
hsa03040	0.42
hsa04380	0.42
hsa04662	0.42
hsa04660	0.42
hsa04670	0.42
hsa05340	0.43
hsa04672	0.43
hsa05216	0.43
hsa03440	0.43
hsa00790	0.46
hsa00410	0.46
hsa04722	0.49
hsa04360	0.49
hsa04640	0.51
hsa04146	0.51
hsa00983	0.52
hsa04966	0.52
hsa00270	0.52
hsa00620	0.52
hsa00280	0.52
hsa00120	0.53
hsa03320	0.53
hsa00920	0.53
hsa04340	0.53
hsa00760	0.58
hsa04320	0.58
hsa03060	0.58
hsa00511	0.58
hsa00630	0.58
hsa00900	0.58
hsa00040	0.58
hsa00740	0.58
hsa04810	0.6
hsa05200	0.62
hsa00130	0.63
hsa04650	0.63
hsa03013	0.66
hsa00500	0.66
hsa04742	0.66
hsa04310	0.66
hsa00510	0.66
hsa00310	0.66
hsa05143	0.66
hsa00051	0.66
hsa00350	0.66
hsa00480	0.66
hsa00030	0.66
hsa04012	0.67
hsa03430	0.67
hsa00770	0.67
hsa05222	0.67
hsa04510	0.67
hsa04020	0.67
hsa00590	0.68
hsa03018	0.68
hsa05412	0.68
hsa05217	0.68
hsa05221	0.68
hsa05014	0.68
hsa00980	0.68
hsa00072	0.71
hsa00592	0.74
hsa00100	0.74
hsa00601	0.76
hsa03410	0.76
hsa04150	0.76
hsa00650	0.76
hsa04260	0.76
hsa05220	0.76
hsa05120	0.76
hsa00330	0.76
hsa05211	0.76
hsa00750	0.79
hsa00300	0.79
hsa00450	0.8
hsa00591	0.8
hsa05215	0.83
hsa05410	0.83
hsa03420	0.84
hsa00140	0.84
hsa04140	0.84
hsa00970	0.84
hsa00400	0.84
hsa03030	0.84
hsa03050	0.84
hsa04141	0.85
hsa05010	0.85
hsa04062	0.85
hsa04610	0.86
hsa00562	0.86
hsa04370	0.86
hsa00524	0.86
hsa04115	0.86
hsa05212	0.86
hsa04621	0.86
hsa04142	0.88
hsa00730	0.89
hsa00290	0.9
hsa04710	0.9
hsa04614	0.9
hsa05213	0.91
hsa00061	0.91
hsa05150	0.91
hsa00561	0.91
hsa03020	0.91
hsa00565	0.91
hsa00430	0.91
hsa04664	0.91
hsa04970	0.92
hsa04070	0.92
hsa04210	0.92
hsa04512	0.92
hsa04630	0.95
hsa00230	0.95
hsa05016	0.95
hsa04010	0.95
hsa04623	0.96
hsa05218	0.96
hsa04270	0.96
hsa05020	0.96
hsa00520	0.96
hsa00512	0.96
hsa03015	0.96
hsa00600	0.96
hsa05145	0.96
hsa04622	0.96
hsa00010	0.96
hsa01100	0.98
hsa04910	0.98
hsa05323	0.99
hsa00240	0.99
hsa04350	0.99
hsa05146	0.99
hsa05142	0.99
hsa00190	0.99
hsa04110	0.99
hsa04914	0.99
hsa05012	0.99
hsa04114	0.99
hsa04620	0.99
hsa00604	1.0
hsa04960	1.0
hsa00472	1.0
hsa00020	1.0
hsa05219	1.0
hsa00533	1.0
hsa05310	1.0
hsa00053	1.0
hsa05214	1.0
hsa04912	1.0
hsa04540	1.0
hsa04964	1.0
hsa04730	1.0
hsa00830	1.0
hsa04973	1.0
hsa05160	1.0
hsa00532	1.0
hsa04974	1.0
hsa00910	1.0
hsa04060	1.0
hsa05223	1.0
hsa04920	1.0
hsa00564	1.0
hsa00534	1.0
hsa00250	1.0
hsa04930	1.0
hsa00052	1.0
