Gene Set	AUC
hsa00780	0.98529412
hsa03010	0.98529412
hsa05131	0.97058824
hsa05416	0.97058824
hsa00232	0.97058824
hsa00785	0.95588235
hsa04744	0.95588235
hsa05332	0.94117647
hsa04940	0.94117647
hsa00380	0.94117647
hsa05140	0.94117647
hsa04330	0.92647059
hsa05320	0.92647059
hsa00514	0.92647059
hsa05110	0.92647059
hsa04971	0.92647059
hsa05330	0.92647059
hsa00531	0.92647059
hsa05130	0.92647059
hsa04612	0.91176471
hsa00460	0.91176471
hsa01040	0.91176471
hsa00062	0.91176471
hsa04130	0.91176471
hsa04514	0.91176471
hsa00360	0.89705882
hsa04977	0.89705882
hsa00982	0.89705882
hsa00260	0.89705882
hsa04950	0.89705882
hsa04740	0.89705882
hsa05100	0.89705882
hsa04520	0.89705882
hsa05322	0.89705882
hsa00340	0.89705882
hsa02010	0.89705882
hsa03022	0.88235294
hsa00603	0.88235294
hsa04080	0.88235294
hsa05144	0.88235294
hsa03450	0.88235294
hsa04975	0.88235294
hsa00640	0.88235294
hsa04530	0.88235294
hsa05210	0.88235294
hsa04122	0.88235294
hsa00670	0.88235294
hsa04720	0.86764706
hsa04666	0.86764706
hsa04972	0.86764706
hsa03008	0.86764706
hsa00563	0.86764706
hsa00860	0.86764706
hsa00071	0.86764706
hsa04962	0.86764706
hsa04976	0.86764706
hsa05340	0.85294118
hsa04662	0.85294118
hsa00790	0.85294118
hsa04672	0.85294118
hsa05414	0.85294118
hsa05216	0.85294118
hsa00471	0.85294118
hsa04120	0.85294118
hsa03440	0.85294118
hsa04145	0.85294118
hsa00410	0.85294118
hsa04916	0.85294118
hsa03040	0.83823529
hsa04380	0.83823529
hsa04722	0.83823529
hsa00983	0.83823529
hsa04966	0.83823529
hsa00120	0.83823529
hsa03320	0.83823529
hsa04660	0.83823529
hsa00920	0.83823529
hsa04640	0.83823529
hsa04146	0.83823529
hsa00270	0.83823529
hsa04360	0.83823529
hsa00620	0.83823529
hsa00280	0.83823529
hsa04144	0.83823529
hsa04670	0.83823529
hsa04340	0.83823529
hsa04012	0.82352941
hsa03013	0.82352941
hsa00590	0.82352941
hsa03018	0.82352941
hsa00760	0.82352941
hsa04320	0.82352941
hsa05412	0.82352941
hsa05217	0.82352941
hsa00500	0.82352941
hsa03060	0.82352941
hsa00511	0.82352941
hsa04742	0.82352941
hsa05221	0.82352941
hsa04310	0.82352941
hsa00510	0.82352941
hsa00310	0.82352941
hsa05014	0.82352941
hsa00630	0.82352941
hsa04810	0.82352941
hsa05200	0.82352941
hsa00900	0.82352941
hsa00040	0.82352941
hsa05143	0.82352941
hsa00051	0.82352941
hsa00350	0.82352941
hsa00480	0.82352941
hsa00030	0.82352941
hsa04650	0.82352941
hsa05222	0.82352941
hsa04510	0.82352941
hsa00980	0.82352941
hsa04020	0.82352941
hsa00740	0.82352941
hsa04141	0.80882353
hsa00601	0.80882353
hsa03410	0.80882353
hsa05215	0.80882353
hsa05410	0.80882353
hsa04150	0.80882353
hsa05010	0.80882353
hsa00650	0.80882353
hsa03430	0.80882353
hsa04142	0.80882353
hsa04260	0.80882353
hsa01100	0.80882353
hsa05220	0.80882353
hsa04010	0.80882353
hsa00770	0.80882353
hsa05120	0.80882353
hsa04062	0.80882353
hsa00330	0.80882353
hsa05211	0.80882353
hsa04610	0.79411765
hsa04970	0.79411765
hsa00562	0.79411765
hsa04270	0.79411765
hsa03420	0.79411765
hsa00140	0.79411765
hsa04070	0.79411765
hsa04630	0.79411765
hsa04140	0.79411765
hsa00230	0.79411765
hsa05016	0.79411765
hsa00970	0.79411765
hsa03030	0.79411765
hsa00130	0.79411765
hsa05145	0.79411765
hsa03050	0.79411765
hsa00592	0.79411765
hsa04370	0.79411765
hsa00100	0.79411765
hsa04210	0.79411765
hsa04115	0.79411765
hsa04512	0.79411765
hsa05212	0.79411765
hsa04621	0.79411765
hsa05213	0.77941176
hsa00450	0.77941176
hsa05150	0.77941176
hsa00072	0.77941176
hsa03015	0.77941176
hsa00561	0.77941176
hsa03020	0.77941176
hsa00190	0.77941176
hsa05012	0.77941176
hsa04060	0.77941176
hsa04114	0.77941176
hsa04910	0.77941176
hsa00565	0.77941176
hsa00591	0.77941176
hsa04664	0.77941176
hsa05323	0.76470588
hsa00290	0.76470588
hsa04623	0.76470588
hsa05218	0.76470588
hsa05020	0.76470588
hsa00520	0.76470588
hsa00240	0.76470588
hsa04710	0.76470588
hsa00512	0.76470588
hsa04350	0.76470588
hsa05146	0.76470588
hsa04614	0.76470588
hsa00600	0.76470588
hsa05142	0.76470588
hsa04110	0.76470588
hsa04914	0.76470588
hsa04622	0.76470588
hsa00010	0.76470588
hsa04620	0.76470588
hsa00604	0.75
hsa04960	0.75
hsa00020	0.75
hsa05219	0.75
hsa00061	0.75
hsa05214	0.75
hsa04912	0.75
hsa04540	0.75
hsa00750	0.75
hsa04964	0.75
hsa04730	0.75
hsa00300	0.75
hsa00830	0.75
hsa04973	0.75
hsa05160	0.75
hsa00532	0.75
hsa04974	0.75
hsa00910	0.75
hsa05223	0.75
hsa04920	0.75
hsa00430	0.75
hsa00564	0.75
hsa00534	0.75
hsa00250	0.75
hsa04930	0.75
hsa00052	0.75
hsa00053	0.73529412
hsa00533	0.70588235
hsa00400	0.70588235
hsa05310	0.63235294
hsa00524	0.63235294
hsa00730	0.36764706
hsa00472	0.0
