Gene Set	p-value
hsa05218	0.0
hsa05217	0.0
hsa03020	0.0
hsa01100	0.0
hsa00500	0.01
hsa03040	0.02
hsa00020	0.02
hsa05214	0.02
hsa00860	0.02
hsa05200	0.02
hsa00071	0.02
hsa00232	0.02
hsa05012	0.02
hsa00010	0.02
hsa00030	0.02
hsa00601	0.03
hsa00520	0.03
hsa03060	0.03
hsa04512	0.03
hsa03420	0.04
hsa00270	0.04
hsa05216	0.04
hsa00565	0.04
hsa03010	0.04
hsa04340	0.04
hsa04141	0.05
hsa00240	0.05
hsa00230	0.05
hsa04146	0.05
hsa03050	0.05
hsa00051	0.05
hsa00471	0.05
hsa04510	0.05
hsa00300	0.07
hsa04960	0.08
hsa03410	0.08
hsa04810	0.08
hsa04622	0.08
hsa03013	0.1
hsa00590	0.1
hsa00730	0.1
hsa00524	0.1
hsa04012	0.11
hsa05221	0.11
hsa03022	0.12
hsa04950	0.12
hsa05130	0.12
hsa04020	0.12
hsa00514	0.13
hsa00480	0.13
hsa04916	0.13
hsa03008	0.14
hsa05219	0.15
hsa00310	0.15
hsa03030	0.15
hsa00620	0.15
hsa00052	0.15
hsa00053	0.16
hsa04614	0.16
hsa00040	0.16
hsa04623	0.17
hsa05213	0.17
hsa05014	0.17
hsa00970	0.18
hsa00650	0.18
hsa00280	0.18
hsa04145	0.18
hsa03015	0.19
hsa04010	0.19
hsa00140	0.2
hsa04110	0.21
hsa00603	0.22
hsa00511	0.22
hsa00790	0.22
hsa00604	0.23
hsa05146	0.23
hsa00290	0.24
hsa03450	0.24
hsa05322	0.24
hsa03430	0.24
hsa00670	0.24
hsa00061	0.25
hsa05215	0.28
hsa00640	0.28
hsa04310	0.29
hsa04620	0.3
hsa00533	0.31
hsa00400	0.32
hsa00600	0.32
hsa00350	0.32
hsa00190	0.33
hsa04114	0.33
hsa04670	0.33
hsa00430	0.33
hsa05220	0.34
hsa04370	0.34
hsa05223	0.34
hsa04720	0.35
hsa04080	0.35
hsa00062	0.35
hsa04260	0.35
hsa05212	0.35
hsa04666	0.36
hsa04540	0.36
hsa00380	0.36
hsa05120	0.36
hsa03440	0.36
hsa04975	0.37
hsa05412	0.39
hsa04630	0.39
hsa04971	0.39
hsa05416	0.39
hsa04962	0.39
hsa04122	0.39
hsa04320	0.4
hsa04120	0.4
hsa05016	0.41
hsa04730	0.41
hsa04974	0.41
hsa05210	0.41
hsa05211	0.41
hsa05020	0.42
hsa00512	0.42
hsa05410	0.43
hsa03320	0.43
hsa00130	0.43
hsa04640	0.44
hsa04142	0.44
hsa00532	0.45
hsa00472	0.46
hsa05323	0.47
hsa00780	0.47
hsa05332	0.47
hsa05150	0.47
hsa05414	0.47
hsa00561	0.47
hsa04744	0.47
hsa00460	0.48
hsa00531	0.48
hsa04514	0.49
hsa05145	0.5
hsa03018	0.52
hsa01040	0.52
hsa04520	0.52
hsa00785	0.53
hsa04742	0.54
hsa04972	0.54
hsa00830	0.54
hsa04130	0.54
hsa00534	0.54
hsa00250	0.54
hsa04740	0.55
hsa04650	0.55
hsa04977	0.56
hsa04970	0.57
hsa04912	0.57
hsa05131	0.59
hsa00072	0.59
hsa04062	0.59
hsa04621	0.59
hsa00760	0.61
hsa04964	0.61
hsa00340	0.61
hsa05143	0.61
hsa00410	0.61
hsa04270	0.63
hsa04610	0.65
hsa00983	0.65
hsa04150	0.65
hsa05340	0.65
hsa04350	0.65
hsa04940	0.65
hsa00510	0.65
hsa05222	0.65
hsa00630	0.66
hsa00591	0.66
hsa05010	0.67
hsa05140	0.7
hsa04115	0.7
hsa04976	0.7
hsa05310	0.72
hsa04966	0.72
hsa00260	0.72
hsa04140	0.72
hsa05330	0.72
hsa04530	0.72
hsa04930	0.72
hsa00330	0.73
hsa00770	0.74
hsa04060	0.76
hsa04144	0.77
hsa05144	0.78
hsa00910	0.78
hsa00900	0.78
hsa04210	0.78
hsa05142	0.79
hsa04070	0.8
hsa04910	0.83
hsa04612	0.84
hsa05110	0.84
hsa00564	0.84
hsa05320	0.87
hsa00920	0.87
hsa02010	0.87
hsa04380	0.88
hsa04722	0.89
hsa05100	0.89
hsa04920	0.89
hsa00360	0.9
hsa00982	0.9
hsa00563	0.9
hsa05160	0.9
hsa04360	0.9
hsa00592	0.9
hsa04914	0.91
hsa00120	0.93
hsa04710	0.94
hsa00562	0.95
hsa04664	0.95
hsa00450	0.96
hsa04662	0.96
hsa00980	0.96
hsa04330	0.97
hsa00750	0.97
hsa04672	0.97
hsa04973	0.97
hsa00100	0.97
hsa00740	0.97
hsa04660	0.99
