Gene Set	p-value
hsa05200	0.0
hsa04010	0.0
hsa00460	0.01
hsa05410	0.01
hsa04310	0.01
hsa05414	0.01
hsa04360	0.01
hsa00430	0.01
hsa04510	0.01
hsa04514	0.01
hsa04620	0.01
hsa00020	0.02
hsa05219	0.02
hsa05020	0.02
hsa00500	0.02
hsa00750	0.02
hsa00310	0.02
hsa00561	0.02
hsa00590	0.03
hsa05412	0.03
hsa03320	0.03
hsa04662	0.03
hsa04520	0.03
hsa05210	0.03
hsa00564	0.03
hsa00770	0.04
hsa04960	0.05
hsa05144	0.05
hsa04810	0.05
hsa04540	0.06
hsa05222	0.06
hsa00410	0.06
hsa05131	0.07
hsa05416	0.07
hsa04670	0.07
hsa00760	0.08
hsa04722	0.1
hsa05214	0.1
hsa05100	0.1
hsa00640	0.1
hsa00071	0.1
hsa00620	0.1
hsa05140	0.1
hsa05130	0.1
hsa00330	0.1
hsa04976	0.1
hsa04320	0.11
hsa04710	0.11
hsa00471	0.11
hsa04350	0.12
hsa04380	0.13
hsa05218	0.13
hsa00380	0.13
hsa00650	0.13
hsa00340	0.13
hsa00280	0.13
hsa05211	0.13
hsa00450	0.14
hsa00730	0.14
hsa00532	0.14
hsa00360	0.15
hsa04614	0.15
hsa04012	0.16
hsa05323	0.16
hsa04970	0.16
hsa05146	0.16
hsa04512	0.16
hsa05217	0.17
hsa04622	0.17
hsa00062	0.19
hsa04530	0.19
hsa00052	0.19
hsa04270	0.2
hsa05142	0.2
hsa00830	0.22
hsa00250	0.22
hsa04610	0.24
hsa05213	0.24
hsa00780	0.24
hsa04974	0.24
hsa04260	0.24
hsa00010	0.24
hsa04920	0.24
hsa00920	0.25
hsa04964	0.25
hsa01040	0.25
hsa00040	0.25
hsa04122	0.25
hsa00072	0.27
hsa00350	0.27
hsa00480	0.27
hsa04930	0.27
hsa04666	0.29
hsa04912	0.29
hsa04210	0.29
hsa04916	0.29
hsa00290	0.31
hsa00982	0.31
hsa05220	0.31
hsa04330	0.32
hsa00520	0.32
hsa04150	0.32
hsa04910	0.32
hsa04145	0.32
hsa00603	0.33
hsa00670	0.33
hsa00740	0.33
hsa00400	0.34
hsa00630	0.36
hsa05212	0.36
hsa00604	0.37
hsa05215	0.38
hsa03015	0.4
hsa03013	0.41
hsa04140	0.41
hsa05160	0.41
hsa04744	0.41
hsa04120	0.41
hsa03060	0.42
hsa00260	0.44
hsa00230	0.44
hsa04660	0.44
hsa05221	0.44
hsa00910	0.44
hsa04144	0.44
hsa00980	0.44
hsa00785	0.46
hsa04973	0.47
hsa00531	0.47
hsa00900	0.47
hsa00232	0.49
hsa04720	0.5
hsa04940	0.5
hsa00300	0.5
hsa04115	0.5
hsa04621	0.5
hsa00601	0.51
hsa00061	0.51
hsa04630	0.51
hsa00600	0.51
hsa02010	0.51
hsa00534	0.51
hsa04020	0.51
hsa00053	0.52
hsa00790	0.52
hsa04950	0.53
hsa05014	0.53
hsa00860	0.53
hsa04340	0.53
hsa00970	0.54
hsa04962	0.54
hsa05120	0.54
hsa05216	0.55
hsa04146	0.56
hsa04914	0.56
hsa00512	0.58
hsa05145	0.58
hsa00565	0.58
hsa04975	0.59
hsa00051	0.59
hsa04971	0.6
hsa05010	0.61
hsa04062	0.61
hsa04623	0.62
hsa04370	0.62
hsa04114	0.62
hsa00562	0.64
hsa00511	0.64
hsa05016	0.65
hsa04977	0.66
hsa00140	0.66
hsa03040	0.68
hsa00130	0.68
hsa04110	0.68
hsa00120	0.7
hsa03050	0.7
hsa00591	0.7
hsa03018	0.71
hsa00983	0.71
hsa00270	0.71
hsa04130	0.71
hsa00592	0.71
hsa00190	0.72
hsa05150	0.73
hsa05143	0.73
hsa04141	0.76
hsa04972	0.76
hsa00563	0.76
hsa04142	0.77
hsa05012	0.77
hsa00510	0.79
hsa00472	0.8
hsa04640	0.83
hsa04672	0.84
hsa04730	0.85
hsa04060	0.85
hsa05223	0.85
hsa04664	0.86
hsa04742	0.87
hsa00100	0.87
hsa00030	0.87
hsa04650	0.87
hsa00533	0.88
hsa03430	0.92
hsa05310	0.93
hsa00514	0.93
hsa04080	0.94
hsa05332	0.94
hsa04070	0.95
hsa05340	0.95
hsa05322	0.95
hsa03420	0.96
hsa04966	0.96
hsa00240	0.96
hsa00524	0.96
hsa03022	0.98
hsa03008	0.98
hsa01100	0.98
hsa04612	0.99
hsa05110	0.99
hsa03020	0.99
hsa03030	0.99
hsa03410	1.0
hsa05320	1.0
hsa03450	1.0
hsa05330	1.0
hsa04740	1.0
hsa03440	1.0
hsa03010	1.0
