Gene Set	AUC
hsa04330	1.0
hsa04012	1.0
hsa03040	1.0
hsa03013	1.0
hsa04141	1.0
hsa04380	1.0
hsa04610	1.0
hsa04722	1.0
hsa05323	1.0
hsa03410	1.0
hsa00590	1.0
hsa03018	1.0
hsa00760	1.0
hsa04970	1.0
hsa04623	1.0
hsa00020	1.0
hsa04720	1.0
hsa04320	1.0
hsa00562	1.0
hsa04270	1.0
hsa03420	1.0
hsa03022	1.0
hsa04080	1.0
hsa05219	1.0
hsa00533	1.0
hsa05215	1.0
hsa00360	1.0
hsa05144	1.0
hsa00460	1.0
hsa04977	1.0
hsa05213	1.0
hsa05020	1.0
hsa04966	1.0
hsa00140	1.0
hsa00520	1.0
hsa00240	1.0
hsa00982	1.0
hsa04070	1.0
hsa00260	1.0
hsa04710	1.0
hsa04150	1.0
hsa04950	1.0
hsa05340	1.0
hsa05332	1.0
hsa00120	1.0
hsa03320	1.0
hsa00500	1.0
hsa04630	1.0
hsa03060	1.0
hsa04662	1.0
hsa00790	1.0
hsa05150	1.0
hsa05214	1.0
hsa00514	1.0
hsa00230	1.0
hsa00072	1.0
hsa05110	1.0
hsa04912	1.0
hsa00920	1.0
hsa04540	1.0
hsa05221	1.0
hsa00512	1.0
hsa04971	1.0
hsa04350	1.0
hsa04940	1.0
hsa04310	1.0
hsa04972	1.0
hsa04964	1.0
hsa03008	1.0
hsa05416	1.0
hsa05146	1.0
hsa00510	1.0
hsa05016	1.0
hsa04730	1.0
hsa04640	1.0
hsa00970	1.0
hsa04146	1.0
hsa04614	1.0
hsa00563	1.0
hsa01040	1.0
hsa00270	1.0
hsa00062	1.0
hsa03015	1.0
hsa00310	1.0
hsa00561	1.0
hsa04740	1.0
hsa00650	1.0
hsa05100	1.0
hsa00830	1.0
hsa00600	1.0
hsa00640	1.0
hsa05014	1.0
hsa04520	1.0
hsa05160	1.0
hsa00860	1.0
hsa04360	1.0
hsa05322	1.0
hsa05142	1.0
hsa00531	1.0
hsa04130	1.0
hsa00190	1.0
hsa04974	1.0
hsa04110	1.0
hsa04530	1.0
hsa05200	1.0
hsa00071	1.0
hsa04914	1.0
hsa00910	1.0
hsa00340	1.0
hsa04142	1.0
hsa00232	1.0
hsa02010	1.0
hsa00620	1.0
hsa05140	1.0
hsa04962	1.0
hsa00040	1.0
hsa05143	1.0
hsa01100	1.0
hsa05012	1.0
hsa00051	1.0
hsa05220	1.0
hsa04622	1.0
hsa00280	1.0
hsa04060	1.0
hsa05216	1.0
hsa00350	1.0
hsa00010	1.0
hsa00480	1.0
hsa04144	1.0
hsa05223	1.0
hsa04010	1.0
hsa04744	1.0
hsa04910	1.0
hsa04920	1.0
hsa05120	1.0
hsa05222	1.0
hsa05210	1.0
hsa04062	1.0
hsa00670	1.0
hsa00565	1.0
hsa04670	1.0
hsa04512	1.0
hsa05212	1.0
hsa04510	1.0
hsa00330	1.0
hsa04120	1.0
hsa04976	1.0
hsa05211	1.0
hsa03440	1.0
hsa04621	1.0
hsa00564	1.0
hsa04145	1.0
hsa00410	1.0
hsa04916	1.0
hsa00250	1.0
hsa04930	1.0
hsa04020	1.0
hsa04664	1.0
hsa03010	1.0
hsa04340	1.0
hsa00052	1.0
hsa00740	1.0
hsa04514	1.0
hsa04620	1.0
hsa00290	0.99880952
hsa05218	0.99880952
hsa04666	0.99880952
hsa05412	0.99880952
hsa00983	0.99880952
hsa05217	0.99880952
hsa05131	0.99880952
hsa04660	0.99880952
hsa00750	0.99880952
hsa05414	0.99880952
hsa04975	0.99880952
hsa05010	0.99880952
hsa04973	0.99880952
hsa00532	0.99880952
hsa04810	0.99880952
hsa05145	0.99880952
hsa03430	0.99880952
hsa04260	0.99880952
hsa04370	0.99880952
hsa00030	0.99880952
hsa04114	0.99880952
hsa05130	0.99880952
hsa04210	0.99880952
hsa04115	0.99880952
hsa04650	0.99880952
hsa04122	0.99880952
hsa00980	0.99880952
hsa00534	0.99880952
hsa00601	0.99761905
hsa04612	0.99761905
hsa05410	0.99761905
hsa04742	0.99761905
hsa04672	0.99761905
hsa00380	0.99761905
hsa03030	0.99761905
hsa00900	0.99761905
hsa00100	0.99761905
hsa00591	0.99761905
hsa00053	0.99642857
hsa00450	0.99642857
hsa00511	0.99642857
hsa03020	0.99642857
hsa00400	0.99642857
hsa05320	0.9952381
hsa03450	0.9952381
hsa05330	0.9952381
hsa00630	0.9952381
hsa03050	0.9952381
hsa04960	0.99404762
hsa04140	0.99404762
hsa00592	0.99404762
hsa00770	0.99404762
hsa00603	0.99047619
hsa00604	0.98809524
hsa05310	0.98452381
hsa00730	0.98452381
hsa00061	0.98333333
hsa00780	0.9797619
hsa00430	0.975
hsa00471	0.95119048
hsa00524	0.94404762
hsa00472	0.92142857
hsa00130	0.89642857
hsa00300	0.76547619
hsa00785	0.67142857
